:100000000C9438010C9469010C9469010C946901F9
:100010000C9469010C9469010C9469010C946901B8
:100020000C9469010C9469010C9469010C946901A8
:100030000C9469010C9469010C9469010C94690198
:100040000C9469010C9469010C9469010C94690188
:100050000C9469010C9469010C9469010C941B04C3
:100060000C9469010C94F1050C9422050C9469011F
:100070000C9469010C9469010C9469010C94690158
:100080000C9469010C9469010C9469010C94690148
:100090000C94C1050C94E3040C9469010C9469015F
:1000A0000C9469010C9469010C9469010C94690128
:1000B0000C9469010C9469010C9469010C94690118
:1000C0000C9469010C9469010C9469010C949105DC
:1000D0000C94A4040C9469010C9461050C946504BF
:1000E0000C946901950198018B018F01CF019C014E
:1000F000A001A601AA01AE01B401B801BC01CF0163
:10010000C201C601CA010C9458030C948B010C94D3
:100110002F030C949A030C949C010C94B8010C943A
:1001200021060C9495010C94C5030C94E1030C94E6
:10013000BC010C94C2010C94CA010C94C6010C942D
:10014000A6010C94A5030C948F010C94B4010C949B
:10015000CF010C94A0010C9498010C94DC080C9431
:10016000AA010C94AE0100002100240027002A00FF
:100170002D003000330001010000040107010A01D5
:100180000000090A02080B0C0D0706030401000019
:10019000000000000000000000000000000000005F
:1001A00000000000000000000000000011100F001F
:1001B000000000000000000000000000000000003F
:1001C000000000000000010210202008081020405C
:1001D000102040800201020108040201010204080B
:1001E0001020408080402010080402018004020199
:1001F00080402010080402010804020101020408E2
:1002000010204080010204081020408000002200DD
:10021000250028002B002E003100340002010000D0
:10022000050108010B010505050507050808080873
:10023000020202020A0A080804040404010101017E
:100240000101010103030303030303030407070779
:100250000C0C0C0C0C0C0C0C02020202060606061E
:10026000060606060B0B0B0B0B0B0B0B2106DC0813
:1002700011241FBECFEFD1E2DEBFCDBF00E00CBF27
:1002800012E0A0E0B2E0ECE7F4E100E00BBF02C056
:1002900007900D92A631B107D9F724E0A6E1B2E0AC
:1002A00001C01D92A73EB207E1F711E0C7E3D1E01C
:1002B00000E006C021970109802FFE010E94240A58
:1002C000C633D10780E00807A9F70E94BC070C9449
:1002D000EC080C94000090E0FC01E058FE4F4491C3
:1002E000FC01EA53FE4F2491FC01EA5DFD4F94911D
:1002F000992309F463C0442309F451C050E0FA0182
:100300003197E131F10508F04AC08827EE58FF4FD8
:100310008F4F0C94240A809180008F7703C08091C6
:1003200080008F7D809380003AC084B58F7702C0B3
:1003300084B58F7D84BD33C08091B0008F7703C0BA
:100340008091B0008F7D8093B00029C08091900093
:100350008F7707C0809190008F7D03C080919000BF
:10036000877F809390001BC08091A0008F7707C08B
:100370008091A0008F7D03C08091A000877F809333
:10038000A0000DC0809120018F7707C080912001CF
:100390008F7D03C080912001877F80932001E92F0A
:1003A000F0E0EE0FFF1FE45FFD4FA591B4919FB702
:1003B000F8948C91209528232C939FBF0895409109
:1003C000DB045091D8042091D6043091D704451312
:1003D00008C0AC01440F551F840F951F820F931F57
:1003E0000AC0880F991F880F991F820F931FFC0165
:1003F000E40FF11D10822091D804FC01E20FF11DE1
:1004000010822091D904FC01E20FF11D108220918D
:10041000DA04FC01E20FF11D10820895CF93DF93FF
:1004200090E0FC01EA53FE4F2491FC01EA5DFD4F90
:100430008491882361F190E0880F991FFC01EA59AB
:10044000FE4FC591D491FC01E45FFD4FA591B4919D
:10045000611109C09FB7F894888120958223888311
:10046000EC912E230BC0623061F49FB7F894888121
:10047000322F309583238883EC912E2B2C939FBFB2
:1004800006C08FB7F894E8812E2B28838FBFDF91A9
:10049000CF9108953FB7F89480911B0290911C0270
:1004A000A0911D02B0911E0226B5A89B05C02F3F4A
:1004B00019F00196A11DB11D3FBFBA2FA92F982F8A
:1004C0008827820F911DA11DB11DBC01CD0142E005
:1004D000660F771F881F991F4A95D1F708950F93CC
:1004E0001F93CF93DF93CDB7DEB729970FB6F8945C
:1004F000DEBF0FBECDBF8091D6049091D704892B6B
:1005000009F4A2C00E944A020091DC041091DD04AB
:100510002091DE043091DF04DC01CB01801B910BC4
:10052000A20BB30B8C329140A105B10558F3F8949E
:100530008091D1049091D2049A838983E091D6046A
:10054000F091D704DF011196808189879091CB04C7
:10055000E091E004F091E1048091E204992309F430
:100560002EC09081982B98879081809589238F83C6
:100570008F818C8388E08B8358856F8149853B818F
:100580002C8189819A81508347FD252F3A952083BC
:10059000262F39F0441F00C000006083000000C017
:1005A000F2CF38E04D9160830000019761F7F0933E
:1005B000E104E093E00449873B832C8338C09081B9
:1005C000982B98879081809589238F838F818E8344
:1005D00088E08D8358856F8149853D812E81898191
:1005E0009A81508347FD252F00C000C0208300C0A2
:1005F00000C000C000C000C060830000262F3A95F4
:1006000041F0441F000000C000C000C000C000C096
:10061000E8CF38E04D9100C0608300C0019709F732
:10062000F093E104E093E00449873D832E839A83AD
:10063000898378940E944A026093DC047093DD04FD
:100640008093DE049093DF0429960FB6F894DEBF02
:100650000FBECDBFDF91CF911F910F910895CF9223
:10066000DF92EF92FF920F931F93CF93DF936C0172
:10067000EB017B01E40EF51E00E010E0CE15DF0576
:1006800061F06991D601ED91FC910190F081E02D2E
:10069000C6011995080F191FF1CFC801DF91CF913D
:1006A0001F910F91FF90EF90DF90CF9008950895E4
:1006B0000F931F93CF93DF93FC01A685B7858D0120
:1006C000005C1F4FE8018881998101968F739927FB
:1006D000AD014E5B5F4FEA01288139818217930794
:1006E000D1F3E80128813981A20FB31F6C93A6854D
:1006F000B785A05CBF4F11969C938E93A689B7894E
:100700002C9181E090E0078C02C0880F991F0A9419
:10071000E2F7822B8C9381E081A30488F589E02D98
:1007200080818064808381E090E0DF91CF911F9190
:100730000F910895FC0181A1882329F0A489B5892E
:100740008C9186FFFBCF11A20895FC01A485B5858D
:10075000FD01E05CFF4F20813181329680819181E3
:100760002817390779F080819181A80FB91F8C91E2
:10077000208131812F5F3F4F2F73332731832083B7
:1007800090E008958FEF9FEF0895DC011C96ED91A6
:10079000FC911D97DF01A05CBF4F2D913C911197FB
:1007A00012968D919C9111972817390739F08D91E8
:1007B0009C91E80FF91F808190E008958FEF9FEFE3
:1007C0000895FC0124853585F901E05CFF4F8081A7
:1007D0009181329620813181821B930B8F739927EF
:1007E000089585EA94E00E94E1038BEF93E00E9474
:1007F000E10381E593E00E94E10387EA92E00C9433
:10080000E103FB01E05CFF4F208131812F5F3F4F0F
:100810002F733327DB01AE5BBF4F4D915C912417E3
:10082000350741F040815181DB01A40FB51F8C9346
:100830003183208308951F920F920FB60F921124D7
:100840002F933F938F939F93AF93BF938091170202
:1008500090911802A0911902B0911A0230911602DB
:1008600023E0230F2D3720F40196A11DB11D05C0F3
:1008700026E8230F0296A11DB11D20931602809336
:10088000170290931802A0931902B0931A02809154
:100890001B0290911C02A0911D02B0911E020196B4
:1008A000A11DB11D80931B0290931C02A0931D02F9
:1008B000B0931E02BF91AF919F918F913F912F9165
:1008C0000F900FBE0F901F9018951F920F920FB6AA
:1008D0000F9211240BB60F922F933F938F939F93F8
:1008E000EF93FF9320915F0230916002809161024B
:1008F000909162022817390731F4809131018F7D80
:100900008093310114C0E0916102F0916202E15ED6
:10091000FD4F2081809161029091620201968F7358
:100920009927909362028093610220933601FF9190
:10093000EF919F918F913F912F910F900BBE0F9050
:100940000FBE0F901F9018951F920F920FB60F9227
:1009500011240BB60F922F933F938F939F93EF9396
:10096000FF932091090330910A0380910B0390912A
:100970000C032817390731F48091D1008F7D8093C3
:10098000D10014C0E0910B03F0910C03E753FD4F2D
:10099000208180910B0390910C0301968F7399270E
:1009A00090930C0380930B032093D600FF91EF915B
:1009B0009F918F913F912F910F900BBE0F900FBE83
:1009C0000F901F9018951F920F920FB60F9211243F
:1009D0000BB60F922F933F938F939F93EF93FF93B9
:1009E0002091B3033091B4038091B5039091B60385
:1009F0002817390731F48091C9008F7D8093C90091
:100A000014C0E091B503F091B603ED58FC4F20817E
:100A10008091B5039091B60301968F7399279093B7
:100A2000B6038093B5032093CE00FF91EF919F9181
:100A30008F913F912F910F900BBE0F900FBE0F9093
:100A40001F9018951F920F920FB60F9211240BB69C
:100A50000F922F933F938F939F93EF93FF93209148
:100A60005D0430915E0480915F04909160042817CA
:100A7000390731F48091C1008F7D8093C10014C08B
:100A8000E0915F04F0916004E35EFB4F2081809170
:100A90005F049091600401968F739927909360048E
:100AA00080935F042093C600FF91EF919F918F91F7
:100AB0003F912F910F900BBE0F900FBE0F901F9084
:100AC00018951F920F920FB60F9211240BB60F922A
:100AD0002F933F934F935F936F937F938F939F9346
:100AE000AF93BF93EF93FF938091300182FD06C0D7
:100AF0008091360163E672E00E940104FF91EF915C
:100B0000BF91AF919F918F917F916F915F914F9125
:100B10003F912F910F900BBE0F900FBE0F901F9023
:100B200018951F920F920FB60F9211240BB60F92C9
:100B30002F933F934F935F936F937F938F939F93E5
:100B4000AF93BF93EF93FF938091D00082FD06C0D7
:100B50008091D6006DE073E00E940104FF91EF9157
:100B6000BF91AF919F918F917F916F915F914F91C5
:100B70003F912F910F900BBE0F900FBE0F901F90C3
:100B800018951F920F920FB60F9211240BB60F9269
:100B90002F933F934F935F936F937F938F939F9385
:100BA000AF93BF93EF93FF938091C80082FD06C07F
:100BB0008091CE0067EB73E00E940104FF91EF91FA
:100BC000BF91AF919F918F917F916F915F914F9165
:100BD0003F912F910F900BBE0F900FBE0F901F9063
:100BE00018951F920F920FB60F9211240BB60F9209
:100BF0002F933F934F935F936F937F938F939F9325
:100C0000AF93BF93EF93FF938091C00082FD06C026
:100C10008091C60061E674E00E940104FF91EF91AB
:100C2000BF91AF919F918F917F916F915F914F9104
:100C30003F912F910F900BBE0F900FBE0F901F9002
:100C40001895CF92DF92EF92FF921092A804109223
:100C5000A70498EEC92E93E0D92EE12CF12CC09276
:100C6000A904D092AA04E092AB04F092AC046AE02A
:100C700072E07093A6046093A50481E694E09093DB
:100C8000B2048093B1048DE194E09093B404809316
:100C9000B30485EC90E09093B6048093B50484ECA3
:100CA00090E09093B8048093B70480EC90E0909328
:100CB000BA048093B90481EC90E09093BC048093D3
:100CC000BB0482EC90E09093BE048093BD0486EC5C
:100CD00090E09093C0048093BF0444E04093C1042B
:100CE00033E03093C20427E02093C30495E090934F
:100CF000C40481E08093C5041092FE031092FD03AA
:100D0000C092FF03D0920004E0920104F09202042A
:100D10007093FC036093FB03E7EBF3E0F0930804AC
:100D2000E0930704E3E7F3E0F0930A04E093090497
:100D3000EDECF0E0F0930C04E0930B04ECECF0E04D
:100D4000F0930E04E0930D04E8ECF0E0F09310044F
:100D5000E0930F04E9ECF0E0F0931204E093110447
:100D6000EAECF0E0F0931404E0931304EEECF0E00E
:100D7000F0931604E093150440931704309318047D
:100D80002093190490931A0480931B041092540327
:100D900010925303C0925503D0925603E09257032A
:100DA000F09258037093520360935103EDE0F3E027
:100DB000F0935E03E0935D03E9ECF2E0F0936003EF
:100DC000E0935F03E5EDF0E0F0936203E0936103ED
:100DD000E4EDF0E0F0936403E0936303E0EDF0E012
:100DE000F0936603E0936503E1EDF0E0F0936803B0
:100DF000E0936703E2EDF0E0F0936A03E0936903A8
:100E0000E6EDF0E0F0936C03E0936B0340936D0329
:100E100030936E0320936F0390937003809371035C
:100E20001092AA021092A902C092AB02D092AC0218
:100E3000E092AD02F092AE027093A8026093A70216
:100E400063E672E07093B4026093B3026FE172E004
:100E50007093B6026093B50265E371E07093B802D7
:100E60006093B70264E371E07093BA026093B902D1
:100E700060E371E07093BC026093BB0261E371E0D8
:100E80007093BE026093BD0262E371E07093C00292
:100E90006093BF0266E371E07093C2026093C10287
:100EA0004093C3023093C4022093C5029093C602BC
:100EB0008093C7021092CE041092D5041092DC04E5
:100EC0001092DD041092DE041092DF048093DB04A4
:100ED0008093D8041092D90492E09093DA0480931E
:100EE000CB0484EB90E09093D2048093D1040E94D1
:100EF000EF089093D7048093D604009761F024EB19
:100F0000FC0111922A95E9F78CE390E09093D004CC
:100F10008093CF0408C01092D2041092D104109292
:100F2000D0041092CF0484E090E09093D404809396
:100F3000D3048091CE04882339F061E084E00E94DC
:100F40000E0284E00E946B01EAE2F2E0E491F0E03C
:100F5000EE0FFF1FE45FFD4F859194919093E104A4
:100F60008093E004EAECF1E0E491E093E204FF9086
:100F7000EF90DF90CF900895789484B5826084BD1F
:100F800084B5816084BD85B5826085BD85B581608D
:100F900085BD80916E00816080936E00109281000B
:100FA00080918100826080938100809181008160C6
:100FB0008093810080918000816080938000809187
:100FC000B10084608093B1008091B0008160809313
:100FD000B000809191008260809391008091910097
:100FE0008160809391008091900081608093900057
:100FF0008091A10082608093A1008091A100816016
:101000008093A1008091A00081608093A0008091D6
:101010002101826080932101809121018160809370
:1010200021018091200181608093200180917A00CC
:10103000846080937A0080917A00826080937A0045
:1010400080917A00816080937A0080917A00806834
:1010500080937A001092C100E091B904F091BA0433
:1010600081E090E09C010090C50402C0220F331F74
:101070000A94E2F72083E091B504F091B60410825F
:10108000E091B704F091B80420E120831092C604E7
:10109000E091BB04F091BC0440819C010090C1042C
:1010A00002C0220F331F0A94E2F7242B2083E09121
:1010B000BB04F091BC0440819C010090C20402C0BA
:1010C000220F331F0A94E2F7242B2083E091BB0404
:1010D000F091BC0440819C010090C30402C0220F27
:1010E000331F0A94E2F7242B2083E091BB04F09194
:1010F000BC0420810090C40402C0880F991F0A9488
:10110000E2F78095822380838091D3049091D40468
:1011100097FD07C061E00E940E028091D3040E94F7
:101120006B0181E08093CE040E946F026091D50430
:10113000613001F1615070E08FEF90E00E94100A81
:101140002091D6043091D704F9014091D1045091F7
:10115000D204CF01821B930B8417950740F4408182
:10116000469FC001479F900D11249193EECF81E0DF
:101170008093D504C0E08C2F90E02091CF04309173
:10118000D0048217930740F40E94DF010E946F028F
:10119000CF5FF1CF0E94F103C0E08C2F90E020914F
:1011A000CF043091D00482179307A0F70E94DF018B
:1011B0000E946F02CF5FF1CF8091D6049091D70447
:1011C0000E9487098091D3049091D40497FD03C0B5
:1011D00060E00C940E020895F8940C942C0A0F937E
:1011E0001F93CF93DF938230910510F482E090E05B
:1011F000E091E504F091E60420E030E0A0E0B0E00A
:10120000309719F1408151810281138148175907A4
:10121000C8F08417950769F4109731F012960C9373
:10122000129713961C9327C00093E5041093E604CD
:1012300022C02115310519F04217530718F49A01FD
:10124000BD01EF01DF01F801DBCF21153105F9F018
:10125000281B390B2430310580F48A819B8161156C
:10126000710521F0FB019383828304C09093E6040F
:101270008093E504FE01329644C0FE01E20FF31FA5
:101280008193919322503109398328833AC0209168
:10129000E3043091E404232B41F4209102023091C5
:1012A00003023093E4042093E30420910002309180
:1012B00001022115310541F42DB73EB740910402DA
:1012C00050910502241B350BE091E304F091E404F6
:1012D000E217F307A0F42E1B3F0B2817390778F00D
:1012E000AC014E5F5F4F2417350748F04E0F5F1F6C
:1012F0005093E4044093E3048193919302C0E0E0AF
:10130000F0E0CF01DF91CF911F910F910895CF931E
:10131000DF93009709F481C0FC0132971382128297
:10132000A091E504B091E604109781F42081318109
:10133000820F931F2091E3043091E40428173907AA
:1013400051F5F093E404E093E30467C0ED0120E07D
:1013500030E0CE17DF0740F44A815B819E014115E2
:101360005105F1F0EA01F5CFD383C2834081518169
:10137000840F951FC817D90759F488819981840F64
:10138000951F0296918380838A819B8193838283B8
:101390002115310529F4F093E604E093E5043DC0FE
:1013A000E901FB83EA8349915991C40FD51FEC17DA
:1013B000FD0761F480819181840F951F0296E901F8
:1013C00099838883828193819B838A83E0E0F0E024
:1013D00012968D919C911397009719F0FD01DC01F5
:1013E000F7CF8D919C9111979D012E5F3F4F820FFA
:1013F000931F2091E3043091E4042817390769F41E
:10140000309729F41092E6041092E50402C013828A
:101410001282B093E404A093E304DF91CF91089586
:10142000AA1BBB1B51E107C0AA1FBB1FA617B7070A
:1014300010F0A61BB70B881F991F5A95A9F7809526
:101440009095BC01CD010895EE0FFF1F881F8BBF43
:101450000790F691E02D199411E0C7E3D1E000E088
:1014600006C0802FFE010E94240A2196011DC83368
:0C147000D10780E00807A9F7F894FFCF2F
:10147C000000E70420000000000058032F03E103E4
:06148C00A503C5039A034D
:00000001FF
