LOOP num #;0
0.73;0.50;0.66;0.54;0.72;-160;-129
0.76;0.53;0.70;0.57;0.82;-167;-155
0.78;0.54;0.72;0.57;0.83;-66;-189
0.79;0.55;0.72;0.59;0.87;54;-122
0.81;0.57;0.72;0.60;0.87;-6;-135
0.81;0.58;0.72;0.61;0.87;-74;-162
0.81;0.58;0.73;0.61;0.94;59;-140
0.81;0.57;0.71;0.60;0.85;22;-159
0.87;0.58;0.74;0.64;0.90;60;-146
0.95;0.57;0.75;0.67;0.83;29;-190

LOOP num #;1
0.89;0.56;0.72;0.62;0.85;85;-143
0.85;0.55;0.70;0.61;0.86;36;-157
0.86;0.55;0.70;0.60;0.87;54;-142
0.90;0.56;0.72;0.63;0.86;50;-147
0.88;0.54;0.70;0.61;0.82;54;-151
0.95;0.53;0.70;0.64;0.80;65;-162
0.92;0.51;0.69;0.62;0.66;151;-248
0.80;0.48;0.66;0.56;0.65;84;-140
0.68;0.46;0.61;0.48;0.59;57;-108
0.71;0.51;0.64;0.51;0.71;45;-171

LOOP num #;2
0.73;0.54;0.64;0.55;0.86;9;-87
0.78;0.56;0.66;0.57;0.89;-36;-119
0.82;0.56;0.68;0.61;0.87;34;-159
0.83;0.55;0.68;0.61;0.80;47;-166
0.82;0.54;0.67;0.60;0.81;56;-145
0.77;0.53;0.65;0.58;0.78;52;-146
0.78;0.53;0.66;0.58;0.81;49;-154
0.76;0.52;0.64;0.56;0.80;49;-144
0.75;0.52;0.64;0.56;0.80;50;-152
0.72;0.52;0.64;0.55;0.77;49;-142

LOOP num #;3
0.71;0.51;0.63;0.53;0.78;54;-147
0.71;0.51;0.63;0.52;0.76;53;-145
0.70;0.51;0.62;0.52;0.77;55;-142
0.69;0.51;0.61;0.51;0.75;46;-153
0.68;0.50;0.61;0.50;0.74;48;-147
0.67;0.50;0.60;0.50;0.74;55;-142
0.68;0.50;0.60;0.50;0.74;50;-148
0.67;0.50;0.60;0.49;0.72;47;-143
0.67;0.49;0.59;0.49;0.74;54;-144
0.66;0.49;0.59;0.48;0.73;52;-142

LOOP num #;4
0.67;0.50;0.60;0.49;0.73;55;-144
0.67;0.49;0.59;0.49;0.72;46;-146
0.65;0.49;0.59;0.48;0.72;51;-147
0.65;0.50;0.59;0.48;0.72;54;-141
0.65;0.50;0.59;0.48;0.72;61;-133
0.65;0.49;0.59;0.48;0.72;45;-150
0.65;0.49;0.58;0.48;0.71;47;-150
0.64;0.49;0.58;0.46;0.69;51;-144
0.64;0.49;0.58;0.47;0.70;46;-148
0.62;0.48;0.58;0.46;0.68;52;-147

LOOP num #;5
0.63;0.48;0.58;0.46;0.68;48;-146
0.63;0.48;0.57;0.46;0.67;50;-147
0.63;0.48;0.58;0.46;0.67;51;-146
0.62;0.48;0.57;0.46;0.66;50;-148
0.62;0.48;0.57;0.46;0.66;47;-149
0.62;0.48;0.57;0.46;0.66;52;-145
0.63;0.49;0.58;0.47;0.68;49;-148
0.63;0.48;0.58;0.47;0.68;48;-149
0.62;0.48;0.57;0.46;0.67;55;-141
0.63;0.48;0.58;0.46;0.67;47;-149

LOOP num #;6
0.64;0.48;0.58;0.47;0.68;46;-146
0.65;0.49;0.59;0.47;0.69;51;-148
0.64;0.48;0.58;0.47;0.68;48;-147
0.64;0.48;0.58;0.47;0.69;49;-149
0.64;0.47;0.57;0.46;0.69;51;-143
0.63;0.48;0.57;0.47;0.69;55;-147
0.63;0.47;0.57;0.45;0.68;49;-146
0.62;0.47;0.57;0.46;0.67;59;-144
0.62;0.47;0.57;0.45;0.67;47;-148
0.61;0.47;0.56;0.45;0.66;48;-151

LOOP num #;7
0.62;0.48;0.57;0.45;0.67;53;-143
0.62;0.47;0.56;0.46;0.67;50;-149
0.61;0.47;0.56;0.46;0.65;47;-150
0.60;0.47;0.56;0.45;0.64;48;-145
0.60;0.46;0.56;0.45;0.65;48;-148
0.59;0.46;0.56;0.45;0.65;44;-152
0.60;0.46;0.55;0.45;0.65;54;-146
0.59;0.46;0.55;0.45;0.64;50;-144
0.59;0.46;0.55;0.45;0.65;55;-148
0.60;0.46;0.55;0.45;0.65;48;-150

LOOP num #;8
0.60;0.46;0.55;0.45;0.65;48;-145
0.59;0.46;0.55;0.45;0.64;44;-155
0.58;0.45;0.54;0.44;0.64;52;-146
0.59;0.45;0.55;0.44;0.65;49;-142
0.61;0.47;0.55;0.46;0.65;48;-152
0.60;0.46;0.55;0.45;0.64;48;-144
0.59;0.46;0.55;0.45;0.65;48;-152
0.59;0.45;0.55;0.44;0.63;52;-146
0.58;0.45;0.54;0.44;0.64;48;-152
0.59;0.46;0.54;0.44;0.64;51;-145

LOOP num #;9
0.61;0.46;0.55;0.46;0.64;43;-154
0.60;0.45;0.55;0.45;0.64;54;-148
0.61;0.46;0.55;0.45;0.64;50;-148
0.65;0.45;0.58;0.47;0.65;53;-149
0.78;0.48;0.64;0.56;0.67;46;-185
0.75;0.47;0.64;0.56;0.64;92;-149
0.69;0.46;0.62;0.52;0.63;50;-140
0.65;0.45;0.59;0.48;0.59;36;-163
0.66;0.45;0.59;0.45;0.59;80;-150
0.63;0.45;0.57;0.45;0.63;70;-143

LOOP num #;10
0.62;0.46;0.57;0.45;0.65;43;-108
0.63;0.46;0.57;0.46;0.65;42;-157
0.70;0.47;0.60;0.50;0.67;54;-144
0.81;0.48;0.65;0.57;0.68;33;-200
0.84;0.49;0.67;0.60;0.68;62;-141
0.88;0.49;0.69;0.63;0.70;43;-171
0.82;0.49;0.67;0.59;0.68;70;-134
0.79;0.48;0.65;0.56;0.66;41;-146
0.73;0.48;0.62;0.53;0.65;56;-139
0.68;0.47;0.61;0.49;0.65;50;-128

LOOP num #;11
0.49;0.47;0.52;0.34;0.67;29;-125
0.41;0.51;0.50;0.30;0.75;-136;-255
0.45;0.55;0.53;0.33;0.83;-138;-85
0.45;0.55;0.54;0.33;0.83;-6;-148
0.45;0.55;0.54;0.33;0.83;46;-137
0.45;0.54;0.53;0.33;0.81;46;-146
0.45;0.54;0.52;0.33;0.81;45;-158
0.46;0.54;0.52;0.34;0.80;44;-149
0.45;0.53;0.51;0.33;0.79;51;-145
0.44;0.53;0.51;0.33;0.77;49;-150

LOOP num #;12
0.44;0.53;0.51;0.32;0.77;56;-142
0.45;0.52;0.51;0.32;0.76;44;-141
0.44;0.53;0.51;0.32;0.77;52;-148
0.43;0.52;0.50;0.33;0.75;43;-148
0.44;0.52;0.50;0.33;0.76;55;-146
0.44;0.52;0.49;0.33;0.75;47;-153
0.43;0.51;0.49;0.33;0.73;52;-141
0.43;0.52;0.49;0.33;0.73;49;-147
0.43;0.52;0.49;0.33;0.74;48;-147
0.43;0.51;0.49;0.33;0.73;48;-142

LOOP num #;13
0.45;0.51;0.49;0.33;0.73;55;-146
0.43;0.50;0.48;0.33;0.70;40;-149
0.43;0.51;0.48;0.33;0.72;51;-141
0.45;0.51;0.48;0.33;0.73;46;-153
0.43;0.50;0.48;0.33;0.71;45;-146
0.45;0.50;0.48;0.33;0.71;51;-145
0.45;0.50;0.48;0.33;0.72;45;-149
0.44;0.50;0.48;0.33;0.70;44;-145
0.44;0.49;0.48;0.34;0.69;49;-149
0.45;0.49;0.49;0.34;0.70;45;-153

LOOP num #;14
0.45;0.50;0.49;0.33;0.70;49;-146
0.45;0.49;0.49;0.33;0.69;52;-144
0.45;0.49;0.49;0.33;0.69;52;-139
0.45;0.48;0.49;0.34;0.68;48;-150
0.45;0.48;0.48;0.33;0.67;48;-146
0.44;0.48;0.50;0.34;0.68;49;-146
0.44;0.49;0.49;0.34;0.67;49;-145
0.45;0.49;0.50;0.35;0.68;46;-150
0.45;0.49;0.49;0.35;0.68;46;-145
0.46;0.49;0.50;0.36;0.69;38;-159

LOOP num #;15
0.46;0.48;0.50;0.35;0.67;44;-151
0.52;0.49;0.53;0.39;0.71;39;-153
0.76;0.53;0.62;0.54;0.79;35;-198
0.72;0.50;0.60;0.53;0.71;67;-193
0.67;0.49;0.59;0.48;0.67;16;-178
0.65;0.48;0.56;0.44;0.62;99;-149
0.62;0.49;0.57;0.43;0.66;69;-197
0.63;0.53;0.57;0.45;0.85;83;-128
0.65;0.53;0.58;0.47;0.88;-57;-180
0.64;0.50;0.57;0.44;0.78;100;-103

LOOP num #;16
0.63;0.50;0.56;0.44;0.74;34;-173
0.63;0.49;0.55;0.43;0.67;52;-141
0.64;0.49;0.56;0.43;0.64;41;-161
0.66;0.49;0.58;0.46;0.61;30;-168
0.65;0.48;0.58;0.45;0.61;51;-153
0.63;0.48;0.57;0.44;0.62;44;-139
0.62;0.47;0.56;0.43;0.63;51;-146
0.60;0.47;0.55;0.42;0.61;49;-143
0.59;0.48;0.55;0.43;0.62;52;-147
0.62;0.48;0.56;0.43;0.64;49;-147

LOOP num #;17
0.61;0.48;0.55;0.43;0.64;44;-153
0.59;0.47;0.54;0.42;0.63;52;-144
0.60;0.47;0.54;0.42;0.63;48;-144
0.60;0.47;0.55;0.41;0.63;55;-149
0.58;0.46;0.54;0.41;0.62;48;-153
0.59;0.47;0.55;0.42;0.63;53;-144
0.61;0.47;0.55;0.43;0.64;50;-146
0.61;0.47;0.55;0.43;0.63;49;-153
0.60;0.46;0.54;0.42;0.62;51;-144
0.59;0.46;0.53;0.41;0.61;53;-148

LOOP num #;18
0.59;0.46;0.54;0.41;0.61;54;-152
0.58;0.46;0.53;0.41;0.61;52;-141
0.59;0.46;0.53;0.41;0.62;53;-147
0.60;0.47;0.54;0.42;0.63;44;-143
0.61;0.48;0.55;0.43;0.64;53;-146
0.60;0.48;0.55;0.43;0.65;44;-143
0.60;0.49;0.55;0.43;0.65;56;-143
0.58;0.47;0.54;0.43;0.65;48;-148
0.61;0.48;0.55;0.43;0.66;49;-142
0.61;0.48;0.55;0.43;0.66;52;-142

LOOP num #;19
0.60;0.48;0.54;0.43;0.65;54;-148
0.59;0.47;0.54;0.43;0.64;52;-143
0.59;0.47;0.54;0.43;0.64;45;-152
0.59;0.48;0.54;0.43;0.65;52;-145
0.59;0.47;0.54;0.43;0.64;53;-148
0.59;0.47;0.54;0.43;0.65;46;-153
0.58;0.47;0.53;0.43;0.64;48;-146
0.60;0.48;0.53;0.43;0.65;51;-146
0.58;0.47;0.53;0.43;0.64;45;-149
0.58;0.47;0.53;0.43;0.65;51;-144

LOOP num #;20
0.60;0.48;0.53;0.44;0.66;49;-147
0.59;0.47;0.53;0.43;0.65;59;-140
0.57;0.47;0.52;0.43;0.65;50;-146
0.57;0.46;0.52;0.43;0.63;49;-150
0.57;0.46;0.51;0.42;0.62;50;-148
0.56;0.46;0.52;0.42;0.62;46;-148
0.56;0.46;0.52;0.43;0.62;51;-150
0.57;0.47;0.52;0.43;0.61;59;-140
0.58;0.46;0.52;0.43;0.62;46;-147
0.55;0.45;0.51;0.42;0.64;58;-140

LOOP num #;21
0.56;0.45;0.51;0.42;0.64;50;-155
0.55;0.45;0.50;0.41;0.62;49;-151
0.57;0.45;0.52;0.41;0.64;57;-144
0.57;0.45;0.52;0.41;0.65;42;-151
0.56;0.46;0.52;0.41;0.65;44;-150
0.55;0.48;0.53;0.39;0.72;41;-150
0.50;0.53;0.53;0.37;0.86;-8;-132
0.43;0.53;0.52;0.35;0.90;-107;-143
0.43;0.52;0.51;0.33;0.86;-5;-149
0.46;0.51;0.52;0.35;0.86;52;-150

LOOP num #;22
0.45;0.50;0.51;0.34;0.81;69;-130
0.44;0.50;0.51;0.33;0.78;68;-145
0.43;0.49;0.50;0.33;0.78;56;-146
0.44;0.49;0.50;0.33;0.77;51;-145
0.44;0.48;0.50;0.34;0.74;51;-146
0.52;0.49;0.53;0.40;0.73;67;-158
0.79;0.48;0.59;0.56;0.66;72;-161
0.70;0.46;0.59;0.47;0.59;282;-135
0.66;0.48;0.58;0.49;0.68;112;-134
0.64;0.49;0.56;0.47;0.73;-22;-123

LOOP num #;23
0.60;0.47;0.54;0.46;0.69;110;-90
0.57;0.46;0.53;0.44;0.68;13;-209
0.55;0.46;0.52;0.43;0.64;77;-145
0.59;0.47;0.52;0.44;0.66;35;-156
0.62;0.47;0.55;0.47;0.67;48;-146
0.58;0.47;0.53;0.46;0.64;42;-155
0.56;0.46;0.51;0.45;0.62;51;-137
0.55;0.45;0.51;0.44;0.61;40;-147
0.57;0.45;0.51;0.44;0.63;43;-152
0.58;0.46;0.52;0.45;0.64;39;-147

LOOP num #;24
0.56;0.44;0.51;0.43;0.61;47;-148
0.53;0.44;0.51;0.43;0.61;47;-149
0.53;0.44;0.51;0.43;0.62;49;-147
0.53;0.45;0.50;0.42;0.62;46;-146
0.54;0.44;0.50;0.43;0.62;45;-148
0.54;0.45;0.51;0.43;0.64;49;-142
0.52;0.44;0.50;0.42;0.60;41;-142
0.52;0.44;0.50;0.42;0.60;59;-146
0.55;0.45;0.50;0.43;0.62;44;-150
0.52;0.45;0.50;0.42;0.61;47;-147

LOOP num #;25
0.52;0.45;0.50;0.42;0.63;51;-147
0.52;0.45;0.49;0.42;0.65;25;-150
0.62;0.52;0.55;0.50;0.77;47;-124
0.60;0.50;0.52;0.48;0.74;33;-92
0.57;0.48;0.51;0.45;0.70;63;-140
0.57;0.48;0.51;0.47;0.68;51;-164
0.55;0.46;0.50;0.46;0.66;50;-149
0.56;0.46;0.52;0.47;0.67;50;-151
0.54;0.46;0.51;0.45;0.65;49;-148
0.52;0.45;0.49;0.44;0.63;53;-154

LOOP num #;26
0.52;0.45;0.49;0.44;0.63;51;-150
0.53;0.45;0.49;0.43;0.63;50;-147
0.53;0.46;0.49;0.44;0.63;43;-153
0.52;0.45;0.49;0.43;0.64;50;-144
0.53;0.46;0.50;0.43;0.65;46;-151
0.49;0.53;0.54;0.42;0.89;33;-149
0.63;0.57;0.60;0.54;1.10;-248;-137
0.78;0.58;0.66;0.64;1.12;-120;-247
0.75;0.58;0.64;0.61;1.10;83;-110
0.70;0.56;0.62;0.58;1.07;32;-158

LOOP num #;27
0.68;0.56;0.61;0.56;1.06;58;-150
0.66;0.55;0.59;0.54;1.02;52;-144
0.68;0.56;0.61;0.55;1.06;65;-144
0.65;0.55;0.60;0.53;1.02;46;-145
0.65;0.55;0.59;0.52;1.00;60;-147
0.64;0.55;0.59;0.51;1.00;50;-148
0.64;0.55;0.58;0.51;0.99;50;-146
0.64;0.54;0.58;0.51;0.97;56;-143
0.64;0.54;0.58;0.51;0.98;51;-149
0.64;0.53;0.58;0.51;0.97;48;-144

LOOP num #;28
0.63;0.53;0.58;0.50;0.95;48;-145
0.63;0.53;0.58;0.50;0.95;51;-149
0.63;0.53;0.57;0.50;0.94;49;-147
0.62;0.52;0.57;0.50;0.93;51;-148
0.61;0.51;0.56;0.49;0.90;59;-149
0.61;0.51;0.56;0.49;0.89;62;-147
0.60;0.50;0.56;0.49;0.87;52;-150
0.59;0.50;0.55;0.48;0.87;56;-152
0.58;0.50;0.55;0.47;0.84;56;-145
0.58;0.48;0.53;0.45;0.78;59;-145

LOOP num #;29
0.47;0.40;0.48;0.36;0.56;124;-148
0.30;0.27;0.38;0.24;0.36;265;-217
0.22;0.23;0.28;0.20;0.25;287;-85
0.21;0.22;0.26;0.20;0.18;124;-153
0.28;0.23;0.31;0.26;0.26;60;-154
0.30;0.24;0.34;0.27;0.31;-7;-243
0.46;0.30;0.44;0.37;0.42;217;-97
0.53;0.30;0.47;0.42;0.49;153;-263
0.56;0.32;0.50;0.45;0.57;-69;-321
0.57;0.33;0.51;0.45;0.64;-11;-192

LOOP num #;30
0.59;0.34;0.51;0.47;0.69;-56;-204
0.56;0.35;0.50;0.47;0.72;-68;-205
0.58;0.35;0.51;0.47;0.71;-12;-168
0.58;0.35;0.51;0.47;0.69;54;-145
0.59;0.36;0.52;0.48;0.70;56;-165
0.61;0.37;0.54;0.49;0.72;53;-166
0.59;0.35;0.52;0.48;0.68;62;-155
0.59;0.34;0.52;0.48;0.68;63;-160
0.59;0.33;0.52;0.48;0.65;51;-167
0.58;0.33;0.51;0.47;0.65;62;-149

LOOP num #;31
0.58;0.33;0.51;0.48;0.65;60;-148
0.60;0.34;0.52;0.48;0.68;59;-149
0.58;0.33;0.50;0.47;0.66;56;-150
0.59;0.33;0.52;0.48;0.69;48;-151
0.58;0.33;0.51;0.47;0.68;54;-152
0.60;0.33;0.52;0.48;0.70;51;-159
0.58;0.33;0.51;0.46;0.69;61;-143
0.56;0.33;0.51;0.45;0.71;44;-152
0.56;0.35;0.50;0.44;0.78;38;-152
0.58;0.35;0.51;0.45;0.72;-13;-165

LOOP num #;32
0.57;0.35;0.51;0.45;0.72;72;-125
0.56;0.34;0.50;0.44;0.73;40;-162
0.56;0.34;0.50;0.44;0.72;65;-141
0.55;0.33;0.49;0.43;0.69;47;-147
0.53;0.35;0.49;0.42;0.71;73;-133
0.53;0.32;0.48;0.42;0.69;15;-147
0.53;0.34;0.49;0.42;0.68;51;-152
0.53;0.33;0.49;0.42;0.66;59;-149
0.53;0.34;0.49;0.42;0.65;54;-150
0.53;0.34;0.49;0.43;0.68;52;-147

LOOP num #;33
0.53;0.33;0.49;0.43;0.67;61;-137
0.53;0.34;0.49;0.42;0.67;56;-147
0.52;0.33;0.48;0.42;0.66;56;-148
0.53;0.35;0.50;0.43;0.69;56;-146
0.52;0.33;0.49;0.42;0.66;55;-147
0.53;0.34;0.49;0.43;0.67;61;-145
0.53;0.34;0.50;0.44;0.67;57;-170
0.53;0.34;0.48;0.45;0.65;95;-143
0.52;0.34;0.48;0.44;0.64;49;-135
0.52;0.33;0.48;0.44;0.63;67;-142

LOOP num #;34
0.52;0.33;0.49;0.43;0.63;49;-165
0.51;0.31;0.49;0.35;0.60;38;-156
0.50;0.33;0.51;0.38;0.60;107;-176
0.51;0.34;0.49;0.39;0.63;6;-178
0.50;0.34;0.50;0.38;0.63;57;-132
0.50;0.34;0.50;0.39;0.65;40;-165
0.51;0.34;0.50;0.38;0.63;53;-155
0.51;0.33;0.49;0.39;0.63;55;-152
0.51;0.33;0.49;0.40;0.62;53;-150
0.50;0.33;0.49;0.39;0.62;48;-147

LOOP num #;35
0.51;0.33;0.49;0.37;0.61;60;-138
0.51;0.33;0.49;0.38;0.62;51;-148
0.52;0.33;0.49;0.39;0.60;63;-145
0.51;0.33;0.49;0.38;0.60;55;-147
0.51;0.34;0.50;0.32;0.64;54;-149
0.52;0.33;0.49;0.39;0.62;65;-140
0.52;0.33;0.49;0.39;0.60;57;-156
0.52;0.34;0.49;0.39;0.62;55;-149
0.52;0.33;0.49;0.39;0.61;60;-142
0.53;0.34;0.49;0.41;0.63;55;-142

LOOP num #;36
0.54;0.33;0.51;0.41;0.63;57;-155
0.53;0.33;0.51;0.41;0.63;61;-150
0.54;0.34;0.52;0.42;0.63;50;-157
0.54;0.34;0.52;0.42;0.64;60;-143
0.52;0.33;0.51;0.41;0.62;48;-161
0.54;0.33;0.51;0.42;0.61;57;-147
0.53;0.33;0.50;0.41;0.60;51;-154
0.55;0.34;0.52;0.43;0.62;55;-147
0.56;0.34;0.53;0.44;0.63;57;-170
0.56;0.34;0.53;0.43;0.63;66;-136

LOOP num #;37
0.56;0.33;0.52;0.43;0.62;56;-156
0.55;0.33;0.52;0.43;0.62;57;-144
0.55;0.33;0.52;0.43;0.64;55;-154
0.54;0.32;0.51;0.42;0.62;58;-142
0.53;0.32;0.50;0.41;0.61;57;-154
0.54;0.32;0.50;0.41;0.60;56;-153
0.54;0.31;0.50;0.42;0.60;49;-152
0.54;0.31;0.49;0.41;0.58;65;-142
0.56;0.30;0.49;0.42;0.57;43;-159
0.56;0.31;0.51;0.41;0.52;32;-180

LOOP num #;38
0.55;0.30;0.50;0.39;0.48;111;-129
0.59;0.34;0.52;0.43;0.71;62;-144
0.63;0.36;0.54;0.47;0.81;-49;-210
0.61;0.35;0.54;0.45;0.75;65;-135
0.60;0.34;0.51;0.45;0.73;61;-133
0.60;0.34;0.52;0.45;0.72;53;-145
0.59;0.33;0.51;0.44;0.69;54;-150
0.58;0.33;0.50;0.43;0.68;56;-154
0.58;0.33;0.50;0.43;0.68;61;-148
0.58;0.33;0.51;0.44;0.68;57;-143

LOOP num #;39
0.59;0.33;0.51;0.43;0.68;55;-145
0.59;0.33;0.51;0.44;0.67;56;-147
0.60;0.33;0.51;0.44;0.69;45;-153
0.60;0.33;0.52;0.45;0.69;59;-141
0.65;0.36;0.56;0.49;0.72;56;-168
0.65;0.36;0.55;0.48;0.73;59;-142
0.66;0.37;0.57;0.49;0.76;57;-144
0.64;0.36;0.55;0.47;0.73;45;-151
0.62;0.36;0.54;0.46;0.73;54;-136
0.63;0.36;0.53;0.46;0.72;54;-147

LOOP num #;40
0.61;0.34;0.52;0.45;0.70;50;-150
0.63;0.35;0.54;0.47;0.70;60;-138
0.61;0.34;0.53;0.46;0.69;51;-167
0.61;0.35;0.53;0.45;0.68;62;-136
0.61;0.34;0.52;0.44;0.71;56;-142
0.60;0.35;0.52;0.45;0.71;58;-145
0.59;0.34;0.52;0.43;0.67;55;-136
0.61;0.35;0.53;0.45;0.69;53;-147
0.59;0.35;0.51;0.43;0.68;56;-143
0.59;0.34;0.51;0.43;0.68;57;-143

LOOP num #;41
0.58;0.33;0.51;0.43;0.67;61;-144
0.58;0.33;0.50;0.43;0.66;49;-152
0.58;0.33;0.50;0.43;0.66;58;-138
0.58;0.33;0.50;0.43;0.67;53;-148
0.59;0.33;0.51;0.43;0.66;58;-148
0.59;0.33;0.52;0.44;0.65;60;-147
0.57;0.32;0.50;0.42;0.65;53;-152
0.58;0.32;0.51;0.43;0.67;59;-144
0.58;0.33;0.51;0.44;0.69;55;-144
0.57;0.32;0.50;0.43;0.66;58;-149

LOOP num #;42
0.57;0.32;0.50;0.43;0.65;57;-155
0.57;0.31;0.49;0.42;0.64;54;-147
0.56;0.31;0.49;0.43;0.63;60;-146
0.57;0.31;0.49;0.42;0.62;53;-149
0.58;0.32;0.50;0.43;0.64;54;-150
0.56;0.31;0.49;0.42;0.64;57;-147
0.56;0.32;0.50;0.42;0.65;52;-147
0.50;0.27;0.45;0.38;0.58;53;-147
0.39;0.24;0.37;0.30;0.43;8;-48
0.38;0.24;0.34;0.29;0.38;107;-98

LOOP num #;51
0.21;0.23;0.27;0.21;0.18;39;-170
0.20;0.22;0.28;0.20;0.18;44;-125
0.20;0.25;0.30;0.22;0.21;19;-182
0.36;0.40;0.39;0.33;0.24;78;-163
0.53;0.51;0.48;0.45;0.74;-332;250
0.65;0.57;0.52;0.56;0.66;89;-206
0.70;0.59;0.53;0.63;0.67;57;-358
0.76;0.62;0.57;0.68;0.71;80;-159
0.75;0.62;0.58;0.70;0.72;93;-192
0.74;0.62;0.56;0.69;0.71;57;-149

LOOP num #;52
0.72;0.60;0.55;0.65;0.69;58;-137
0.72;0.59;0.54;0.65;0.69;59;-146
0.70;0.59;0.54;0.64;0.72;49;-150
0.77;0.64;0.59;0.70;0.77;45;-125
0.80;0.62;0.61;0.74;0.69;102;-118
0.82;0.63;0.60;0.76;0.70;111;-186
0.80;0.62;0.60;0.73;0.69;48;-159
0.78;0.62;0.59;0.72;0.68;69;-147
0.79;0.62;0.59;0.72;0.67;45;-158
0.79;0.61;0.59;0.72;0.67;51;-151

LOOP num #;53
0.78;0.62;0.58;0.71;0.67;52;-147
0.78;0.61;0.58;0.70;0.65;50;-147
0.80;0.61;0.58;0.73;0.65;55;-143
0.82;0.60;0.60;0.80;0.66;104;-150
0.81;0.61;0.65;0.87;0.69;68;-268
0.79;0.60;0.62;0.82;0.67;39;-203
0.79;0.60;0.61;0.81;0.72;69;-112
0.74;0.58;0.57;0.76;0.71;44;-149
0.70;0.56;0.53;0.67;0.67;-20;-169
0.77;0.57;0.54;0.78;0.67;141;-60

LOOP num #;54
0.79;0.59;0.61;0.98;0.70;207;-107
0.79;0.58;0.58;0.91;0.70;79;-163
0.77;0.58;0.59;0.88;0.70;51;-116
0.77;0.58;0.58;0.86;0.67;41;-165
0.76;0.56;0.56;0.84;0.66;53;-129
0.75;0.56;0.57;0.83;0.66;39;-165
0.73;0.55;0.55;0.79;0.63;43;-152
0.71;0.56;0.54;0.78;0.64;47;-148
0.66;0.56;0.54;0.74;0.66;44;-155
0.69;0.56;0.52;0.75;0.65;62;-131

LOOP num #;55
0.69;0.55;0.52;0.76;0.63;61;-141
0.70;0.54;0.51;0.78;0.62;41;-165
0.70;0.55;0.51;0.79;0.65;43;-142
0.74;0.59;0.56;0.84;0.69;50;-147
0.76;0.58;0.57;0.85;0.67;53;-152
0.78;0.58;0.58;0.85;0.65;56;-144
0.78;0.57;0.59;0.85;0.65;67;-149
0.77;0.56;0.57;0.82;0.63;46;-164
0.74;0.56;0.57;0.79;0.62;46;-159
0.74;0.55;0.56;0.78;0.61;59;-153

LOOP num #;56
0.73;0.55;0.56;0.77;0.61;42;-144
0.71;0.54;0.55;0.77;0.60;49;-158
0.72;0.55;0.56;0.76;0.61;50;-144
0.71;0.54;0.54;0.75;0.60;41;-157
0.71;0.55;0.55;0.75;0.60;57;-138
0.71;0.54;0.55;0.74;0.60;43;-155
0.71;0.55;0.55;0.75;0.60;44;-152
0.71;0.54;0.55;0.74;0.60;49;-150
0.72;0.56;0.55;0.76;0.61;44;-148
0.70;0.55;0.54;0.73;0.60;42;-145

LOOP num #;57
0.72;0.56;0.57;0.75;0.61;54;-141
0.69;0.55;0.54;0.72;0.59;54;-140
0.69;0.55;0.54;0.73;0.60;42;-149
0.68;0.55;0.54;0.71;0.60;41;-149
0.67;0.55;0.53;0.70;0.60;40;-149
0.68;0.54;0.52;0.70;0.60;50;-137
0.67;0.54;0.52;0.70;0.61;52;-144
0.66;0.54;0.51;0.69;0.59;32;-162
0.67;0.53;0.51;0.70;0.59;58;-139
0.67;0.54;0.52;0.71;0.62;52;-150

LOOP num #;58
0.66;0.53;0.52;0.70;0.61;41;-155
0.67;0.53;0.52;0.71;0.60;54;-146
0.66;0.54;0.54;0.70;0.59;50;-148
0.66;0.53;0.52;0.68;0.58;47;-144
0.65;0.54;0.51;0.67;0.58;49;-148
0.65;0.53;0.51;0.67;0.57;53;-144
0.65;0.53;0.50;0.66;0.57;48;-145
0.65;0.53;0.51;0.67;0.57;53;-144
0.65;0.53;0.51;0.66;0.56;51;-142
0.65;0.52;0.50;0.66;0.56;39;-158

LOOP num #;59
0.61;0.51;0.48;0.63;0.53;49;-149
0.56;0.47;0.43;0.56;0.48;37;-149
0.42;0.40;0.35;0.42;0.36;44;-121
0.29;0.30;0.30;0.31;0.26;-7;-110
0.26;0.26;0.30;0.28;0.25;25;-144
0.21;0.23;0.29;0.24;0.22;0;-207
0.19;0.23;0.28;0.22;0.18;-68;-133
0.19;0.24;0.30;0.22;0.18;188;-102
0.22;0.26;0.33;0.26;0.23;94;-172
0.19;0.25;0.31;0.23;0.21;-45;-160

LOOP num #;60
0.19;0.25;0.31;0.23;0.22;65;-109
0.27;0.35;0.42;0.34;0.35;48;-103
0.30;0.41;0.47;0.40;0.46;-287;313
0.33;0.44;0.53;0.46;0.52;78;-169
0.31;0.44;0.54;0.46;0.52;22;-184
0.30;0.44;0.55;0.46;0.51;40;-160
0.30;0.43;0.54;0.47;0.51;34;-196
0.29;0.43;0.54;0.47;0.50;46;-156
0.30;0.43;0.56;0.49;0.50;63;-157
0.32;0.43;0.56;0.53;0.49;61;-192

LOOP num #;61
0.34;0.43;0.59;0.56;0.50;59;-229
0.34;0.42;0.55;0.53;0.48;59;-180
0.33;0.42;0.52;0.50;0.46;41;-151
0.33;0.42;0.53;0.51;0.46;36;-171
0.33;0.41;0.53;0.50;0.45;90;-140
0.33;0.41;0.51;0.48;0.44;101;-116
0.33;0.40;0.51;0.48;0.44;54;-157
0.33;0.40;0.50;0.47;0.44;47;-159
0.33;0.40;0.50;0.47;0.44;57;-147
0.32;0.40;0.50;0.47;0.43;48;-146

LOOP num #;62
0.32;0.39;0.47;0.44;0.43;50;-148
0.31;0.40;0.50;0.46;0.43;99;-132
0.31;0.40;0.49;0.45;0.43;56;-140
0.32;0.40;0.49;0.45;0.44;36;-157
0.31;0.40;0.50;0.45;0.43;50;-150
0.35;0.40;0.51;0.49;0.45;60;-145
0.37;0.41;0.49;0.48;0.45;67;-145
0.36;0.40;0.46;0.47;0.44;43;-121
0.34;0.40;0.48;0.46;0.44;46;-161
0.34;0.39;0.47;0.45;0.43;65;-138

LOOP num #;63
0.33;0.39;0.47;0.45;0.43;62;-148
0.32;0.39;0.46;0.44;0.42;51;-144
0.32;0.40;0.46;0.44;0.43;48;-148
0.32;0.39;0.46;0.45;0.43;49;-153
0.33;0.39;0.44;0.44;0.41;59;-143
0.39;0.37;0.37;0.41;0.39;107;-226
0.56;0.38;0.36;0.44;0.39;243;-269
0.71;0.42;0.41;0.50;0.42;231;-238
0.79;0.43;0.43;0.53;0.43;150;-235
0.76;0.43;0.43;0.51;0.42;9;-198

LOOP num #;64
0.75;0.42;0.43;0.51;0.42;43;-149
0.72;0.41;0.42;0.50;0.42;63;-141
0.72;0.43;0.41;0.51;0.43;59;-146
0.70;0.41;0.41;0.50;0.42;42;-143
0.70;0.42;0.41;0.50;0.43;49;-151
0.69;0.42;0.41;0.50;0.43;54;-143
0.69;0.41;0.41;0.50;0.43;61;-147
0.67;0.41;0.41;0.50;0.42;57;-152
0.66;0.42;0.41;0.50;0.41;56;-139
0.67;0.42;0.41;0.50;0.43;60;-145

LOOP num #;65
0.66;0.42;0.42;0.51;0.42;59;-141
0.65;0.42;0.40;0.50;0.42;55;-146
0.65;0.42;0.41;0.49;0.42;52;-148
0.65;0.41;0.41;0.50;0.42;53;-145
0.65;0.42;0.41;0.49;0.42;55;-149
0.65;0.42;0.41;0.50;0.42;63;-139
0.64;0.42;0.41;0.49;0.41;58;-146
0.64;0.42;0.41;0.48;0.42;52;-149
0.63;0.42;0.41;0.49;0.41;52;-152
0.64;0.43;0.41;0.49;0.42;52;-148

LOOP num #;66
0.62;0.42;0.41;0.48;0.41;45;-144
0.63;0.43;0.41;0.48;0.41;59;-144
0.62;0.42;0.41;0.48;0.41;51;-143
0.62;0.42;0.40;0.48;0.42;44;-153
0.61;0.42;0.41;0.48;0.42;55;-142
0.61;0.42;0.40;0.48;0.42;55;-148
0.61;0.41;0.41;0.48;0.42;50;-150
0.61;0.42;0.40;0.48;0.42;53;-144
0.60;0.41;0.40;0.48;0.42;55;-143
0.60;0.41;0.41;0.47;0.41;54;-145

LOOP num #;67
0.60;0.41;0.41;0.49;0.41;54;-145
0.59;0.41;0.40;0.47;0.41;56;-146
0.60;0.41;0.41;0.49;0.41;51;-146
0.61;0.42;0.41;0.50;0.41;47;-150
0.62;0.41;0.41;0.49;0.40;64;-135
0.62;0.42;0.41;0.49;0.41;50;-153
0.61;0.42;0.40;0.50;0.40;55;-149
0.61;0.41;0.41;0.50;0.41;56;-148
0.60;0.41;0.41;0.49;0.39;52;-153
0.59;0.41;0.40;0.49;0.39;46;-155

LOOP num #;68
0.61;0.42;0.42;0.50;0.41;51;-149
0.60;0.42;0.42;0.50;0.41;50;-147
0.61;0.42;0.43;0.50;0.41;61;-146
0.59;0.41;0.42;0.49;0.40;49;-149
0.59;0.41;0.41;0.48;0.40;62;-146
0.60;0.42;0.43;0.50;0.40;56;-146
0.61;0.42;0.43;0.50;0.41;48;-152
0.60;0.42;0.42;0.49;0.40;56;-147
0.59;0.42;0.42;0.49;0.41;60;-146
0.59;0.41;0.43;0.49;0.41;48;-151

LOOP num #;69
0.58;0.42;0.42;0.49;0.40;50;-142
0.58;0.42;0.42;0.50;0.42;56;-145
0.59;0.43;0.43;0.51;0.42;49;-155
0.59;0.43;0.43;0.51;0.41;49;-148
0.58;0.42;0.43;0.51;0.43;57;-143
0.58;0.42;0.42;0.49;0.42;53;-145
0.57;0.43;0.42;0.51;0.42;58;-144
0.58;0.43;0.42;0.50;0.42;47;-154
0.59;0.43;0.42;0.50;0.42;66;-137
0.60;0.43;0.42;0.51;0.41;51;-147

LOOP num #;70
0.75;0.53;0.76;0.55;0.71;-348;54
0.82;0.57;0.80;0.64;0.79;-365;-82
0.88;0.59;0.82;0.65;0.80;-63;-168
0.96;0.59;0.84;0.69;0.85;70;-158
0.94;0.59;0.83;0.67;0.80;42;-160
0.90;0.58;0.81;0.65;0.77;61;-144
0.88;0.57;0.78;0.62;0.75;40;-161
0.90;0.57;0.78;0.62;0.78;51;-155
0.87;0.56;0.78;0.61;0.76;53;-156
0.86;0.58;0.77;0.60;0.75;53;-157

LOOP num #;71
0.84;0.57;0.76;0.59;0.75;40;-155
0.86;0.57;0.76;0.60;0.74;54;-148
0.85;0.56;0.76;0.59;0.73;45;-152
0.83;0.55;0.74;0.58;0.71;53;-143
0.82;0.54;0.73;0.57;0.73;46;-152
0.82;0.54;0.73;0.56;0.70;53;-149
0.79;0.53;0.71;0.55;0.68;52;-154
0.80;0.53;0.71;0.55;0.71;47;-150
0.78;0.53;0.70;0.54;0.67;52;-149
0.79;0.53;0.70;0.53;0.70;54;-147

LOOP num #;72
0.77;0.53;0.69;0.53;0.66;52;-148
0.76;0.51;0.69;0.52;0.68;48;-148
0.75;0.51;0.68;0.52;0.68;51;-151
0.73;0.51;0.67;0.50;0.63;48;-151
0.75;0.51;0.68;0.51;0.67;59;-136
0.85;0.52;0.73;0.56;0.68;45;-154
0.94;0.52;0.78;0.59;0.64;72;-291
0.87;0.53;0.75;0.56;0.63;111;-73
0.78;0.51;0.70;0.52;0.63;-7;-179
0.79;0.52;0.70;0.52;0.65;38;-146

LOOP num #;73
0.75;0.53;0.70;0.53;0.70;24;-157
0.74;0.53;0.70;0.58;0.84;-54;-171
0.73;0.53;0.69;0.57;0.78;-92;-205
0.72;0.52;0.68;0.54;0.73;68;-143
0.71;0.51;0.67;0.54;0.73;47;-159
0.71;0.51;0.67;0.53;0.74;58;-140
0.71;0.51;0.67;0.53;0.73;61;-147
0.71;0.50;0.66;0.52;0.72;52;-146
0.68;0.49;0.65;0.50;0.69;57;-143
0.73;0.47;0.68;0.54;0.67;57;-156

LOOP num #;74
0.68;0.40;0.64;0.47;0.57;64;-249
0.62;0.37;0.61;0.43;0.54;99;-196
0.58;0.36;0.60;0.41;0.50;35;-219
0.58;0.39;0.60;0.42;0.52;49;-156
0.60;0.43;0.62;0.41;0.54;29;-144
0.72;0.52;0.67;0.47;0.63;82;-90
0.71;0.52;0.67;0.51;0.63;17;-140
0.48;0.40;0.57;0.41;0.35;61;-153
0.27;0.37;0.50;0.34;0.36;157;-79
0.42;0.41;0.52;0.40;0.47;66;-54

LOOP num #;75
0.45;0.37;0.50;0.36;0.43;20;0
0.41;0.42;0.40;0.27;0.42;92;-188
0.35;0.40;0.31;0.25;0.37;65;93
0.37;0.31;0.39;0.30;0.33;18;-220
0.63;0.35;0.56;0.43;0.42;48;-468
0.70;0.34;0.58;0.45;0.41;145;-511
0.63;0.30;0.54;0.44;0.39;66;-173
0.56;0.25;0.46;0.40;0.33;24;-182
0.50;0.24;0.42;0.36;0.31;92;-95
0.45;0.23;0.39;0.32;0.31;72;-14

LOOP num #;76
0.58;0.27;0.52;0.39;0.37;-9;-512
0.73;0.34;0.66;0.49;0.43;46;-261
0.78;0.37;0.71;0.53;0.49;56;-251
0.80;0.36;0.72;0.54;0.52;9;-206
0.78;0.36;0.71;0.53;0.54;22;-183
0.67;0.40;0.68;0.47;0.58;20;-130
0.72;0.40;0.70;0.54;0.71;-218;-113
0.71;0.40;0.70;0.52;0.65;-180;-380
0.67;0.37;0.68;0.49;0.59;156;-83
0.67;0.37;0.67;0.47;0.56;106;-96

LOOP num #;77
0.65;0.36;0.65;0.46;0.55;76;-107
0.65;0.35;0.65;0.46;0.53;26;-183
0.70;0.38;0.68;0.48;0.57;66;-129
0.78;0.42;0.76;0.53;0.63;47;-134
0.85;0.45;0.81;0.59;0.66;57;-231
0.80;0.42;0.76;0.55;0.62;51;-155
0.77;0.40;0.73;0.53;0.61;50;-145
0.70;0.37;0.67;0.46;0.56;46;-143
0.43;0.34;0.53;0.28;0.42;65;56
0.43;0.50;0.60;0.31;0.50;-116;189

LOOP num #;78
0.55;0.63;0.68;0.43;0.74;-221;353
0.60;0.64;0.69;0.43;0.78;-97;39
0.59;0.64;0.69;0.43;0.79;71;-134
0.59;0.62;0.68;0.42;0.75;22;-180
0.50;0.50;0.59;0.33;0.55;70;-192
0.44;0.34;0.51;0.28;0.37;261;-433
0.52;0.31;0.55;0.36;0.34;350;-368
0.77;0.41;0.71;0.48;0.43;161;-398
0.87;0.44;0.79;0.53;0.48;27;-395
0.80;0.40;0.73;0.50;0.47;27;-176

LOOP num #;79
0.54;0.33;0.54;0.36;0.42;61;-64
0.44;0.43;0.54;0.30;0.51;-7;283
0.54;0.60;0.64;0.39;0.73;-143;234
0.63;0.66;0.70;0.46;0.88;-162;1
0.67;0.68;0.73;0.49;0.95;-40;-88
0.68;0.69;0.74;0.50;0.96;27;-111
0.68;0.68;0.74;0.49;0.94;36;-138
0.66;0.67;0.72;0.48;0.91;53;-156
0.65;0.66;0.73;0.47;0.89;57;-144
0.65;0.65;0.71;0.47;0.87;58;-145

LOOP num #;80
0.62;0.60;0.68;0.43;0.77;55;-143
0.57;0.49;0.64;0.38;0.60;109;-462
0.49;0.34;0.56;0.34;0.43;76;-458
0.56;0.32;0.57;0.39;0.37;287;-306
0.77;0.40;0.73;0.53;0.47;215;-379
0.91;0.46;0.84;0.62;0.61;26;-325
0.89;0.43;0.83;0.61;0.63;1;-223
0.82;0.40;0.77;0.56;0.57;59;-124
0.76;0.37;0.72;0.52;0.54;36;-164
0.73;0.36;0.68;0.49;0.51;61;-111

LOOP num #;81
0.60;0.32;0.60;0.41;0.44;56;-49
0.70;0.36;0.66;0.47;0.49;57;-98
0.54;0.30;0.54;0.37;0.43;43;-163
0.42;0.43;0.53;0.30;0.49;52;-14
0.48;0.57;0.60;0.36;0.68;-96;90
0.57;0.66;0.68;0.42;0.87;-169;103
0.64;0.72;0.74;0.50;1.02;-92;43
0.65;0.73;0.76;0.51;1.06;-150;-193
0.65;0.73;0.75;0.51;1.05;52;-99
0.65;0.72;0.75;0.50;1.03;31;-164

