LOOP num #;0
0.20;0.22;0.28;0.22;0.18;-169;-425
0.20;0.22;0.28;0.22;0.18;-210;-457
0.21;0.22;0.27;0.22;0.18;334;196
0.19;0.22;0.28;0.22;0.18;-23;-313
0.21;0.22;0.27;0.22;0.18;-158;-361
0.20;0.22;0.28;0.22;0.18;537;542
0.20;0.22;0.28;0.22;0.18;-549;-1024
0.21;0.22;0.28;0.22;0.18;482;414
0.20;0.22;0.28;0.22;0.18;82;-189
0.20;0.22;0.28;0.22;0.19;-296;-579

LOOP num #;1
0.21;0.22;0.28;0.21;0.18;579;536
0.20;0.22;0.28;0.22;0.18;-5;-363
0.21;0.22;0.28;0.21;0.19;-180;-337
0.20;0.22;0.28;0.22;0.18;441;314
0.20;0.22;0.28;0.22;0.19;-307;-662
0.21;0.22;0.27;0.22;0.19;73;6
0.21;0.22;0.28;0.22;0.18;332;206
0.20;0.22;0.28;0.22;0.19;-168;-529
0.21;0.22;0.28;0.22;0.18;28;-94
0.21;0.22;0.28;0.22;0.18;343;281

LOOP num #;2
0.20;0.22;0.28;0.22;0.19;-304;-754
0.21;0.22;0.28;0.22;0.18;-80;-155
0.21;0.22;0.28;0.22;0.18;463;422
0.20;0.22;0.29;0.22;0.19;-175;-555
0.21;0.22;0.28;0.22;0.18;-177;-365
0.21;0.22;0.28;0.22;0.18;532;528
0.20;0.22;0.28;0.22;0.18;22;-516
0.21;0.22;0.28;0.22;0.19;180;-108
0.20;0.22;0.28;0.22;0.18;-493;-22
0.20;0.22;0.29;0.22;0.18;288;-472

LOOP num #;3
0.22;0.23;0.28;0.22;0.19;-95;-206
0.21;0.22;0.28;0.22;0.19;406;599
0.20;0.22;0.29;0.22;0.19;-321;-941
0.22;0.23;0.27;0.20;0.19;218;222
0.20;0.22;0.28;0.22;0.19;345;268
0.20;0.22;0.29;0.22;0.19;-550;-1283
0.22;0.23;0.28;0.20;0.19;363;493
0.20;0.22;0.29;0.22;0.19;234;56
0.20;0.22;0.28;0.22;0.18;-619;-1231
0.22;0.23;0.27;0.21;0.19;408;692

LOOP num #;4
0.20;0.22;0.29;0.22;0.19;129;-210
0.20;0.22;0.28;0.22;0.18;-467;-951
0.21;0.22;0.27;0.22;0.19;357;511
0.20;0.22;0.28;0.22;0.19;-42;-384
0.21;0.22;0.29;0.22;0.19;-112;-346
0.20;0.23;0.29;0.22;0.18;342;-3
0.21;0.23;0.28;0.22;0.22;213;-118
0.21;0.23;0.29;0.22;0.20;-475;-269
0.20;0.25;0.29;0.22;0.22;524;-127
0.21;0.23;0.28;0.22;0.20;-388;-59

LOOP num #;5
0.21;0.23;0.29;0.22;0.21;582;-91
0.20;0.23;0.28;0.22;0.21;-9;-138
0.21;0.24;0.29;0.22;0.21;-96;-169
0.20;0.23;0.29;0.22;0.20;360;-148
0.21;0.23;0.29;0.22;0.20;-391;-157
0.20;0.23;0.29;0.22;0.19;501;-216
0.22;0.22;0.28;0.22;0.19;-179;28
0.22;0.22;0.29;0.22;0.18;204;-238
0.22;0.23;0.28;0.22;0.18;123;-180
0.21;0.22;0.28;0.22;0.19;-93;147

LOOP num #;6
0.22;0.22;0.28;0.22;0.18;-35;-615
0.22;0.22;0.28;0.21;0.18;61;55
0.21;0.22;0.29;0.22;0.18;82;-191
0.25;0.22;0.27;0.22;0.18;-133;-759
0.22;0.22;0.28;0.22;0.18;318;424
0.22;0.22;0.28;0.22;0.18;-194;-581
0.26;0.22;0.27;0.21;0.18;123;22
0.22;0.22;0.28;0.22;0.19;260;216
0.27;0.22;0.28;0.22;0.18;-210;-623
0.24;0.23;0.28;0.21;0.18;428;412

LOOP num #;7
0.25;0.22;0.28;0.22;0.19;-207;-555
0.24;0.23;0.27;0.22;0.19;-109;-311
0.20;0.22;0.28;0.22;0.19;294;181
0.20;0.22;0.28;0.22;0.19;-272;-674
0.20;0.23;0.28;0.22;0.19;190;80
0.20;0.22;0.28;0.22;0.19;476;143
0.20;0.22;0.28;0.22;0.19;-706;-845
0.21;0.22;0.28;0.22;0.19;495;305
0.20;0.22;0.28;0.22;0.19;145;-193
0.20;0.22;0.28;0.22;0.19;-353;-475

LOOP num #;8
0.21;0.23;0.28;0.22;0.19;636;402
0.20;0.22;0.29;0.22;0.19;259;7
0.20;0.22;0.28;0.22;0.19;-674;-846
0.21;0.23;0.28;0.22;0.19;192;-7
0.21;0.23;0.28;0.22;0.19;465;232
0.20;0.22;0.29;0.22;0.19;148;-115
0.21;0.23;0.28;0.22;0.19;-174;-348
0.21;0.22;0.29;0.22;0.19;408;319
0.20;0.22;0.29;0.22;0.19;-82;-325
0.21;0.22;0.28;0.22;0.19;-188;-276

LOOP num #;9
0.21;0.22;0.28;0.22;0.19;383;239
0.20;0.22;0.28;0.22;0.18;-220;-423
0.21;0.22;0.28;0.22;0.19;199;-66
0.21;0.22;0.28;0.22;0.19;95;-21
0.21;0.22;0.28;0.22;0.18;292;190
0.20;0.22;0.28;0.22;0.19;-335;-680
0.21;0.23;0.28;0.21;0.19;41;-80
0.21;0.22;0.28;0.22;0.18;521;438
0.20;0.22;0.28;0.22;0.18;-403;-765
0.21;0.22;0.28;0.22;0.18;-126;-284

LOOP num #;10
0.21;0.22;0.28;0.22;0.18;738;661
0.20;0.22;0.28;0.22;0.19;-244;-553
0.21;0.22;0.28;0.22;0.18;-430;-691
0.21;0.23;0.28;0.21;0.18;697;703
0.20;0.22;0.29;0.22;0.19;-160;-463
0.20;0.22;0.27;0.22;0.19;-433;-745
0.21;0.22;0.28;0.21;0.18;745;781
0.20;0.22;0.29;0.22;0.19;-122;-460
0.20;0.22;0.28;0.22;0.18;-493;-835
0.21;0.22;0.28;0.22;0.18;656;738

LOOP num #;11
0.20;0.22;0.28;0.22;0.19;25;-344
0.21;0.22;0.28;0.22;0.19;6;-584
0.21;0.22;0.27;0.22;0.19;-451;179
0.19;0.22;0.29;0.22;0.18;312;-444
0.21;0.22;0.27;0.22;0.19;65;-210
0.21;0.22;0.27;0.22;0.18;-102;278
0.20;0.22;0.28;0.22;0.19;271;-645
0.21;0.22;0.26;0.22;0.19;-57;155
0.20;0.22;0.28;0.22;0.18;64;-88
0.20;0.22;0.28;0.22;0.19;96;-619

LOOP num #;12
0.21;0.22;0.26;0.22;0.19;-196;363
0.20;0.22;0.29;0.22;0.19;226;-453
0.21;0.22;0.28;0.21;0.19;6;-380
0.20;0.22;0.28;0.22;0.19;318;684
0.20;0.22;0.28;0.22;0.18;-317;-947
0.21;0.22;0.27;0.22;0.19;23;-103
0.20;0.22;0.28;0.22;0.18;655;648
0.20;0.22;0.28;0.22;0.19;-499;-1042
0.21;0.22;0.27;0.21;0.18;203;157
0.20;0.22;0.28;0.22;0.18;395;313

LOOP num #;13
0.20;0.22;0.28;0.22;0.19;-513;-1018
0.21;0.22;0.27;0.21;0.18;492;258
0.20;0.22;0.28;0.22;0.18;-29;-9
0.21;0.22;0.28;0.22;0.19;-93;-354
0.21;0.22;0.28;0.22;0.18;129;-53
0.20;0.22;0.28;0.22;0.19;63;-124
0.20;0.22;0.28;0.22;0.19;120;253
0.21;0.23;0.27;0.22;0.18;-141;-466
0.21;0.22;0.28;0.22;0.18;258;195
0.21;0.22;0.27;0.21;0.18;-177;-765

LOOP num #;14
0.20;0.22;0.28;0.22;0.19;134;251
0.21;0.22;0.27;0.21;0.18;-155;-395
0.20;0.22;0.28;0.22;0.18;59;-96
0.21;0.26;0.28;0.22;0.18;-134;-415
0.20;0.24;0.28;0.22;0.19;497;297
0.21;0.25;0.27;0.21;0.18;-169;-391
0.20;0.26;0.28;0.22;0.19;114;-73
0.21;0.23;0.27;0.21;0.19;-33;-207
0.20;0.26;0.27;0.22;0.19;-60;-275
0.21;0.23;0.27;0.21;0.18;76;-16

LOOP num #;15
0.20;0.28;0.27;0.22;0.19;-55;-270
0.21;0.23;0.27;0.21;0.18;136;20
0.20;0.25;0.27;0.22;0.19;-86;-302
0.21;0.24;0.27;0.21;0.18;73;-23
0.21;0.26;0.28;0.22;0.19;-12;-218
0.21;0.23;0.27;0.21;0.19;-104;-294
0.20;0.24;0.28;0.22;0.18;60;-114
0.21;0.25;0.27;0.21;0.18;-168;-408
0.21;0.25;0.28;0.22;0.19;382;272
0.21;0.24;0.27;0.21;0.18;-386;-684

LOOP num #;16
0.21;0.22;0.28;0.22;0.18;295;132
0.21;0.22;0.27;0.22;0.18;-412;-792
0.22;0.22;0.27;0.22;0.18;609;604
0.20;0.22;0.28;0.22;0.18;-208;-699
0.22;0.23;0.27;0.21;0.18;126;136
0.20;0.22;0.29;0.22;0.19;74;-232
0.21;0.22;0.28;0.21;0.18;-307;-632
0.20;0.22;0.28;0.22;0.18;512;568
0.20;0.22;0.28;0.21;0.19;-488;-1081
0.21;0.22;0.28;0.21;0.19;563;698

LOOP num #;17
0.20;0.22;0.28;0.22;0.18;-157;-556
0.21;0.23;0.27;0.22;0.18;-187;-394
0.21;0.22;0.28;0.22;0.19;530;534
0.21;0.22;0.28;0.21;0.19;-453;-1053
0.21;0.22;0.27;0.22;0.18;432;558
0.20;0.22;0.28;0.22;0.19;-77;-385
0.20;0.22;0.27;0.22;0.18;-325;-541
0.20;0.23;0.28;0.22;0.19;477;345
0.21;0.23;0.29;0.22;0.18;377;-209
0.21;0.22;0.28;0.22;0.18;-92;-85

LOOP num #;18
0.20;0.23;0.29;0.22;0.18;-209;-250
0.20;0.23;0.28;0.22;0.18;443;-98
0.20;0.22;0.27;0.22;0.19;-205;-125
0.21;0.23;0.28;0.22;0.18;84;-173
0.21;0.22;0.28;0.21;0.18;389;-79
0.20;0.22;0.28;0.22;0.19;-411;-152
0.20;0.23;0.28;0.22;0.18;377;-2
0.20;0.22;0.28;0.21;0.18;132;2
0.21;0.23;0.28;0.22;0.19;-365;-145
0.20;0.23;0.28;0.22;0.18;360;-271

LOOP num #;19
0.20;0.22;0.28;0.22;0.18;-112;-70
0.20;0.23;0.29;0.21;0.18;-25;-193
0.20;0.22;0.29;0.21;0.18;467;-131
0.21;0.23;0.27;0.22;0.18;-405;-126
0.20;0.23;0.29;0.22;0.18;340;-112
0.20;0.22;0.28;0.21;0.18;330;-96
0.21;0.23;0.28;0.22;0.18;-506;-207
0.20;0.23;0.29;0.22;0.18;580;-156
0.20;0.22;0.28;0.22;0.18;96;-76
0.21;0.23;0.29;0.22;0.18;-569;-287

LOOP num #;20
0.20;0.22;0.29;0.22;0.18;535;-154
0.21;0.22;0.28;0.22;0.18;75;-66
0.21;0.23;0.29;0.22;0.19;-554;-262
0.20;0.22;0.29;0.22;0.18;605;-181
0.21;0.22;0.28;0.22;0.18;-9;-41
0.21;0.23;0.28;0.22;0.18;-673;-289
0.20;0.22;0.29;0.22;0.18;657;-72
0.21;0.22;0.29;0.22;0.18;13;-89
0.20;0.23;0.28;0.22;0.18;-643;-260
0.20;0.23;0.29;0.22;0.18;580;-163

LOOP num #;21
0.21;0.22;0.28;0.22;0.19;23;-14
0.20;0.22;0.28;0.22;0.18;-600;-263
0.20;0.22;0.29;0.22;0.18;461;-264
0.21;0.22;0.27;0.22;0.19;-16;13
0.20;0.23;0.29;0.22;0.19;-294;-203
0.20;0.22;0.29;0.22;0.18;560;-174
0.21;0.22;0.28;0.22;0.19;-115;-76
0.20;0.22;0.28;0.22;0.18;-408;-285
0.20;0.23;0.28;0.22;0.18;526;-35
0.21;0.24;0.28;0.22;0.18;-246;-217

LOOP num #;22
0.21;0.23;0.28;0.22;0.18;314;335
0.20;0.22;0.28;0.22;0.19;-121;-502
0.21;0.23;0.28;0.21;0.18;-117;-358
0.21;0.22;0.28;0.22;0.18;493;527
0.20;0.22;0.28;0.22;0.18;-372;-810
0.21;0.22;0.28;0.22;0.18;-92;-510
0.21;0.22;0.28;0.22;0.19;425;363
0.21;0.22;0.28;0.22;0.18;-309;-514
0.21;0.22;0.28;0.21;0.18;22;-86
0.21;0.22;0.28;0.22;0.19;500;487

LOOP num #;23
0.20;0.22;0.28;0.22;0.19;-400;-854
0.21;0.22;0.28;0.22;0.18;95;-5
0.21;0.22;0.28;0.22;0.18;527;483
0.20;0.22;0.29;0.22;0.18;-448;-877
0.21;0.23;0.28;0.22;0.18;99;-14
0.21;0.22;0.28;0.22;0.18;589;759
0.20;0.22;0.28;0.22;0.19;-490;-881
0.21;0.22;0.28;0.21;0.18;80;-38
0.21;0.22;0.28;0.21;0.18;631;561
0.20;0.22;0.29;0.22;0.18;-204;-648

LOOP num #;24
0.21;0.22;0.28;0.22;0.18;20;-345
0.21;0.22;0.27;0.22;0.18;-91;378
0.20;0.22;0.28;0.22;0.18;194;-427
0.21;0.22;0.27;0.22;0.18;115;-250
0.20;0.22;0.27;0.22;0.18;-226;252
0.20;0.22;0.28;0.22;0.18;233;-451
0.21;0.22;0.28;0.22;0.19;72;-229
0.21;0.22;0.27;0.22;0.18;-102;316
0.20;0.22;0.28;0.22;0.19;180;-553
0.21;0.22;0.27;0.21;0.19;59;-91

LOOP num #;25
0.21;0.22;0.27;0.22;0.18;-8;277
0.20;0.22;0.28;0.22;0.19;188;-636
0.21;0.22;0.27;0.22;0.18;62;78
0.20;0.22;0.28;0.22;0.18;31;124
0.20;0.22;0.28;0.22;0.18;-2;-721
0.21;0.22;0.28;0.21;0.18;210;252
0.20;0.22;0.28;0.22;0.19;146;18
0.21;0.22;0.28;0.22;0.18;-415;-846
0.21;0.23;0.27;0.22;0.18;466;520
0.20;0.22;0.28;0.22;0.19;-18;-297

LOOP num #;26
0.21;0.22;0.28;0.22;0.19;-365;-725
0.21;0.22;0.28;0.22;0.18;579;588
0.21;0.22;0.28;0.22;0.18;-123;-425
0.21;0.22;0.28;0.22;0.18;-267;-531
0.21;0.22;0.28;0.22;0.18;551;516
0.20;0.22;0.28;0.22;0.19;-289;-603
0.21;0.22;0.27;0.22;0.18;-45;-209
0.21;0.22;0.28;0.22;0.18;499;417
0.20;0.22;0.28;0.22;0.18;-360;-731
0.21;0.22;0.27;0.22;0.19;104;-31

LOOP num #;27
0.20;0.22;0.28;0.22;0.18;452;351
0.20;0.22;0.28;0.22;0.18;-477;-915
0.21;0.23;0.27;0.21;0.18;266;211
0.21;0.22;0.28;0.22;0.19;327;178
0.21;0.22;0.28;0.22;0.18;-373;-772
0.20;0.22;0.28;0.22;0.19;249;186
0.20;0.22;0.28;0.22;0.18;142;-52
0.20;0.22;0.28;0.22;0.19;-363;-736
0.21;0.22;0.27;0.22;0.18;433;475
0.20;0.22;0.28;0.22;0.19;89;-189

LOOP num #;28
0.21;0.22;0.28;0.22;0.18;-281;-589
0.21;0.22;0.28;0.21;0.18;330;208
0.21;0.22;0.27;0.22;0.19;-56;-288
0.21;0.22;0.27;0.21;0.19;193;51
0.20;0.22;0.28;0.22;0.18;104;-51
0.21;0.22;0.28;0.22;0.18;-243;-565
0.20;0.22;0.28;0.22;0.18;208;44
0.21;0.22;0.27;0.21;0.18;30;-176
0.20;0.22;0.27;0.22;0.18;609;628
0.20;0.22;0.28;0.22;0.19;-404;-848

LOOP num #;29
0.21;0.22;0.27;0.22;0.18;98;-7
0.21;0.22;0.28;0.22;0.18;50;-172
0.22;0.22;0.27;0.22;0.18;82;-96
0.21;0.22;0.28;0.22;0.18;498;473
0.20;0.22;0.28;0.22;0.18;-421;-900
0.21;0.22;0.28;0.22;0.18;199;95
0.22;0.22;0.27;0.22;0.18;24;-192
0.21;0.22;0.28;0.22;0.19;483;507
0.21;0.22;0.28;0.22;0.19;-339;-779
0.21;0.22;0.28;0.22;0.18;19;-114

LOOP num #;30
0.21;0.22;0.27;0.22;0.19;88;-115
0.21;0.23;0.27;0.21;0.18;172;37
0.21;0.22;0.27;0.22;0.19;200;88
0.21;0.22;0.28;0.22;0.18;-377;-834
0.21;0.22;0.28;0.22;0.18;232;113
0.21;0.22;0.27;0.21;0.18;46;-165
0.21;0.22;0.27;0.22;0.18;408;409
0.20;0.22;0.27;0.22;0.18;-358;-799
0.21;0.22;0.27;0.21;0.18;135;23
0.21;0.22;0.28;0.22;0.18;499;460

LOOP num #;31
0.20;0.22;0.28;0.22;0.18;-325;-739
0.21;0.22;0.27;0.22;0.18;36;-105
0.20;0.23;0.27;0.21;0.19;72;-139
0.21;0.22;0.27;0.22;0.18;435;341
0.20;0.22;0.28;0.22;0.18;-306;-613
0.21;0.22;0.28;0.22;0.18;-64;-259
0.21;0.22;0.27;0.21;0.19;118;-76
0.21;0.22;0.27;0.22;0.18;675;634
0.20;0.22;0.28;0.22;0.19;-396;-790
0.21;0.22;0.27;0.22;0.18;-7;-159

LOOP num #;32
0.21;0.23;0.27;0.22;0.18;104;-95
0.21;0.22;0.27;0.22;0.18;464;499
0.21;0.22;0.28;0.22;0.18;-348;-800
0.21;0.22;0.27;0.22;0.18;121;16
0.21;0.22;0.27;0.22;0.18;60;-152
0.21;0.22;0.27;0.22;0.18;422;420
0.21;0.22;0.28;0.22;0.18;-233;-644
0.21;0.22;0.28;0.22;0.19;-79;-246
0.21;0.22;0.27;0.22;0.19;144;-44
0.21;0.23;0.27;0.22;0.18;142;-73

LOOP num #;33
0.21;0.22;0.27;0.22;0.19;365;344
0.21;0.22;0.28;0.22;0.18;-416;-915
0.21;0.22;0.28;0.22;0.18;194;150
0.21;0.22;0.28;0.22;0.18;3;-231
0.22;0.23;0.27;0.21;0.19;167;76
0.21;0.22;0.28;0.22;0.18;372;407
0.21;0.22;0.27;0.22;0.18;-430;-972
0.21;0.22;0.27;0.22;0.18;174;111
0.21;0.23;0.28;0.22;0.19;19;-214
0.22;0.23;0.27;0.21;0.18;436;459

LOOP num #;34
0.21;0.22;0.28;0.22;0.18;-91;-420
0.21;0.22;0.27;0.22;0.18;-361;-1018
0.21;0.22;0.28;0.22;0.18;296;205
0.21;0.22;0.28;0.22;0.18;-9;-273
0.22;0.23;0.27;0.21;0.18;214;101
0.20;0.22;0.28;0.22;0.19;305;511
0.21;0.22;0.28;0.22;0.19;-536;-1038
0.21;0.22;0.28;0.22;0.18;190;154
0.21;0.22;0.27;0.22;0.18;26;-221
0.22;0.23;0.27;0.21;0.18;93;-78

LOOP num #;35
0.21;0.22;0.27;0.22;0.18;498;553
0.20;0.22;0.28;0.22;0.18;-506;-1011
0.21;0.22;0.27;0.22;0.18;91;9
0.21;0.22;0.28;0.22;0.18;150;-53
0.21;0.22;0.28;0.22;0.18;1;-222
0.21;0.22;0.28;0.22;0.18;115;-306
0.21;0.22;0.27;0.21;0.18;68;15
0.21;0.22;0.28;0.22;0.19;111;6
0.21;0.22;0.28;0.22;0.18;-215;-627
0.21;0.22;0.27;0.22;0.19;464;546

LOOP num #;36
0.20;0.22;0.28;0.22;0.18;-220;-621
0.21;0.23;0.28;0.22;0.18;-71;-190
0.21;0.25;0.27;0.22;0.18;172;-43
0.22;0.23;0.27;0.21;0.19;375;288
0.20;0.22;0.28;0.22;0.18;-94;-330
0.21;0.24;0.27;0.22;0.19;-512;-575
0.21;0.22;0.27;0.21;0.18;603;609
0.20;0.22;0.28;0.22;0.18;-317;-655
0.21;0.22;0.28;0.22;0.18;-151;-395
0.20;0.22;0.28;0.22;0.19;215;45

LOOP num #;37
0.21;0.22;0.27;0.22;0.19;-189;-274
0.21;0.22;0.28;0.22;0.19;219;-86
0.21;0.22;0.28;0.22;0.19;209;-129
0.21;0.22;0.27;0.22;0.19;-452;-195
0.21;0.23;0.28;0.22;0.19;437;-69
0.21;0.22;0.27;0.22;0.19;41;-179
0.20;0.22;0.27;0.22;0.19;-312;-253
0.21;0.22;0.28;0.22;0.19;559;-12
0.21;0.22;0.27;0.22;0.19;-227;-267
0.20;0.22;0.28;0.22;0.19;98;-130

LOOP num #;38
0.21;0.22;0.27;0.22;0.19;323;-24
0.21;0.22;0.27;0.22;0.19;-584;-339
0.20;0.22;0.28;0.22;0.19;458;-11
0.21;0.22;0.27;0.22;0.19;35;-203
0.21;0.22;0.28;0.22;0.19;-238;-210
0.21;0.22;0.28;0.22;0.19;519;43
0.21;0.23;0.27;0.22;0.19;-204;-237
0.21;0.23;0.28;0.22;0.19;277;-41
0.20;0.22;0.28;0.22;0.18;205;-56
0.21;0.22;0.27;0.22;0.19;-332;-375

LOOP num #;39
0.20;0.22;0.28;0.22;0.18;96;-139
0.20;0.22;0.28;0.22;0.19;406;85
0.20;0.22;0.28;0.22;0.19;-420;-512
0.21;0.22;0.28;0.22;0.19;42;-145
0.21;0.22;0.28;0.22;0.19;427;100
0.21;0.23;0.28;0.22;0.19;92;-51
0.21;0.23;0.29;0.22;0.19;100;-163
0.21;0.22;0.28;0.22;0.19;-403;-484
0.20;0.23;0.28;0.22;0.18;379;47
0.21;0.22;0.27;0.22;0.19;117;-147

LOOP num #;40
0.20;0.22;0.27;0.22;0.19;-340;-50
0.20;0.22;0.28;0.22;0.19;505;-201
0.20;0.23;0.26;0.22;0.19;-57;-80
0.20;0.22;0.28;0.22;0.18;-66;-71
0.20;0.22;0.28;0.22;0.19;301;-344
0.21;0.22;0.27;0.22;0.19;-199;11
0.20;0.22;0.28;0.22;0.18;141;-210
0.21;0.22;0.28;0.22;0.19;179;-277
0.22;0.23;0.27;0.22;0.19;-80;144
0.21;0.22;0.28;0.22;0.18;146;-250

LOOP num #;41
0.21;0.23;0.28;0.21;0.19;96;-254
0.21;0.23;0.27;0.22;0.19;-133;64
0.20;0.22;0.28;0.22;0.19;252;-256
0.22;0.22;0.27;0.22;0.19;51;-167
0.20;0.23;0.28;0.22;0.19;-33;-18
0.20;0.23;0.28;0.22;0.19;214;-451
0.21;0.23;0.28;0.21;0.18;-29;298
0.20;0.23;0.28;0.22;0.18;46;-508
0.21;0.23;0.28;0.21;0.19;151;103
0.20;0.23;0.28;0.22;0.19;117;15

LOOP num #;42
0.20;0.22;0.28;0.22;0.18;-407;-837
0.21;0.22;0.28;0.22;0.18;616;721
0.20;0.22;0.28;0.22;0.18;-274;-708
0.21;0.23;0.27;0.22;0.18;122;-48
0.21;0.22;0.29;0.22;0.19;389;373
0.20;0.22;0.28;0.22;0.18;-633;-1122
0.21;0.23;0.28;0.21;0.19;605;556
0.20;0.22;0.28;0.22;0.18;-28;-272
0.21;0.22;0.28;0.22;0.19;-401;-710
0.21;0.22;0.27;0.21;0.18;680;730

LOOP num #;43
0.21;0.22;0.27;0.22;0.19;-415;-741
0.20;0.22;0.28;0.22;0.18;-8;-81
0.21;0.22;0.28;0.22;0.18;320;-231
0.20;0.22;0.27;0.22;0.18;-348;-53
0.20;0.22;0.28;0.22;0.18;395;-95
0.20;0.22;0.28;0.22;0.19;270;-10
0.20;0.22;0.28;0.22;0.18;-551;-391
0.20;0.22;0.29;0.22;0.18;728;79
0.21;0.22;0.27;0.22;0.19;-190;-214
0.21;0.22;0.28;0.22;0.18;-298;-305

LOOP num #;44
0.21;0.22;0.28;0.22;0.19;712;150
0.20;0.22;0.27;0.22;0.19;-507;-401
0.20;0.22;0.29;0.22;0.18;144;-111
0.21;0.22;0.28;0.22;0.19;492;0
0.20;0.22;0.27;0.22;0.19;-614;-356
0.20;0.22;0.28;0.22;0.18;553;37
0.21;0.22;0.27;0.22;0.19;-39;-145
0.20;0.23;0.28;0.22;0.19;-433;-368
0.20;0.22;0.28;0.22;0.18;781;174
0.21;0.22;0.27;0.21;0.19;-408;-316

LOOP num #;45
0.20;0.22;0.28;0.22;0.18;-75;-266
0.20;0.22;0.28;0.22;0.19;612;17
0.21;0.22;0.27;0.22;0.19;-569;-320
0.20;0.22;0.28;0.22;0.18;437;-34
0.21;0.22;0.27;0.22;0.18;280;-114
0.20;0.23;0.27;0.22;0.18;-676;-293
0.20;0.22;0.28;0.22;0.18;610;-15
0.21;0.22;0.27;0.22;0.19;249;-116
0.21;0.22;0.28;0.22;0.18;-455;-312
0.20;0.22;0.28;0.22;0.18;607;42

LOOP num #;46
0.21;0.22;0.26;0.22;0.19;-186;-245
0.21;0.22;0.28;0.22;0.19;-227;-163
0.21;0.22;0.27;0.21;0.18;265;-165
0.20;0.22;0.28;0.22;0.18;94;-55
0.21;0.22;0.27;0.22;0.20;344;-99
0.20;0.23;0.29;0.22;0.19;-767;-363
0.21;0.23;0.28;0.22;0.21;724;-16
0.20;0.23;0.28;0.21;0.20;-921;-462
0.21;0.23;0.29;0.22;0.20;789;63
0.20;0.23;0.27;0.22;0.20;-432;-200

LOOP num #;47
0.20;0.23;0.28;0.22;0.20;443;-41
0.21;0.22;0.27;0.21;0.20;68;-127
0.20;0.23;0.29;0.22;0.20;-201;-195
0.21;0.24;0.28;0.22;0.20;657;-254
0.20;0.23;0.28;0.21;0.20;-966;-436
0.20;0.23;0.28;0.22;0.20;877;40
0.21;0.23;0.28;0.21;0.19;-561;-206
0.20;0.24;0.29;0.22;0.19;616;23
0.20;0.23;0.27;0.22;0.20;79;-83
0.20;0.23;0.29;0.22;0.19;-257;-288

LOOP num #;48
0.20;0.23;0.28;0.22;0.20;481;-86
0.21;0.23;0.29;0.22;0.20;-696;-357
0.21;0.23;0.29;0.22;0.21;759;-57
0.21;0.23;0.28;0.22;0.20;-623;-211
0.20;0.24;0.29;0.22;0.20;1023;-254
0.20;0.23;0.27;0.21;0.20;-202;-119
0.20;0.23;0.29;0.22;0.20;50;-186
0.21;0.23;0.28;0.22;0.21;348;-38
0.20;0.23;0.29;0.22;0.19;-476;-351
0.20;0.23;0.28;0.21;0.20;612;-88

LOOP num #;49
0.20;0.23;0.29;0.22;0.19;-1024;-344
0.20;0.23;0.29;0.22;0.19;741;-97
0.20;0.22;0.28;0.22;0.19;-444;-151
0.20;0.23;0.29;0.21;0.19;509;-82
0.21;0.23;0.27;0.22;0.20;-99;-106
0.20;0.23;0.29;0.22;0.18;-15;-181
0.21;0.23;0.28;0.22;0.20;443;-59
0.20;0.23;0.29;0.22;0.18;-650;-376
0.21;0.22;0.28;0.22;0.18;818;13
0.20;0.23;0.27;0.22;0.19;-504;-218

LOOP num #;50
0.20;0.22;0.28;0.22;0.18;349;-100
0.22;0.22;0.27;0.22;0.19;129;-76
0.20;0.22;0.29;0.22;0.19;-319;-253
0.21;0.22;0.28;0.22;0.18;616;27
0.21;0.22;0.27;0.22;0.19;-399;-345
0.21;0.22;0.28;0.22;0.18;329;-23
0.21;0.21;0.27;0.21;0.18;84;253
0.20;0.22;0.28;0.22;0.19;196;-71
0.20;0.22;0.27;0.22;0.19;170;-85
0.20;0.22;0.28;0.22;0.18;-114;-281

LOOP num #;51
0.21;0.22;0.28;0.22;0.19;484;-21
0.21;0.22;0.28;0.22;0.18;-773;-427
0.20;0.22;0.28;0.22;0.19;815;108
0.20;0.22;0.27;0.22;0.19;-749;-420
0.21;0.22;0.28;0.21;0.19;815;128
0.21;0.22;0.26;0.22;0.19;-443;-68
0.20;0.22;0.28;0.22;0.18;459;-53
0.22;0.22;0.27;0.22;0.19;107;-76
0.20;0.22;0.28;0.22;0.19;-87;-229
0.21;0.22;0.28;0.21;0.19;-115;-536

LOOP num #;52
0.20;0.22;0.28;0.22;0.20;292;340
0.21;0.22;0.28;0.22;0.19;-310;-843
0.20;0.22;0.28;0.22;0.19;526;600
0.22;0.22;0.28;0.21;0.19;-459;-1059
0.21;0.22;0.28;0.22;0.19;396;659
0.20;0.22;0.29;0.22;0.19;-90;-600
0.21;0.22;0.28;0.22;0.19;84;-44
0.20;0.22;0.28;0.22;0.19;177;77
0.21;0.22;0.28;0.22;0.19;-511;-570
0.21;0.22;0.29;0.22;0.19;405;339

LOOP num #;53
0.21;0.22;0.28;0.22;0.19;129;-353
0.20;0.22;0.28;0.22;0.19;-451;-222
0.21;0.22;0.28;0.22;0.19;562;-136
0.21;0.22;0.28;0.22;0.19;-237;-63
0.20;0.22;0.29;0.22;0.19;228;-131
0.22;0.22;0.28;0.22;0.19;266;-166
0.20;0.23;0.28;0.22;0.19;-630;-248
0.21;0.22;0.28;0.21;0.19;593;-215
0.21;0.22;0.28;0.22;0.19;-396;-117
0.20;0.22;0.28;0.22;0.19;436;-91

LOOP num #;54
0.21;0.22;0.27;0.21;0.20;46;-62
0.20;0.22;0.29;0.22;0.19;-217;-238
0.21;0.22;0.28;0.22;0.20;527;-94
0.21;0.22;0.27;0.22;0.19;-706;-302
0.21;0.22;0.28;0.22;0.18;516;-96
0.20;0.22;0.27;0.22;0.19;-83;-255
0.20;0.23;0.29;0.22;0.18;171;-194
0.21;0.22;0.27;0.22;0.19;216;-64
0.20;0.22;0.28;0.22;0.19;-305;-285
0.20;0.22;0.29;0.22;0.19;549;-63

LOOP num #;55
0.21;0.22;0.28;0.22;0.19;-575;-275
0.20;0.22;0.29;0.22;0.20;441;-84
0.21;0.22;0.27;0.22;0.19;-85;-29
0.21;0.22;0.29;0.22;0.19;63;-163
0.21;0.22;0.27;0.22;0.19;264;-73
0.21;0.22;0.29;0.22;0.19;-358;-321
0.21;0.22;0.28;0.22;0.20;494;-92
0.20;0.22;0.28;0.22;0.19;-562;-243
0.21;0.22;0.29;0.22;0.19;577;-120
0.20;0.22;0.27;0.22;0.20;-240;-99

LOOP num #;56
0.20;0.22;0.29;0.22;0.19;191;-179
0.21;0.22;0.28;0.22;0.20;110;-147
0.20;0.22;0.29;0.22;0.20;-176;-103
0.20;0.22;0.29;0.22;0.19;22;-504
0.20;0.22;0.29;0.22;0.20;356;446
0.20;0.22;0.28;0.22;0.18;-363;-841
0.21;0.22;0.28;0.22;0.20;284;262
0.20;0.22;0.29;0.22;0.20;254;-334
0.21;0.22;0.28;0.22;0.20;115;10
0.20;0.22;0.29;0.22;0.21;114;-96

LOOP num #;57
0.20;0.22;0.29;0.22;0.19;-340;-709
0.21;0.22;0.29;0.22;0.21;695;651
0.21;0.22;0.29;0.22;0.20;-446;-675
0.21;0.22;0.27;0.22;0.19;-255;-141
0.20;0.22;0.29;0.22;0.20;526;491
0.20;0.23;0.28;0.22;0.19;-391;-979
0.22;0.23;0.28;0.22;0.19;573;558
0.20;0.22;0.29;0.23;0.20;93;-77
0.21;0.22;0.28;0.22;0.19;-636;-993
0.21;0.22;0.28;0.22;0.19;721;751

LOOP num #;58
0.21;0.22;0.29;0.22;0.20;-222;-542
0.22;0.22;0.28;0.21;0.19;-282;-533
0.21;0.22;0.28;0.22;0.19;229;229
0.21;0.23;0.28;0.22;0.20;412;-280
0.21;0.22;0.27;0.22;0.20;-267;-15
0.21;0.23;0.29;0.22;0.19;248;-162
0.22;0.25;0.28;0.22;0.19;334;61
0.20;0.22;0.28;0.22;0.21;90;52
0.21;0.22;0.28;0.22;0.20;-556;-1012
0.21;0.23;0.28;0.22;0.19;249;300

LOOP num #;59
0.20;0.22;0.29;0.22;0.20;263;249
0.20;0.22;0.29;0.22;0.20;-213;-698
0.21;0.22;0.28;0.22;0.21;430;179
0.20;0.22;0.29;0.22;0.19;-509;-280
0.21;0.23;0.29;0.22;0.20;618;-64
0.21;0.22;0.28;0.22;0.19;-348;-71
0.22;0.23;0.28;0.22;0.20;545;-94
0.21;0.22;0.27;0.22;0.19;-251;-64
0.21;0.23;0.29;0.22;0.19;343;-101
0.21;0.22;0.27;0.22;0.20;120;-53

LOOP num #;60
0.21;0.23;0.29;0.22;0.19;-165;-199
0.21;0.22;0.29;0.21;0.20;491;-133
0.21;0.23;0.28;0.22;0.19;-598;-226
0.20;0.23;0.29;0.22;0.20;280;-176
0.22;0.23;0.28;0.22;0.19;-119;-512
0.21;0.22;0.29;0.22;0.21;349;245
0.22;0.23;0.28;0.22;0.19;-444;-934
0.20;0.22;0.29;0.22;0.21;626;638
0.21;0.23;0.29;0.22;0.19;-315;-824
0.22;0.23;0.28;0.21;0.19;302;393

LOOP num #;61
0.20;0.22;0.29;0.22;0.20;152;-16
0.21;0.23;0.28;0.22;0.19;-395;-1015
0.20;0.22;0.29;0.22;0.20;687;728
0.22;0.23;0.29;0.22;0.19;-509;-975
0.22;0.23;0.28;0.22;0.19;438;505
0.20;0.22;0.29;0.22;0.20;81;-137
0.21;0.23;0.28;0.22;0.19;-408;-747
0.20;0.22;0.29;0.22;0.21;711;734
0.21;0.22;0.29;0.22;0.19;-605;-1177
0.22;0.22;0.28;0.22;0.19;306;387

LOOP num #;62
0.21;0.23;0.29;0.22;0.19;184;-151
0.21;0.22;0.28;0.22;0.20;190;-109
0.21;0.23;0.29;0.22;0.19;-310;-198
0.22;0.24;0.28;0.22;0.20;403;-171
0.20;0.22;0.29;0.22;0.21;-15;218
0.21;0.23;0.29;0.22;0.19;-252;-819
0.21;0.23;0.29;0.22;0.20;440;475
0.20;0.22;0.29;0.22;0.20;-120;-404
0.21;0.23;0.28;0.22;0.19;-107;-335
0.21;0.22;0.29;0.22;0.21;527;523

LOOP num #;63
0.21;0.23;0.29;0.22;0.19;-545;-1091
0.21;0.23;0.29;0.22;0.20;574;656
0.20;0.22;0.29;0.22;0.20;-154;-448
0.21;0.22;0.28;0.22;0.19;-335;-661
0.20;0.22;0.29;0.22;0.21;668;687
0.21;0.23;0.29;0.22;0.19;-550;-1041
0.22;0.23;0.28;0.21;0.19;481;567
0.20;0.22;0.29;0.22;0.20;92;-121
0.21;0.23;0.29;0.22;0.21;-21;-572
0.21;0.23;0.28;0.22;0.20;-468;-15

LOOP num #;64
0.21;0.22;0.29;0.22;0.20;463;-231
0.21;0.22;0.27;0.22;0.19;-272;4
0.21;0.22;0.29;0.22;0.19;367;-111
0.21;0.22;0.27;0.22;0.19;102;-25
0.21;0.22;0.29;0.22;0.18;-96;-201
0.21;0.22;0.29;0.22;0.20;475;-92
0.21;0.22;0.28;0.22;0.19;-681;-264
0.21;0.22;0.29;0.22;0.19;553;-94
0.21;0.22;0.27;0.22;0.19;-10;-127
0.21;0.22;0.29;0.22;0.19;186;-100

LOOP num #;65
0.21;0.22;0.28;0.22;0.19;399;-88
0.21;0.23;0.28;0.22;0.19;-606;-300
0.21;0.22;0.29;0.22;0.19;737;-65
0.21;0.22;0.27;0.21;0.19;-360;-117
0.21;0.22;0.29;0.22;0.18;227;-131
0.21;0.22;0.28;0.22;0.20;312;-88
0.20;0.22;0.28;0.22;0.19;-604;-314
0.21;0.22;0.29;0.22;0.19;798;-77
0.21;0.22;0.27;0.22;0.19;-474;-152
0.20;0.23;0.29;0.22;0.19;346;-101

LOOP num #;66
0.20;0.22;0.28;0.22;0.20;261;-75
0.21;0.23;0.29;0.22;0.19;-520;-297
0.21;0.22;0.29;0.22;0.20;677;-78
0.21;0.22;0.28;0.22;0.19;-543;-259
0.21;0.22;0.29;0.22;0.19;425;-94
0.21;0.22;0.27;0.22;0.20;115;-30
0.20;0.22;0.29;0.22;0.19;-275;-238
0.21;0.22;0.29;0.22;0.20;509;-156
0.20;0.22;0.28;0.22;0.20;-566;-180
0.20;0.22;0.29;0.22;0.19;531;-117

LOOP num #;67
0.21;0.22;0.27;0.22;0.20;-189;-83
0.20;0.22;0.29;0.22;0.19;126;-160
0.21;0.22;0.28;0.22;0.20;396;-79
0.20;0.22;0.29;0.22;0.20;-634;-292
0.20;0.22;0.29;0.22;0.20;722;-86
0.20;0.22;0.28;0.22;0.19;-503;-216
0.20;0.22;0.30;0.22;0.19;473;-87
0.20;0.22;0.27;0.22;0.20;10;-77
0.21;0.22;0.30;0.22;0.19;-127;-235
0.21;0.22;0.28;0.22;0.21;461;-66

LOOP num #;68
0.21;0.22;0.29;0.22;0.19;-584;-278
0.21;0.22;0.29;0.22;0.20;734;-48
0.21;0.22;0.28;0.22;0.19;-497;-256
0.20;0.22;0.30;0.22;0.19;317;-115
0.21;0.22;0.28;0.22;0.20;181;-64
0.20;0.22;0.29;0.22;0.19;-511;-232
0.21;0.22;0.29;0.22;0.21;599;21
0.20;0.22;0.29;0.22;0.19;-850;-398
0.20;0.22;0.29;0.22;0.20;660;-6
0.21;0.22;0.28;0.22;0.20;-306;-168

LOOP num #;69
0.21;0.22;0.30;0.22;0.19;283;-66
0.21;0.22;0.29;0.22;0.20;365;-27
0.21;0.22;0.29;0.22;0.19;-777;-439
0.20;0.22;0.29;0.22;0.21;743;-15
0.20;0.23;0.28;0.22;0.19;-523;-317
0.20;0.22;0.29;0.22;0.20;628;11
0.20;0.22;0.28;0.22;0.20;-201;-139
0.20;0.22;0.30;0.22;0.19;68;-163
0.21;0.22;0.28;0.22;0.21;344;-32
0.21;0.22;0.29;0.22;0.19;-462;-296

LOOP num #;70
0.21;0.22;0.28;0.22;0.20;629;-39
0.21;0.22;0.29;0.22;0.19;-656;-301
0.21;0.22;0.29;0.22;0.20;609;-47
0.21;0.22;0.28;0.22;0.19;-267;-119
0.20;0.22;0.29;0.22;0.18;243;-117
0.20;0.22;0.28;0.22;0.20;193;-112
0.21;0.22;0.29;0.22;0.19;-355;-233
0.20;0.22;0.29;0.22;0.21;420;-118
0.21;0.22;0.29;0.22;0.19;-763;-242
0.20;0.22;0.28;0.22;0.19;588;-105

LOOP num #;71
0.20;0.22;0.29;0.22;0.19;-308;-183
0.21;0.23;0.29;0.22;0.18;255;-187
0.21;0.22;0.29;0.22;0.19;-76;-53
0.20;0.23;0.30;0.22;0.19;-34;-258
0.21;0.22;0.29;0.22;0.19;352;-48
0.21;0.22;0.30;0.22;0.19;-356;-281
0.21;0.22;0.29;0.22;0.19;404;-161
0.21;0.22;0.29;0.22;0.19;-192;-47
0.20;0.23;0.30;0.22;0.18;0;-196
0.21;0.22;0.29;0.22;0.19;-66;-102

LOOP num #;72
0.20;0.22;0.30;0.22;0.18;-245;-198
0.21;0.22;0.28;0.22;0.19;218;-50
0.21;0.22;0.28;0.22;0.19;-531;-333
0.21;0.22;0.28;0.22;0.19;191;-90
0.21;0.22;0.28;0.22;0.19;-385;-744
0.21;0.22;0.28;0.22;0.19;507;474
0.20;0.22;0.28;0.22;0.19;-67;-412
0.21;0.22;0.28;0.22;0.19;-119;-306
0.21;0.22;0.28;0.22;0.19;456;437
0.20;0.22;0.28;0.22;0.19;-311;-705

LOOP num #;73
0.21;0.22;0.28;0.22;0.19;97;-67
0.21;0.22;0.28;0.22;0.19;473;426
0.20;0.22;0.28;0.22;0.19;-347;-779
0.21;0.23;0.28;0.22;0.19;203;69
0.21;0.22;0.28;0.22;0.19;274;165
0.21;0.22;0.28;0.22;0.19;-479;-819
0.21;0.22;0.28;0.22;0.18;450;330
0.20;0.22;0.28;0.22;0.19;2;-252
0.21;0.23;0.28;0.22;0.18;-144;-348
0.20;0.22;0.28;0.22;0.19;441;348

LOOP num #;74
0.20;0.22;0.28;0.22;0.19;-290;-683
0.20;0.22;0.28;0.22;0.18;-53;-509
0.20;0.22;0.28;0.22;0.19;569;577
0.20;0.22;0.28;0.22;0.19;-327;-759
0.21;0.22;0.28;0.22;0.19;212;113
0.20;0.22;0.29;0.22;0.19;475;394
0.21;0.22;0.29;0.22;0.19;-597;-1119
0.22;0.23;0.28;0.22;0.19;436;400
0.21;0.22;0.28;0.22;0.19;146;-24
0.21;0.22;0.28;0.21;0.19;-541;-889

LOOP num #;75
0.21;0.22;0.28;0.22;0.19;696;734
0.21;0.22;0.28;0.22;0.19;-176;-558
0.22;0.22;0.28;0.22;0.19;-116;-338
0.21;0.22;0.28;0.22;0.19;570;645
0.21;0.22;0.28;0.22;0.19;-532;-1179
0.22;0.22;0.28;0.21;0.19;473;503
0.21;0.22;0.28;0.22;0.19;75;-116
0.21;0.24;0.29;0.22;0.19;-223;-357
0.21;0.23;0.29;0.22;0.19;657;-3
0.21;0.22;0.27;0.22;0.18;-335;-82

LOOP num #;76
0.20;0.23;0.29;0.22;0.18;434;-63
0.20;0.22;0.28;0.22;0.19;0;-121
0.20;0.23;0.29;0.22;0.18;158;-165
0.21;0.22;0.28;0.22;0.19;84;-82
0.20;0.23;0.30;0.22;0.19;-138;-179
0.21;0.22;0.29;0.22;0.19;288;-122
0.22;0.23;0.29;0.22;0.19;-392;-279
0.22;0.22;0.29;0.22;0.20;419;-87
0.22;0.22;0.28;0.22;0.18;-641;-289
0.21;0.23;0.29;0.22;0.19;819;-100

LOOP num #;77
0.20;0.22;0.29;0.22;0.19;-476;-189
0.21;0.23;0.28;0.22;0.21;541;-60
0.21;0.23;0.29;0.22;0.19;-496;-245
0.21;0.23;0.29;0.22;0.20;659;-171
0.22;0.23;0.29;0.22;0.20;-198;73
0.21;0.23;0.29;0.22;0.20;16;-414
0.21;0.23;0.29;0.22;0.19;53;-46
0.22;0.22;0.30;0.22;0.20;183;46
0.21;0.23;0.29;0.22;0.19;-212;-765
0.21;0.23;0.30;0.22;0.20;444;417

LOOP num #;78
0.21;0.23;0.29;0.22;0.21;-28;-763
0.21;0.23;0.30;0.22;0.19;-266;-150
0.21;0.23;0.29;0.22;0.21;449;-159
0.21;0.23;0.29;0.22;0.19;-428;-162
0.21;0.23;0.29;0.22;0.20;414;-350
0.21;0.22;0.29;0.22;0.19;-409;-67
0.21;0.22;0.29;0.22;0.19;579;-193
0.21;0.23;0.29;0.22;0.18;-269;-45
0.20;0.23;0.29;0.22;0.20;489;-198
0.21;0.22;0.29;0.22;0.19;-408;-183

LOOP num #;79
0.21;0.22;0.29;0.22;0.19;597;-138
0.20;0.22;0.28;0.22;0.19;-254;-149
0.20;0.22;0.29;0.22;0.20;448;-53
0.21;0.22;0.27;0.22;0.19;-327;-205
0.21;0.22;0.28;0.22;0.19;400;-40
0.21;0.22;0.27;0.22;0.19;150;-31
0.21;0.22;0.29;0.22;0.19;-167;-246
0.21;0.22;0.28;0.22;0.20;379;-111
0.21;0.22;0.29;0.22;0.19;-489;-129
0.22;0.22;0.29;0.22;0.19;437;-314

LOOP num #;80
0.22;0.22;0.28;0.22;0.19;-250;47
0.20;0.22;0.29;0.22;0.19;246;-379
0.21;0.22;0.28;0.22;0.19;69;51
0.21;0.22;0.29;0.22;0.20;-45;-158
0.21;0.22;0.28;0.22;0.20;8;-229
0.21;0.22;0.28;0.22;0.20;70;-12
0.22;0.22;0.29;0.22;0.20;111;-100
0.22;0.23;0.28;0.22;0.20;253;-216
0.21;0.23;0.29;0.22;0.20;165;29
0.22;0.25;0.29;0.22;0.20;7;-152

LOOP num #;81
0.22;0.23;0.29;0.22;0.19;223;95
0.22;0.24;0.28;0.22;0.19;-98;-416
0.22;0.24;0.28;0.22;0.19;356;283
0.22;0.23;0.28;0.22;0.19;-227;-594
0.22;0.23;0.28;0.22;0.20;308;426
0.22;0.23;0.29;0.22;0.20;-105;-475
0.22;0.23;0.28;0.22;0.19;-88;-285
0.21;0.22;0.30;0.22;0.20;553;579
0.21;0.23;0.29;0.22;0.19;-722;-1398
0.21;0.23;0.28;0.22;0.20;531;704

LOOP num #;82
0.21;0.23;0.30;0.22;0.19;-68;-445
0.21;0.23;0.28;0.22;0.20;-181;-521
0.21;0.23;0.29;0.22;0.19;-500;37
0.21;0.23;0.29;0.22;0.20;671;-162
0.21;0.23;0.28;0.22;0.19;-557;-174
0.21;0.23;0.29;0.22;0.20;810;-216
0.21;0.23;0.28;0.22;0.19;-425;-59
0.22;0.23;0.29;0.22;0.19;544;-85
0.21;0.23;0.27;0.22;0.19;-146;-80
0.22;0.22;0.30;0.22;0.19;145;-188

LOOP num #;83
0.21;0.23;0.27;0.22;0.20;304;-30
0.21;0.23;0.29;0.22;0.20;-491;-258
0.21;0.22;0.29;0.22;0.20;750;-76
0.22;0.23;0.28;0.22;0.20;-629;-247
0.21;0.23;0.29;0.22;0.20;615;-73
0.21;0.23;0.27;0.22;0.19;-193;-64
0.20;0.22;0.29;0.22;0.19;181;-128
0.20;0.23;0.28;0.22;0.20;330;-64
0.21;0.23;0.29;0.23;0.19;-545;-312
0.21;0.23;0.28;0.22;0.20;636;-15

LOOP num #;84
0.21;0.23;0.28;0.22;0.19;-833;-354
0.20;0.23;0.29;0.22;0.20;900;-133
0.21;0.23;0.27;0.22;0.19;-499;-183
0.21;0.23;0.29;0.22;0.19;497;-68
0.21;0.22;0.27;0.22;0.19;85;-75
0.20;0.23;0.29;0.22;0.19;-177;-219
0.22;0.23;0.29;0.22;0.21;480;-91
0.20;0.23;0.28;0.22;0.19;-625;-281
0.21;0.23;0.29;0.22;0.20;760;-103
0.20;0.23;0.28;0.22;0.20;-526;-172

LOOP num #;85
0.22;0.23;0.29;0.22;0.21;659;-54
0.21;0.23;0.28;0.22;0.19;-301;-79
0.22;0.23;0.29;0.22;0.20;388;-116
0.21;0.22;0.27;0.22;0.20;23;-92
0.21;0.22;0.29;0.22;0.19;-69;-225
0.22;0.23;0.28;0.22;0.21;419;-75
0.20;0.23;0.29;0.22;0.19;-629;-306
0.21;0.23;0.28;0.22;0.20;755;-93
0.21;0.23;0.28;0.22;0.19;-613;-237
0.21;0.23;0.29;0.22;0.20;651;-90

LOOP num #;86
0.21;0.23;0.28;0.22;0.19;-336;-60
0.21;0.23;0.29;0.22;0.19;311;-137
0.21;0.22;0.28;0.22;0.20;156;-68
0.20;0.23;0.29;0.22;0.19;-320;-289
0.20;0.23;0.28;0.22;0.21;612;-23
0.20;0.23;0.29;0.22;0.19;-794;-363
0.20;0.22;0.29;0.22;0.21;840;-26
0.20;0.23;0.28;0.22;0.19;-631;-273
0.20;0.22;0.29;0.22;0.20;1019;20
0.21;0.23;0.27;0.22;0.19;-322;-146

LOOP num #;87
0.20;0.23;0.29;0.22;0.20;330;-114
0.21;0.22;0.27;0.22;0.20;155;-43
0.20;0.23;0.29;0.22;0.19;-276;-287
0.21;0.22;0.28;0.22;0.21;534;-13
0.21;0.23;0.29;0.22;0.18;-699;-350
0.20;0.23;0.29;0.22;0.21;820;-50
0.21;0.22;0.28;0.22;0.19;-734;-305
0.20;0.23;0.28;0.22;0.21;688;-48
0.21;0.23;0.28;0.22;0.19;-428;-186
0.21;0.23;0.29;0.22;0.20;573;-44

LOOP num #;88
0.21;0.22;0.27;0.22;0.19;-178;-108
0.21;0.22;0.29;0.22;0.18;72;-188
0.21;0.22;0.28;0.22;0.20;316;-29
0.23;0.23;0.29;0.22;0.19;-553;-297
0.21;0.23;0.29;0.22;0.19;499;-21
0.21;0.23;0.29;0.22;0.19;-106;-210
0.22;0.23;0.28;0.22;0.19;-259;-583
0.20;0.22;0.29;0.22;0.20;572;557
0.22;0.23;0.29;0.22;0.18;-768;-1078
0.21;0.22;0.29;0.22;0.20;668;705

LOOP num #;89
0.22;0.23;0.29;0.22;0.19;-387;-784
0.22;0.22;0.29;0.22;0.19;272;276
0.20;0.22;0.29;0.22;0.19;96;-95
0.21;0.23;0.28;0.22;0.19;-350;-688
0.20;0.22;0.29;0.22;0.20;560;578
0.21;0.22;0.28;0.22;0.20;-409;-937
0.21;0.22;0.29;0.22;0.19;-150;137
0.22;0.23;0.29;0.22;0.20;579;-97
0.21;0.23;0.28;0.22;0.19;-6;-18
0.22;0.23;0.30;0.22;0.19;492;-100

LOOP num #;90
0.21;0.23;0.27;0.22;0.19;-96;-47
0.21;0.22;0.29;0.22;0.19;275;-172
0.21;0.22;0.27;0.22;0.20;-31;-63
0.22;0.23;0.29;0.22;0.19;9;-176
0.21;0.22;0.28;0.22;0.19;340;-65
0.21;0.23;0.29;0.22;0.18;-438;-218
0.20;0.22;0.28;0.22;0.20;771;-48
0.20;0.22;0.28;0.22;0.19;-697;-348
0.20;0.22;0.29;0.22;0.20;683;36
0.21;0.22;0.27;0.22;0.19;-351;-249

LOOP num #;91
0.21;0.22;0.29;0.22;0.20;321;-99
0.21;0.22;0.27;0.22;0.20;11;-53
0.20;0.22;0.29;0.22;0.19;27;-173
0.21;0.23;0.28;0.22;0.20;242;-89
0.21;0.22;0.29;0.22;0.19;-449;-274
0.21;0.23;0.28;0.22;0.19;580;-76
0.20;0.22;0.29;0.22;0.21;-189;95
0.20;0.23;0.28;0.22;0.20;-287;-971
0.21;0.22;0.28;0.22;0.21;258;626
0.21;0.23;0.29;0.22;0.20;-231;-603

LOOP num #;92
0.22;0.23;0.28;0.22;0.20;247;221
0.21;0.22;0.29;0.22;0.20;497;118
0.21;0.23;0.28;0.22;0.20;-380;-796
0.20;0.22;0.29;0.22;0.20;690;697
0.21;0.22;0.28;0.22;0.19;-454;-994
0.21;0.22;0.28;0.22;0.20;421;495
0.20;0.22;0.28;0.22;0.19;251;-14
0.21;0.22;0.28;0.22;0.19;-367;-576
0.20;0.22;0.28;0.22;0.19;640;628
0.21;0.23;0.28;0.22;0.18;-352;-656

LOOP num #;93
0.21;0.22;0.28;0.22;0.19;451;284
0.20;0.22;0.28;0.22;0.19;26;-250
0.21;0.23;0.28;0.21;0.19;85;-124
0.20;0.22;0.29;0.22;0.19;411;387
0.21;0.22;0.29;0.22;0.19;-464;-1081
0.21;0.23;0.28;0.22;0.19;590;695
0.20;0.22;0.28;0.22;0.19;-241;-696
0.22;0.23;0.28;0.22;0.19;105;28
0.20;0.23;0.29;0.23;0.19;302;166
0.21;0.23;0.29;0.22;0.19;-570;-932

LOOP num #;94
0.21;0.23;0.28;0.22;0.19;691;759
0.20;0.22;0.29;0.22;0.19;-254;-613
0.21;0.22;0.28;0.22;0.19;-142;-398
0.21;0.23;0.29;0.22;0.19;528;650
0.21;0.22;0.28;0.22;0.19;-109;-1036
0.21;0.22;0.27;0.22;0.19;-147;435
0.20;0.22;0.29;0.22;0.18;324;-518
0.21;0.23;0.27;0.22;0.19;-55;322
0.20;0.22;0.29;0.22;0.19;252;-500
0.21;0.23;0.27;0.22;0.19;-54;213

LOOP num #;95
0.20;0.22;0.29;0.22;0.19;151;-380
0.22;0.23;0.27;0.22;0.19;-14;-511
0.20;0.22;0.29;0.22;0.19;4;139
0.21;0.23;0.27;0.22;0.19;-93;-797
0.20;0.23;0.28;0.22;0.19;-42;395
0.20;0.22;0.29;0.22;0.19;225;-650
0.21;0.23;0.27;0.22;0.20;-187;321
0.20;0.22;0.28;0.22;0.19;339;-534
0.21;0.23;0.27;0.22;0.19;-39;210
0.20;0.22;0.28;0.22;0.19;145;-282

LOOP num #;96
0.21;0.22;0.27;0.22;0.19;56;14
0.20;0.22;0.29;0.23;0.19;61;-51
0.21;0.22;0.27;0.22;0.19;28;-385
0.20;0.22;0.29;0.22;0.19;-17;98
0.21;0.23;0.27;0.22;0.19;-26;-675
0.21;0.23;0.29;0.22;0.19;-26;461
0.21;0.23;0.28;0.22;0.19;184;-886
0.21;0.23;0.28;0.22;0.19;-177;452
0.21;0.22;0.28;0.22;0.19;268;-807
0.21;0.22;0.27;0.22;0.19;25;630

LOOP num #;97
0.20;0.22;0.29;0.22;0.19;196;-716
0.22;0.23;0.27;0.22;0.19;23;297
0.20;0.22;0.28;0.22;0.19;129;-8
0.21;0.23;0.28;0.22;0.19;-70;-451
0.21;0.23;0.29;0.22;0.19;368;566
0.20;0.22;0.29;0.22;0.20;-656;-1307
0.22;0.22;0.28;0.22;0.19;555;234
0.21;0.22;0.28;0.22;0.18;-396;109
0.21;0.22;0.29;0.22;0.19;469;-386
0.22;0.22;0.27;0.22;0.19;-174;54

LOOP num #;98
0.20;0.22;0.29;0.22;0.19;222;-148
0.21;0.22;0.27;0.22;0.19;86;-92
0.20;0.23;0.28;0.22;0.19;-239;-143
0.21;0.22;0.28;0.22;0.19;495;-122
0.20;0.23;0.29;0.22;0.19;-642;-252
0.21;0.22;0.29;0.22;0.19;820;-64
0.21;0.22;0.27;0.22;0.19;-508;-228
0.21;0.22;0.29;0.22;0.19;553;-60
0.21;0.22;0.27;0.22;0.19;-143;-133
0.21;0.22;0.29;0.22;0.19;129;-134

LOOP num #;99
0.21;0.22;0.27;0.22;0.19;328;-48
0.21;0.23;0.28;0.22;0.19;-476;-187
0.21;0.22;0.29;0.22;0.19;589;-187
0.20;0.22;0.28;0.22;0.18;-644;-238
0.21;0.22;0.29;0.22;0.19;618;-148
0.21;0.22;0.27;0.22;0.19;-321;-123
0.20;0.23;0.29;0.22;0.18;463;-74
0.21;0.22;0.27;0.22;0.19;-63;-144
0.21;0.22;0.29;0.22;0.19;-251;-138
0.21;0.22;0.27;0.22;0.19;286;-135

LOOP num #;100
0.20;0.23;0.29;0.22;0.19;-489;-209
0.21;0.22;0.29;0.22;0.19;674;-177
0.20;0.22;0.27;0.22;0.19;-682;-196
0.21;0.22;0.29;0.22;0.18;721;-80
0.21;0.22;0.26;0.22;0.19;-224;-127
0.20;0.22;0.29;0.22;0.19;128;-65
0.21;0.22;0.27;0.22;0.19;266;-198
0.21;0.22;0.29;0.22;0.20;-758;-182
0.21;0.22;0.29;0.22;0.18;653;-165
0.21;0.22;0.28;0.22;0.19;-609;-249

LOOP num #;101
0.21;0.22;0.29;0.22;0.19;600;-134
0.21;0.22;0.28;0.22;0.19;-319;-127
0.21;0.22;0.29;0.22;0.19;417;-88
0.21;0.22;0.27;0.22;0.19;-107;-139
0.21;0.22;0.29;0.22;0.19;156;-143
0.21;0.22;0.27;0.22;0.19;150;-109
0.20;0.23;0.29;0.23;0.19;-261;-194
0.21;0.22;0.28;0.22;0.19;491;-84
0.20;0.22;0.28;0.22;0.19;-637;-212
0.20;0.22;0.29;0.22;0.19;717;-167

LOOP num #;102
0.20;0.22;0.28;0.22;0.19;-429;-154
0.20;0.22;0.29;0.22;0.19;535;-136
0.21;0.22;0.27;0.22;0.19;-212;-108
0.20;0.22;0.29;0.22;0.19;191;-154
0.21;0.22;0.27;0.22;0.19;101;-109
0.21;0.22;0.29;0.22;0.19;-230;-230
0.21;0.23;0.28;0.22;0.20;418;-84
0.21;0.23;0.28;0.22;0.19;-474;-179
0.20;0.22;0.29;0.22;0.19;608;-167
0.20;0.22;0.29;0.22;0.19;-653;-215

LOOP num #;103
0.21;0.22;0.29;0.22;0.19;744;-121
0.21;0.22;0.27;0.22;0.19;-188;107
0.20;0.22;0.29;0.22;0.19;37;-512
0.21;0.22;0.28;0.22;0.19;351;288
0.20;0.22;0.29;0.22;0.19;-42;-219
0.21;0.22;0.28;0.22;0.19;-98;-371
0.20;0.22;0.29;0.22;0.19;259;262
0.21;0.23;0.28;0.22;0.19;-358;-814
0.21;0.22;0.29;0.23;0.19;424;539
0.21;0.23;0.28;0.22;0.19;-434;-1138

LOOP num #;104
0.21;0.22;0.29;0.22;0.19;288;570
0.21;0.22;0.29;0.22;0.19;-100;-910
0.21;0.23;0.28;0.22;0.19;293;628
0.20;0.22;0.29;0.22;0.19;280;-475
0.21;0.22;0.28;0.22;0.19;-64;178
0.20;0.22;0.29;0.22;0.19;-211;-748
0.21;0.23;0.29;0.22;0.19;735;572
0.20;0.22;0.28;0.22;0.19;-387;-660
0.21;0.23;0.29;0.22;0.18;318;120
0.20;0.22;0.28;0.22;0.19;263;9

LOOP num #;105
0.21;0.22;0.29;0.22;0.19;-492;-623
0.21;0.22;0.29;0.22;0.19;793;649
0.20;0.22;0.28;0.22;0.19;-834;-1041
0.21;0.23;0.29;0.22;0.19;636;403
0.20;0.22;0.29;0.22;0.19;43;-231
0.21;0.23;0.27;0.22;0.18;-358;-332
0.20;0.22;0.29;0.23;0.19;345;251
0.21;0.22;0.28;0.22;0.19;-125;-541
0.20;0.22;0.29;0.22;0.19;209;372
0.21;0.22;0.28;0.22;0.19;-273;-899

LOOP num #;106
0.21;0.22;0.29;0.22;0.19;487;673
0.20;0.22;0.29;0.22;0.19;-294;-973
0.21;0.23;0.28;0.22;0.19;148;522
0.20;0.22;0.29;0.22;0.19;53;-585
0.21;0.23;0.28;0.22;0.19;179;298
0.20;0.23;0.29;0.22;0.19;118;-283
0.22;0.23;0.28;0.22;0.19;-243;-289
0.20;0.22;0.29;0.22;0.20;352;152
0.21;0.23;0.27;0.22;0.19;-423;-728
0.20;0.22;0.29;0.22;0.19;417;419

LOOP num #;107
0.21;0.22;0.28;0.22;0.19;35;-674
0.21;0.23;0.29;0.22;0.19;-77;380
0.20;0.22;0.28;0.22;0.19;348;-373
0.21;0.23;0.27;0.22;0.18;-310;-35
0.20;0.22;0.28;0.22;0.19;460;1
0.21;0.23;0.27;0.22;0.19;-218;-376
0.20;0.22;0.29;0.22;0.19;348;213
0.21;0.22;0.28;0.22;0.19;-86;-613
0.21;0.23;0.28;0.22;0.19;105;394
0.20;0.22;0.28;0.22;0.19;109;-581

LOOP num #;108
0.21;0.23;0.29;0.22;0.18;-149;246
0.20;0.22;0.29;0.22;0.19;438;-290
0.21;0.23;0.28;0.22;0.19;-575;-277
0.20;0.22;0.29;0.22;0.19;662;125
0.22;0.22;0.28;0.22;0.19;-437;-615
0.21;0.23;0.29;0.22;0.20;528;417
0.21;0.22;0.27;0.22;0.19;-156;-665
0.21;0.23;0.28;0.22;0.19;61;305
0.21;0.22;0.29;0.22;0.19;272;-354
0.21;0.23;0.27;0.22;0.19;-328;-55

LOOP num #;109
0.21;0.22;0.29;0.22;0.19;406;20
0.21;0.22;0.28;0.22;0.19;-85;-539
0.21;0.22;0.28;0.22;0.19;-37;285
0.21;0.22;0.29;0.22;0.19;303;-329
0.21;0.23;0.28;0.22;0.19;-423;-272
0.21;0.22;0.28;0.22;0.19;538;177
0.21;0.22;0.28;0.22;0.19;-336;-604
0.21;0.22;0.29;0.22;0.19;272;267
0.21;0.22;0.28;0.22;0.19;166;-395
0.21;0.22;0.28;0.22;0.19;-511;-19

LOOP num #;110
0.20;0.22;0.29;0.22;0.19;440;250
0.21;0.22;0.27;0.22;0.19;-516;-555
0.21;0.23;0.29;0.22;0.19;262;209
0.21;0.22;0.28;0.22;0.19;246;-542
0.21;0.22;0.27;0.22;0.18;-362;83
0.21;0.22;0.28;0.22;0.19;556;-147
0.21;0.23;0.27;0.22;0.19;-335;-216
0.21;0.23;0.29;0.22;0.19;460;236
0.21;0.22;0.27;0.22;0.19;-100;-670
0.21;0.23;0.28;0.22;0.19;-104;195

LOOP num #;111
0.21;0.22;0.28;0.22;0.19;350;-110
0.20;0.22;0.29;0.22;0.18;-484;-596
0.21;0.23;0.28;0.22;0.19;618;211
0.20;0.22;0.28;0.22;0.19;-554;-343
0.21;0.22;0.29;0.22;0.19;2;-394
0.21;0.23;0.27;0.22;0.19;215;350
0.20;0.22;0.29;0.22;0.18;-322;-760
0.21;0.23;0.28;0.22;0.19;612;491
0.20;0.22;0.29;0.22;0.19;-501;-531
0.22;0.23;0.29;0.22;0.19;464;-177

LOOP num #;112
0.21;0.22;0.28;0.22;0.19;-178;122
0.21;0.23;0.29;0.22;0.19;296;-70
0.21;0.23;0.28;0.22;0.19;95;-484
0.21;0.23;0.28;0.22;0.19;-413;50
0.20;0.22;0.29;0.22;0.19;640;48
0.21;0.22;0.27;0.22;0.19;-512;-656
0.21;0.23;0.29;0.22;0.20;251;334
0.21;0.23;0.29;0.22;0.19;329;-528
0.21;0.22;0.28;0.22;0.19;-191;328
0.21;0.22;0.28;0.22;0.19;105;-631

LOOP num #;113
0.21;0.22;0.28;0.22;0.19;289;490
0.21;0.22;0.28;0.22;0.19;-60;-496
0.20;0.23;0.29;0.22;0.19;58;-69
0.21;0.23;0.28;0.22;0.19;361;-60
0.20;0.23;0.28;0.22;0.19;-679;-259
0.21;0.22;0.29;0.22;0.19;828;-91
0.22;0.22;0.27;0.22;0.19;-320;-174
0.20;0.22;0.29;0.22;0.18;197;-102
0.21;0.22;0.28;0.23;0.20;458;-12
0.20;0.22;0.28;0.22;0.19;-820;-331

LOOP num #;114
0.21;0.22;0.29;0.22;0.19;853;-44
0.21;0.22;0.27;0.22;0.19;-330;-195
0.20;0.22;0.29;0.22;0.19;84;-139
0.21;0.22;0.28;0.22;0.19;428;-51
0.21;0.23;0.28;0.22;0.19;-743;-306
0.21;0.22;0.29;0.22;0.19;722;-36
0.21;0.22;0.27;0.22;0.19;-234;-127
0.21;0.23;0.29;0.22;0.19;-68;-190
0.21;0.23;0.29;0.22;0.20;579;15
0.21;0.22;0.28;0.22;0.19;-837;-408

LOOP num #;115
0.21;0.22;0.29;0.22;0.19;655;-21
0.21;0.22;0.27;0.22;0.19;-251;-167
0.21;0.22;0.29;0.22;0.19;24;-149
0.22;0.23;0.29;0.22;0.19;468;-9
0.20;0.23;0.28;0.22;0.19;-718;-292
0.21;0.22;0.29;0.22;0.19;828;-64
0.21;0.22;0.27;0.22;0.19;-321;-189
0.21;0.22;0.29;0.22;0.19;83;-134
0.21;0.23;0.28;0.01;0.19;424;-71
0.21;0.22;0.28;0.21;0.19;-734;-228

LOOP num #;116
0.20;0.22;0.29;0.22;0.19;817;-77
0.21;0.22;0.27;0.22;0.19;-334;-180
0.21;0.22;0.29;0.22;0.19;236;-99
0.21;0.23;0.28;0.22;0.19;331;-103
0.21;0.23;0.28;0.22;0.19;-608;-225
0.20;0.22;0.29;0.22;0.19;793;-39
0.21;0.22;0.27;0.22;0.19;-351;-187
0.20;0.22;0.29;0.22;0.19;211;-119
0.21;0.23;0.28;0.22;0.19;422;-73
0.20;0.23;0.28;0.22;0.19;-747;-291

LOOP num #;117
0.20;0.22;0.29;0.22;0.18;743;-27
0.21;0.22;0.27;0.22;0.19;-344;-222
0.20;0.22;0.29;0.22;0.19;235;-77
0.21;0.22;0.28;0.22;0.19;133;-158
0.21;0.22;0.29;0.22;0.19;-227;-89
0.21;0.22;0.29;0.22;0.20;604;-119
0.21;0.22;0.28;0.22;0.19;-515;-224
0.20;0.22;0.29;0.22;0.19;465;-112
0.21;0.22;0.28;0.22;0.19;-53;-128
0.21;0.22;0.29;0.22;0.19;-97;-156

LOOP num #;118
0.21;0.22;0.29;0.22;0.19;475;-53
0.21;0.22;0.28;0.22;0.19;-616;-334
0.21;0.23;0.29;0.22;0.19;744;5
0.21;0.23;0.28;0.22;0.19;-309;-239
0.21;0.23;0.29;0.22;0.19;187;-114
0.21;0.22;0.28;0.22;0.19;210;-78
0.21;0.23;0.29;0.22;0.19;-313;-257
0.21;0.23;0.28;0.22;0.19;538;-2
0.21;0.23;0.28;0.19;0.19;-646;-358
0.21;0.23;0.29;0.22;0.19;623;-18

LOOP num #;119
0.22;0.22;0.27;0.22;0.19;-375;-258
0.21;0.22;0.29;0.22;0.19;394;-49
0.21;0.22;0.28;0.22;0.19;111;-168
0.20;0.23;0.29;0.22;0.19;-402;-226
0.21;0.23;0.29;0.22;0.19;725;-38
0.21;0.22;0.28;0.22;0.19;-626;-298
0.21;0.23;0.29;0.22;0.19;659;-74
0.21;0.22;0.27;0.22;0.19;-337;-199
0.20;0.22;0.29;0.22;0.18;317;-66
0.21;0.22;0.28;0.22;0.19;176;-136

LOOP num #;120
0.21;0.23;0.29;0.22;0.19;-310;-174
0.21;0.23;0.29;0.22;0.19;557;-68
0.21;0.23;0.28;0.22;0.19;-658;-301
0.21;0.22;0.29;0.22;0.18;580;-42
0.21;0.22;0.27;0.22;0.19;-139;-205
0.21;0.22;0.29;0.22;0.19;-169;-216
0.21;0.22;0.28;0.17;0.20;561;27
0.21;0.22;0.28;0.21;0.19;-686;-297
0.20;0.22;0.29;0.22;0.19;547;-93
0.21;0.22;0.27;0.21;0.19;-144;-183

LOOP num #;121
0.21;0.22;0.29;0.22;0.19;-77;-135
0.21;0.23;0.29;0.22;0.19;532;-47
0.21;0.22;0.28;0.21;0.19;-692;-265
0.21;0.23;0.28;0.22;0.19;574;-106
0.21;0.22;0.27;0.22;0.19;-185;-144
0.20;0.23;0.29;0.22;0.19;-248;-158
0.21;0.22;0.28;0.22;0.19;356;-112
0.21;0.22;0.28;0.22;0.19;-516;-235
0.21;0.22;0.29;0.22;0.19;692;-60
0.21;0.23;0.27;0.22;0.19;-116;166

LOOP num #;122
0.21;0.22;0.29;0.22;0.19;-284;-821
0.21;0.23;0.28;0.22;0.19;585;516
0.20;0.22;0.29;0.22;0.19;-287;-413
0.22;0.23;0.28;0.22;0.19;378;-92
0.20;0.22;0.29;0.22;0.19;-184;-74
0.21;0.22;0.29;0.22;0.19;-12;-494
0.21;0.22;0.28;0.22;0.19;247;423
0.20;0.22;0.29;0.22;0.19;-370;-974
0.21;0.22;0.28;0.22;0.19;499;645
0.20;0.22;0.28;0.22;0.19;-161;-712

LOOP num #;123
0.21;0.23;0.28;0.22;0.19;203;178
0.20;0.22;0.29;0.22;0.19;222;249
0.21;0.22;0.29;0.22;0.19;-374;-704
0.21;0.22;0.27;0.22;0.19;546;494
0.20;0.22;0.29;0.22;0.19;-105;-489
0.21;0.23;0.29;0.22;0.19;48;-181
0.20;0.22;0.29;0.22;0.19;309;283
0.21;0.22;0.29;0.22;0.19;-450;-876
0.21;0.22;0.28;0.22;0.19;593;731
0.21;0.22;0.28;0.22;0.19;-413;-922

LOOP num #;124
0.21;0.23;0.28;0.22;0.19;443;264
0.20;0.22;0.28;0.22;0.19;-55;-422
0.21;0.23;0.28;0.22;0.19;-503;-489
0.21;0.23;0.29;0.22;0.19;559;592
0.20;0.23;0.28;0.22;0.19;-427;-866
0.21;0.23;0.28;0.22;0.19;270;268
0.20;0.22;0.29;0.22;0.19;168;-73
0.21;0.22;0.28;0.22;0.19;-428;-729
0.21;0.23;0.28;0.22;0.19;600;616
0.20;0.23;0.28;0.22;0.19;-389;-808

LOOP num #;125
0.22;0.23;0.28;0.22;0.19;328;311
0.20;0.23;0.28;0.22;0.19;83;-178
0.21;0.23;0.28;0.22;0.18;-308;-580
0.21;0.22;0.29;0.22;0.19;556;517
0.21;0.22;0.28;0.22;0.19;-340;-693
0.22;0.23;0.28;0.22;0.19;417;397
0.21;0.22;0.29;0.22;0.19;-12;-285
0.21;0.23;0.28;0.22;0.19;-223;-532
0.21;0.22;0.28;0.22;0.19;427;378
0.21;0.22;0.28;0.22;0.19;-449;-828

LOOP num #;126
0.21;0.23;0.28;0.22;0.19;450;432
0.21;0.22;0.29;0.22;0.19;64;-192
0.21;0.23;0.28;0.22;0.19;-219;-764
0.21;0.23;0.28;0.22;0.19;311;217
0.20;0.23;0.28;0.22;0.19;-56;-345
0.21;0.23;0.28;0.22;0.19;199;54
0.21;0.23;0.28;0.22;0.19;89;-110
0.22;0.23;0.28;0.22;0.19;-102;-421
0.21;0.22;0.28;0.22;0.19;288;508
0.21;0.23;0.28;0.22;0.19;-683;-1159

LOOP num #;127
0.21;0.22;0.28;0.22;0.19;742;867
0.20;0.23;0.29;0.22;0.19;-592;-1109
0.22;0.22;0.28;0.22;0.20;620;608
0.20;0.22;0.29;0.22;0.19;-171;-495
0.21;0.23;0.27;0.22;0.19;-507;-354
0.20;0.23;0.29;0.23;0.19;379;346
0.21;0.23;0.29;0.22;0.19;148;-721
0.21;0.23;0.28;0.22;0.19;-115;451
0.20;0.22;0.29;0.22;0.19;238;-620
0.21;0.23;0.28;0.22;0.19;59;393

LOOP num #;128
0.20;0.22;0.29;0.22;0.19;147;-431
0.22;0.23;0.27;0.22;0.19;51;75
0.20;0.22;0.29;0.22;0.19;91;-82
0.22;0.23;0.27;0.22;0.19;5;-412
0.21;0.23;0.29;0.22;0.19;-28;506
0.22;0.23;0.28;0.22;0.19;152;-796
0.21;0.23;0.28;0.22;0.18;-210;407
0.21;0.22;0.29;0.22;0.19;228;-725
0.21;0.23;0.27;0.22;0.19;17;348
0.20;0.22;0.29;0.22;0.19;140;-265

LOOP num #;129
0.22;0.23;0.27;0.22;0.19;29;-236
0.20;0.23;0.29;0.23;0.19;-13;219
0.21;0.23;0.29;0.22;0.19;104;-848
0.21;0.23;0.28;0.22;0.19;-64;535
0.20;0.23;0.29;0.22;0.19;154;-682
0.21;0.23;0.27;0.22;0.19;86;197
0.20;0.22;0.29;0.22;0.19;96;-37
0.21;0.23;0.28;0.22;0.19;-65;-678
0.21;0.23;0.28;0.22;0.19;13;433
0.21;0.22;0.29;0.22;0.19;187;-779

LOOP num #;130
0.21;0.22;0.27;0.22;0.19;-17;451
0.20;0.23;0.29;0.22;0.19;153;-459
0.21;0.23;0.28;0.22;0.19;13;-293
0.21;0.23;0.28;0.22;0.19;46;310
0.21;0.22;0.28;0.22;0.19;-335;-826
0.21;0.23;0.28;0.22;0.19;521;360
0.21;0.22;0.29;0.22;0.19;305;25
0.20;0.23;0.29;0.22;0.19;-854;-897
0.21;0.22;0.29;0.22;0.19;1030;579
0.21;0.23;0.29;0.22;0.19;-140;-347

LOOP num #;131
0.21;0.23;0.29;0.22;0.19;-516;-543
0.21;0.23;0.29;0.22;0.19;836;528
0.21;0.22;0.29;0.22;0.19;-323;-509
0.21;0.23;0.29;0.22;0.19;14;-185
0.21;0.22;0.29;0.22;0.19;513;228
0.21;0.22;0.29;0.22;0.19;-707;-651
0.21;0.23;0.29;0.21;0.19;947;405
0.20;0.23;0.28;0.23;0.19;-39;-255
0.21;0.23;0.28;0.22;0.19;-819;-692
0.21;0.23;0.29;0.22;0.19;1027;640

LOOP num #;132
0.21;0.22;0.28;0.22;0.19;-397;-482
0.21;0.23;0.28;0.22;0.19;-366;-374
0.21;0.22;0.29;0.22;0.19;922;586
0.21;0.22;0.28;0.22;0.19;-515;-834
0.21;0.23;0.29;0.22;0.19;421;127
0.21;0.22;0.29;0.22;0.19;765;170
0.21;0.22;0.28;0.22;0.19;-993;-915
0.21;0.23;0.28;0.22;0.19;307;219
0.21;0.23;0.28;0.22;0.19;88;-335
0.21;0.23;0.28;0.22;0.19;-46;-391

LOOP num #;133
0.21;0.23;0.29;0.22;0.19;258;418
0.20;0.22;0.29;0.22;0.19;61;-677
0.21;0.23;0.28;0.22;0.20;26;234
0.21;0.23;0.29;0.22;0.19;68;-221
0.22;0.23;0.28;0.22;0.19;102;-346
0.21;0.23;0.28;0.22;0.19;-175;220
0.20;0.22;0.29;0.22;0.19;279;-660
0.21;0.23;0.27;0.22;0.19;-54;337
0.20;0.23;0.29;0.23;0.19;178;-294
0.22;0.23;0.28;0.22;0.19;92;-389

LOOP num #;134
0.20;0.22;0.28;0.23;0.19;-122;372
0.20;0.22;0.29;0.22;0.19;198;-784
0.22;0.23;0.27;0.22;0.19;44;287
0.20;0.22;0.29;0.22;0.19;82;-190
0.21;0.23;0.29;0.22;0.19;-39;-576
0.21;0.23;0.28;0.22;0.19;120;520
0.20;0.22;0.29;0.22;0.19;-70;-817
0.22;0.23;0.28;0.22;0.19;262;371
0.21;0.22;0.29;0.22;0.19;48;-183
0.21;0.22;0.28;0.22;0.19;-225;-518

LOOP num #;135
0.21;0.24;0.28;0.22;0.19;329;232
0.21;0.22;0.28;0.22;0.19;535;367
0.20;0.25;0.29;0.22;0.19;-409;-646
0.21;0.23;0.28;0.22;0.19;429;303
0.21;0.24;0.28;0.22;0.19;-217;-455
0.21;0.24;0.28;0.22;0.19;136;-40
0.21;0.22;0.28;0.22;0.19;117;-78
0.22;0.24;0.29;0.22;0.19;-268;-571
0.21;0.22;0.28;0.22;0.19;516;445
0.20;0.25;0.28;0.22;0.19;-394;-704

LOOP num #;136
0.21;0.23;0.28;0.22;0.19;509;402
0.21;0.22;0.29;0.22;0.19;-147;-373
0.21;0.25;0.28;0.22;0.19;-149;-421
0.21;0.23;0.28;0.22;0.19;516;432
0.21;0.25;0.28;0.22;0.19;-480;-810
0.22;0.24;0.28;0.22;0.19;536;477
0.21;0.22;0.29;0.22;0.19;-81;-329
0.21;0.25;0.29;0.22;0.19;-229;-522
0.21;0.23;0.29;0.22;0.19;468;417
0.21;0.25;0.28;0.22;0.19;-399;-749

LOOP num #;137
0.21;0.24;0.28;0.22;0.19;435;353
0.21;0.22;0.28;0.22;0.19;-47;-286
0.21;0.25;0.28;0.22;0.19;-173;-443
0.21;0.22;0.28;0.22;0.18;485;387
0.21;0.25;0.29;0.22;0.19;-413;-734
0.21;0.24;0.28;0.22;0.19;478;384
0.21;0.22;0.28;0.22;0.19;-68;-306
0.21;0.24;0.28;0.22;0.19;-248;-570
0.21;0.22;0.28;0.22;0.19;436;403
0.21;0.22;0.28;0.22;0.19;-379;-752

LOOP num #;138
0.23;0.23;0.28;0.22;0.19;200;52
0.21;0.22;0.28;0.22;0.19;250;257
0.22;0.23;0.28;0.22;0.18;-217;-710
0.21;0.23;0.27;0.22;0.19;468;545
0.22;0.22;0.29;0.22;0.19;-247;-648
0.22;0.23;0.27;0.21;0.19;203;178
0.21;0.22;0.29;0.22;0.19;43;-171
0.22;0.23;0.28;0.22;0.19;-195;-602
0.21;0.22;0.29;0.22;0.19;422;529
0.22;0.23;0.28;0.22;0.19;-300;-798

LOOP num #;139
0.22;0.23;0.28;0.22;0.19;413;532
0.21;0.22;0.28;0.22;0.19;-155;-547
0.22;0.23;0.28;0.22;0.19;-83;-332
0.20;0.23;0.29;0.22;0.19;346;370
0.21;0.22;0.28;0.22;0.19;-288;-822
0.21;0.23;0.28;0.22;0.19;186;96
0.21;0.22;0.28;0.22;0.19;170;66
0.20;0.23;0.28;0.22;0.19;-221;-560
0.21;0.23;0.28;0.22;0.19;254;246
0.21;0.23;0.28;0.22;0.19;77;-146

LOOP num #;140
0.21;0.23;0.28;0.22;0.19;-221;-588
0.21;0.23;0.28;0.22;0.19;444;459
0.20;0.23;0.29;0.22;0.19;-228;-620
0.21;0.23;0.28;0.22;0.19;110;12
0.21;0.23;0.28;0.22;0.19;427;333
0.21;0.23;0.28;0.22;0.19;-378;-758
0.21;0.23;0.28;0.22;0.19;443;493
0.20;0.23;0.29;0.22;0.19;-149;-525
0.21;0.23;0.28;0.22;0.19;-32;-490
0.21;0.23;0.28;0.22;0.19;313;275

LOOP num #;141
0.21;0.22;0.28;0.22;0.19;-366;-852
0.21;0.23;0.28;0.22;0.19;426;494
0.20;0.22;0.29;0.22;0.20;-109;-452
0.21;0.23;0.28;0.22;0.19;-70;-300
0.21;0.23;0.29;0.22;0.19;425;437
0.21;0.22;0.28;0.22;0.19;-450;-1021
0.21;0.23;0.28;0.22;0.19;456;545
0.20;0.22;0.29;0.22;0.19;48;-220
0.21;0.23;0.28;0.22;0.19;-331;-733
0.21;0.22;0.29;0.22;0.19;521;614

LOOP num #;142
0.20;0.22;0.29;0.22;0.19;-345;-837
0.21;0.23;0.28;0.22;0.19;165;125
0.20;0.23;0.28;0.22;0.19;308;269
0.21;0.22;0.29;0.22;0.19;-413;-997
0.21;0.23;0.28;0.22;0.19;588;699
0.21;0.23;0.29;0.22;0.19;-85;-433
0.21;0.23;0.28;0.21;0.19;-344;-662
0.21;0.23;0.28;0.22;0.19;562;724
0.20;0.23;0.29;0.22;0.19;-353;-893
0.21;0.23;0.28;0.22;0.19;232;194

LOOP num #;143
0.21;0.22;0.28;0.22;0.19;279;189
0.20;0.23;0.28;0.22;0.19;-365;-898
0.21;0.23;0.28;0.22;0.19;300;277
0.21;0.23;0.28;0.22;0.19;-27;-267
0.21;0.23;0.29;0.22;0.19;137;-70
0.21;0.23;0.28;0.22;0.19;145;-150
0.21;0.23;0.29;0.22;0.19;-73;-88
0.21;0.23;0.29;0.22;0.19;269;-174
0.21;0.23;0.29;0.22;0.19;-92;-107
0.20;0.23;0.29;0.22;0.19;185;-166

LOOP num #;144
0.20;0.23;0.29;0.22;0.19;6;-96
0.21;0.23;0.30;0.22;0.19;-37;-219
0.21;0.22;0.29;0.22;0.19;209;-112
0.21;0.23;0.30;0.22;0.20;-189;-212
0.21;0.23;0.30;0.22;0.21;471;-125
0.21;0.23;0.29;0.22;0.21;-368;-180
0.21;0.23;0.30;0.22;0.21;479;-53
0.21;0.23;0.29;0.22;0.20;-214;-144
0.21;0.23;0.29;0.22;0.20;302;-87
0.21;0.23;0.28;0.22;0.21;56;-120

LOOP num #;145
0.20;0.23;0.30;0.22;0.20;-79;-214
0.21;0.23;0.29;0.22;0.22;561;15
0.21;0.23;0.29;0.22;0.20;-957;-463
0.21;0.23;0.29;0.22;0.21;1176;61
0.21;0.23;0.28;0.22;0.20;-485;-196
0.20;0.23;0.30;0.22;0.20;459;-10
0.21;0.23;0.29;0.22;0.21;339;-24
0.20;0.23;0.29;0.22;0.21;-665;-372
0.21;0.23;0.29;0.21;0.21;750;-1
0.20;0.23;0.28;0.22;0.20;-716;-308

LOOP num #;146
0.20;0.23;0.30;0.22;0.20;673;7
0.21;0.23;0.28;0.22;0.21;-71;-170
0.21;0.23;0.30;0.22;0.21;-106;-207
0.21;0.23;0.29;0.22;0.22;464;-57
0.20;0.23;0.29;0.22;0.20;-805;-377
0.21;0.23;0.29;0.22;0.22;902;-56
0.21;0.23;0.28;0.22;0.20;-689;-188
0.21;0.23;0.30;0.22;0.20;782;18
0.21;0.23;0.27;0.22;0.21;-18;-73
0.21;0.23;0.30;0.22;0.20;-512;-252

LOOP num #;147
0.21;0.23;0.29;0.22;0.21;636;-131
0.21;0.23;0.28;0.22;0.20;-830;-344
0.21;0.23;0.29;0.22;0.20;725;-63
0.21;0.23;0.28;0.22;0.21;-282;-75
0.21;0.23;0.30;0.22;0.20;296;-100
0.21;0.23;0.29;0.22;0.21;197;-94
0.21;0.23;0.29;0.22;0.20;-475;-342
0.21;0.23;0.29;0.22;0.21;698;-138
0.21;0.23;0.28;0.22;0.20;-914;-292
0.20;0.23;0.29;0.22;0.21;520;-29

LOOP num #;148
0.21;0.23;0.28;0.23;0.20;-386;-163
0.21;0.23;0.30;0.22;0.21;569;-12
0.21;0.23;0.28;0.22;0.20;-45;-73
0.21;0.23;0.30;0.22;0.20;-18;-184
0.21;0.23;0.28;0.22;0.21;441;-71
0.20;0.23;0.29;0.22;0.20;-852;-405
0.21;0.23;0.29;0.22;0.19;990;40
0.21;0.23;0.29;0.22;0.18;-412;-203
0.21;0.23;0.29;0.22;0.20;254;-156
0.21;0.23;0.28;0.20;0.21;170;69

LOOP num #;149
0.20;0.23;0.30;0.22;0.19;-375;-364
0.21;0.23;0.29;0.22;0.21;480;-94
0.21;0.23;0.29;0.22;0.20;-745;-223
0.22;0.24;0.29;0.22;0.19;331;-323
0.20;0.22;0.30;0.22;0.21;383;436
0.21;0.24;0.29;0.22;0.19;-450;-1178
0.22;0.23;0.29;0.22;0.20;463;687
0.21;0.24;0.29;0.22;0.20;-29;-383
0.22;0.24;0.28;0.22;0.20;-97;-508
0.21;0.22;0.29;0.22;0.20;536;480

LOOP num #;150
0.23;0.25;0.29;0.22;0.19;-1019;-1353
0.21;0.23;0.29;0.22;0.20;926;1065
0.22;0.24;0.29;0.22;0.19;-451;-916
0.22;0.23;0.29;0.21;0.19;165;124
0.21;0.23;0.29;0.22;0.20;445;320
0.22;0.24;0.29;0.21;0.19;-753;-1342
0.22;0.23;0.29;0.22;0.20;974;1114
0.23;0.24;0.29;0.22;0.19;-335;-792
0.22;0.24;0.28;0.22;0.19;43;-10
0.20;0.22;0.29;0.22;0.20;470;378

LOOP num #;151
0.22;0.24;0.29;0.22;0.19;-709;-1277
0.21;0.23;0.29;0.22;0.19;808;980
0.22;0.24;0.29;0.22;0.19;-274;-708
0.22;0.23;0.28;0.22;0.19;-78;-201
0.21;0.23;0.30;0.22;0.19;467;372
0.22;0.24;0.28;0.22;0.19;-596;-1062
0.21;0.23;0.29;0.23;0.19;739;779
0.22;0.23;0.29;0.22;0.19;-336;-720
0.22;0.23;0.28;0.21;0.19;53;-27
0.21;0.22;0.29;0.23;0.19;373;510

LOOP num #;152
0.23;0.24;0.29;0.22;0.18;-559;-1042
0.21;0.23;0.29;0.22;0.18;835;862
0.24;0.25;0.28;0.22;0.18;-448;-870
0.22;0.24;0.28;0.22;0.19;447;511
0.22;0.24;0.29;0.22;0.19;-70;-361
0.22;0.24;0.28;0.22;0.19;-55;-211
0.21;0.22;0.29;0.22;0.19;328;264
0.23;0.25;0.28;0.22;0.18;-523;-1099
0.22;0.23;0.28;0.22;0.19;893;923
0.22;0.25;0.28;0.22;0.18;-402;-850

LOOP num #;153
0.22;0.24;0.28;0.22;0.19;162;109
0.21;0.23;0.29;0.22;0.19;271;157
0.23;0.24;0.28;0.22;0.19;-494;-928
0.22;0.23;0.28;0.22;0.19;846;857
0.22;0.25;0.28;0.22;0.19;-398;-807
0.22;0.24;0.28;0.22;0.18;171;83
0.21;0.22;0.29;0.22;0.19;290;238
0.23;0.24;0.28;0.22;0.18;-610;-1200
0.22;0.23;0.28;0.22;0.19;783;888
0.21;0.23;0.29;0.22;0.19;-228;-581

LOOP num #;154
0.22;0.24;0.29;0.21;0.19;-250;-513
0.22;0.23;0.29;0.22;0.19;714;781
0.23;0.25;0.28;0.22;0.18;-518;-975
0.22;0.24;0.28;0.21;0.19;401;450
0.22;0.23;0.29;0.22;0.19;130;-94
0.23;0.23;0.28;0.22;0.19;-565;-1030
0.21;0.25;0.28;0.22;0.19;826;933
0.22;0.23;0.29;0.22;0.21;-46;-626
0.22;0.25;0.27;0.22;0.20;-519;-89
0.21;0.23;0.29;0.22;0.19;261;-99

LOOP num #;155
0.22;0.23;0.28;0.22;0.20;506;-254
0.21;0.23;0.29;0.22;0.19;-670;-309
0.22;0.23;0.29;0.22;0.18;681;-276
0.22;0.23;0.28;0.22;0.20;-181;262
0.22;0.23;0.29;0.22;0.20;49;-455
0.23;0.23;0.27;0.22;0.20;-140;-152
0.21;0.23;0.30;0.22;0.20;361;270
0.22;0.23;0.29;0.22;0.20;-181;-1074
0.22;0.24;0.28;0.22;0.20;-166;680
0.22;0.23;0.29;0.22;0.20;675;25

LOOP num #;156
0.22;0.23;0.29;0.22;0.20;-8;-716
0.22;0.23;0.29;0.22;0.19;-169;3
0.22;0.23;0.30;0.22;0.21;600;-62
0.21;0.23;0.28;0.22;0.20;-507;-195
0.22;0.23;0.29;0.22;0.19;201;-347
0.22;0.23;0.28;0.22;0.20;794;695
0.21;0.23;0.29;0.22;0.19;-774;-628
0.22;0.23;0.30;0.22;0.19;440;-324
0.22;0.23;0.28;0.22;0.21;317;523
0.22;0.23;0.29;0.22;0.19;-549;-909

LOOP num #;157
0.22;0.24;0.29;0.22;0.21;817;670
0.22;0.23;0.29;0.22;0.20;-674;-633
0.22;0.24;0.29;0.22;0.20;472;-269
0.21;0.22;0.28;0.22;0.21;277;526
0.21;0.23;0.29;0.22;0.20;-550;-989
0.22;0.24;0.28;0.22;0.20;572;263
0.21;0.23;0.30;0.22;0.20;18;-99
0.22;0.24;0.29;0.22;0.20;-127;-793
0.22;0.23;0.28;0.22;0.20;212;612
0.21;0.23;0.29;0.22;0.19;-20;-495

LOOP num #;158
0.22;0.23;0.29;0.22;0.21;561;-45
0.21;0.23;0.29;0.22;0.20;-521;-147
0.22;0.23;0.29;0.22;0.20;585;-99
0.21;0.22;0.27;0.22;0.20;-187;-31
0.21;0.24;0.29;0.22;0.20;72;-185
0.21;0.23;0.28;0.22;0.20;358;-39
0.21;0.24;0.29;0.22;0.20;-497;-367
0.22;0.23;0.29;0.22;0.21;691;-45
0.22;0.23;0.28;0.22;0.20;-589;-214
0.22;0.23;0.29;0.22;0.20;657;-2

LOOP num #;159
0.21;0.23;0.27;0.22;0.20;51;-54
0.21;0.23;0.29;0.22;0.19;-310;-331
0.22;0.23;0.29;0.22;0.20;628;-12
0.21;0.24;0.28;0.22;0.19;-851;-422
0.21;0.24;0.28;0.22;0.20;658;-57
0.22;0.24;0.28;0.22;0.20;-19;-118
0.21;0.23;0.29;0.22;0.20;-317;-275
0.21;0.24;0.29;0.22;0.22;549;-62
0.21;0.24;0.29;0.22;0.20;-789;-351
0.21;0.23;0.29;0.22;0.20;740;-18

LOOP num #;160
0.22;0.23;0.28;0.22;0.20;-287;-116
0.21;0.24;0.29;0.22;0.20;231;-96
0.21;0.23;0.28;0.22;0.20;333;-90
0.21;0.23;0.29;0.22;0.20;-582;-366
0.21;0.23;0.29;0.22;0.21;637;-54
0.22;0.24;0.28;0.22;0.20;-501;-228
0.22;0.24;0.30;0.22;0.20;548;-52
0.22;0.23;0.28;0.22;0.20;79;-58
0.21;0.24;0.30;0.22;0.20;-241;-248
0.22;0.24;0.29;0.22;0.21;498;-140

LOOP num #;161
0.21;0.24;0.29;0.22;0.20;-722;-309
0.21;0.24;0.30;0.22;0.20;634;-106
0.21;0.23;0.28;0.22;0.21;-250;-73
0.21;0.24;0.30;0.22;0.20;111;-156
0.22;0.24;0.29;0.22;0.21;366;-100
0.20;0.24;0.29;0.22;0.20;-581;-273
0.21;0.24;0.29;0.22;0.21;605;-139
0.21;0.24;0.28;0.22;0.21;-386;-100
0.21;0.24;0.29;0.22;0.20;507;-60
0.21;0.23;0.28;0.22;0.21;114;-69

LOOP num #;162
0.21;0.24;0.30;0.22;0.20;-311;-292
0.22;0.24;0.29;0.22;0.21;766;-123
0.22;0.24;0.29;0.22;0.20;-508;-205
0.21;0.23;0.30;0.22;0.20;493;-114
0.21;0.23;0.28;0.22;0.20;-106;-56
0.20;0.22;0.28;0.22;0.19;117;-148
0.21;0.23;0.28;0.22;0.19;-22;-170
0.20;0.22;0.29;0.23;0.19;398;146
0.21;0.23;0.28;0.22;0.19;-425;-727
0.21;0.23;0.28;0.22;0.19;806;840

LOOP num #;163
0.21;0.22;0.29;0.22;0.19;-580;-1149
0.22;0.23;0.28;0.22;0.19;437;520
0.21;0.23;0.29;0.22;0.19;182;-71
0.21;0.23;0.28;0.22;0.19;-495;-905
0.21;0.23;0.28;0.22;0.19;700;785
0.20;0.23;0.28;0.22;0.19;-224;-686
0.21;0.23;0.29;0.22;0.19;-123;-305
0.21;0.23;0.28;0.22;0.19;352;282
0.20;0.23;0.28;0.22;0.19;-293;-626
0.21;0.23;0.28;0.22;0.19;164;67

LOOP num #;164
0.21;0.23;0.29;0.23;0.19;210;96
0.21;0.23;0.29;0.22;0.19;-371;-865
0.21;0.23;0.29;0.22;0.19;490;622
0.20;0.23;0.29;0.22;0.19;-197;-650
0.21;0.23;0.28;0.22;0.19;-38;-190
0.21;0.23;0.29;0.22;0.19;434;396
0.21;0.23;0.29;0.22;0.19;-328;-665
0.22;0.23;0.29;0.22;0.19;1;113
0.20;0.22;0.28;0.22;0.19;112;-63
0.22;0.23;0.28;0.22;0.19;-510;-563

LOOP num #;165
0.21;0.23;0.29;0.23;0.19;413;386
0.21;0.23;0.29;0.22;0.20;-353;-749
0.21;0.23;0.28;0.22;0.19;204;127
0.21;0.23;0.29;0.23;0.19;-39;-315
0.21;0.23;0.28;0.22;0.20;158;-8
0.21;0.23;0.29;0.23;0.19;259;184
0.22;0.23;0.29;0.22;0.19;-390;-799
0.21;0.22;0.29;0.22;0.19;856;986
0.21;0.22;0.29;0.22;0.19;-717;-1457
0.21;0.23;0.28;0.22;0.19;426;565

LOOP num #;166
0.20;0.23;0.28;0.22;0.19;23;-300
0.21;0.23;0.28;0.22;0.19;-148;-294
0.21;0.23;0.29;0.22;0.19;-62;-437
0.21;0.23;0.29;0.22;0.19;762;861
0.20;0.23;0.29;0.22;0.19;-211;-692
0.21;0.23;0.29;0.22;0.19;-322;-468
0.20;0.23;0.28;0.22;0.20;253;47
0.21;0.22;0.28;0.22;0.19;-102;-281
0.21;0.23;0.29;0.22;0.19;538;438
0.21;0.23;0.29;0.22;0.19;-350;-825

LOOP num #;167
0.22;0.23;0.28;0.22;0.19;357;364
0.20;0.23;0.29;0.22;0.19;242;75
0.21;0.23;0.29;0.22;0.19;-780;-1152
0.21;0.23;0.29;0.22;0.19;392;335
0.21;0.23;0.28;0.22;0.19;-233;-643
0.21;0.23;0.29;0.22;0.19;571;603
0.21;0.23;0.28;0.22;0.19;-146;-581
0.20;0.23;0.29;0.22;0.19;27;-100
0.21;0.23;0.29;0.22;0.19;16;-293
0.21;0.23;0.29;0.22;0.19;143;-7

LOOP num #;168
0.20;0.23;0.29;0.22;0.19;25;-151
0.21;0.23;0.29;0.23;0.19;405;325
0.21;0.23;0.29;0.22;0.19;-452;-1007
0.22;0.23;0.28;0.22;0.19;827;1011
0.21;0.23;0.29;0.22;0.19;-324;-859
0.21;0.23;0.28;0.22;0.19;149;107
0.21;0.23;0.29;0.22;0.19;394;260
0.20;0.23;0.29;0.22;0.19;-600;-1012
0.21;0.23;0.29;0.22;0.19;697;729
0.21;0.23;0.29;0.22;0.19;-695;-1178

LOOP num #;169
0.21;0.24;0.29;0.22;0.19;581;620
0.20;0.23;0.28;0.22;0.20;-40;-448
0.21;0.23;0.28;0.22;0.19;-156;-286
0.21;0.23;0.29;0.22;0.19;233;54
0.21;0.23;0.28;0.22;0.19;-190;-474
0.20;0.23;0.29;0.22;0.19;396;447
0.21;0.23;0.28;0.22;0.19;-346;-922
0.21;0.23;0.28;0.23;0.19;582;820
0.20;0.23;0.29;0.22;0.19;-410;-1020
0.22;0.24;0.28;0.22;0.19;151;47

LOOP num #;170
0.21;0.22;0.29;0.22;0.19;542;572
0.22;0.23;0.28;0.22;0.19;-672;-1200
0.22;0.23;0.28;0.22;0.19;913;998
0.22;0.23;0.29;0.22;0.18;-559;-1048
0.22;0.23;0.28;0.22;0.19;334;6
0.21;0.23;0.29;0.22;0.19;307;200
0.21;0.23;0.28;0.22;0.19;-663;-972
0.21;0.22;0.29;0.22;0.18;742;616
0.22;0.22;0.30;0.22;0.18;-212;-735
0.22;0.23;0.28;0.22;0.19;68;-205

LOOP num #;171
0.22;0.23;0.30;0.23;0.19;88;36
0.23;0.24;0.28;0.22;0.19;57;-432
0.22;0.23;0.30;0.22;0.19;164;387
0.22;0.23;0.29;0.22;0.19;-330;-1137
0.23;0.23;0.29;0.22;0.19;495;699
0.20;0.23;0.30;0.22;0.19;-313;-639
0.22;0.23;0.30;0.22;0.21;161;-228
0.22;0.24;0.28;0.22;0.20;-323;-48
0.22;0.23;0.30;0.22;0.20;602;-57
0.22;0.24;0.28;0.22;0.20;-150;-96

LOOP num #;172
0.22;0.23;0.30;0.22;0.19;268;-120
0.21;0.23;0.29;0.22;0.21;320;-91
0.21;0.23;0.30;0.22;0.20;-488;-235
0.21;0.23;0.29;0.22;0.21;662;-155
0.21;0.23;0.29;0.22;0.20;-896;-331
0.21;0.24;0.29;0.22;0.20;891;-61
0.21;0.23;0.28;0.22;0.20;-382;-75
0.21;0.23;0.30;0.22;0.19;466;-85
0.21;0.23;0.29;0.22;0.20;151;-21
0.22;0.23;0.30;0.22;0.19;-285;-269

LOOP num #;173
0.21;0.24;0.28;0.22;0.20;286;-79
0.21;0.23;0.30;0.22;0.20;-327;-261
0.21;0.24;0.28;0.22;0.21;474;-107
0.21;0.24;0.30;0.22;0.20;-659;-335
0.21;0.24;0.30;0.22;0.21;662;-87
0.22;0.23;0.29;0.22;0.19;-734;-288
0.21;0.23;0.29;0.22;0.21;870;-133
0.21;0.23;0.29;0.22;0.20;-500;-164
0.21;0.23;0.29;0.22;0.20;599;-42
0.21;0.23;0.28;0.22;0.19;-300;-121

LOOP num #;174
0.22;0.23;0.30;0.22;0.19;389;-135
0.21;0.23;0.27;0.22;0.19;120;25
0.21;0.23;0.29;0.22;0.19;-242;-254
0.21;0.23;0.29;0.22;0.20;490;-111
0.21;0.23;0.29;0.22;0.20;-807;-294
0.22;0.23;0.29;0.22;0.20;747;-114
0.21;0.23;0.28;0.22;0.20;-629;-196
0.22;0.24;0.29;0.22;0.18;665;-98
0.21;0.23;0.29;0.22;0.21;203;312
0.21;0.23;0.29;0.22;0.20;-306;-532

LOOP num #;175
0.22;0.23;0.29;0.22;0.19;-242;-483
0.20;0.22;0.30;0.22;0.20;626;625
0.22;0.24;0.29;0.22;0.19;-585;-1193
0.21;0.23;0.29;0.22;0.20;742;888
0.22;0.24;0.29;0.22;0.19;-342;-763
0.22;0.24;0.29;0.22;0.19;218;196
0.20;0.22;0.30;0.22;0.20;223;78
0.21;0.24;0.29;0.22;0.19;-615;-1178
0.22;0.23;0.29;0.22;0.20;1121;1019
0.21;0.23;0.29;0.22;0.20;-225;-471

LOOP num #;176
0.21;0.25;0.29;0.22;0.19;-719;-906
0.21;0.23;0.30;0.22;0.20;1449;1225
0.22;0.23;0.29;0.22;0.19;-548;-736
0.22;0.24;0.29;0.22;0.20;-102;-98
0.21;0.22;0.29;0.22;0.20;638;532
0.22;0.24;0.29;0.22;0.19;-789;-1432
0.22;0.24;0.29;0.22;0.20;795;981
0.21;0.24;0.29;0.22;0.20;-149;-459
0.22;0.24;0.29;0.22;0.19;-454;-789
0.21;0.23;0.29;0.22;0.21;853;985

LOOP num #;177
0.22;0.24;0.30;0.22;0.20;-579;-1111
0.22;0.23;0.29;0.22;0.20;301;325
0.20;0.22;0.30;0.23;0.20;391;321
0.22;0.24;0.29;0.22;0.19;-727;-1389
0.23;0.24;0.28;0.22;0.20;756;1002
0.21;0.24;0.30;0.22;0.20;-199;-491
0.22;0.23;0.29;0.22;0.21;214;-421
0.20;0.24;0.29;0.22;0.20;-733;-148
0.21;0.24;0.29;0.22;0.21;668;-146
0.20;0.24;0.28;0.22;0.20;-500;-136

LOOP num #;178
0.22;0.23;0.29;0.22;0.20;704;-66
0.20;0.24;0.28;0.22;0.20;-87;-41
0.21;0.23;0.30;0.22;0.20;-8;-210
0.21;0.24;0.28;0.22;0.21;321;-113
0.21;0.23;0.30;0.22;0.19;-762;-319
0.21;0.23;0.29;0.22;0.21;680;-83
0.21;0.23;0.29;0.22;0.19;-847;-325
0.22;0.23;0.30;0.22;0.20;664;-74
0.21;0.22;0.27;0.22;0.20;-156;-68
0.21;0.23;0.29;0.22;0.19;-81;-188

LOOP num #;179
0.21;0.23;0.28;0.22;0.22;639;-42
0.20;0.22;0.28;0.22;0.19;-857;-307
0.21;0.22;0.29;0.22;0.21;706;-94
0.21;0.23;0.27;0.22;0.20;-404;-119
0.20;0.22;0.29;0.22;0.20;367;-69
0.21;0.23;0.28;0.22;0.19;298;-73
0.21;0.23;0.29;0.22;0.19;-438;-212
0.21;0.22;0.28;0.22;0.20;628;-55
0.21;0.23;0.28;0.22;0.19;-764;-331
0.21;0.22;0.29;0.22;0.19;536;29

LOOP num #;180
0.21;0.22;0.28;0.22;0.20;-427;-211
0.21;0.22;0.29;0.22;0.19;301;-48
0.21;0.22;0.28;0.22;0.19;175;-76
0.21;0.23;0.29;0.22;0.20;-419;-331
0.21;0.23;0.29;0.22;0.20;639;-70
0.21;0.23;0.28;0.22;0.20;-857;-330
0.21;0.23;0.29;0.22;0.19;751;-56
0.21;0.23;0.27;0.22;0.20;-277;-84
0.21;0.23;0.29;0.22;0.19;44;-182
0.21;0.23;0.28;0.22;0.20;420;-89

LOOP num #;181
0.20;0.22;0.28;0.22;0.20;-725;-325
0.21;0.23;0.29;0.22;0.19;875;-92
0.21;0.22;0.27;0.22;0.19;-434;-127
0.21;0.23;0.29;0.22;0.20;416;-109
0.21;0.23;0.28;0.22;0.20;126;-33
0.21;0.23;0.29;0.22;0.20;-285;-259
0.21;0.23;0.29;0.22;0.20;545;-68
0.21;0.23;0.28;0.22;0.19;-899;-333
0.21;0.23;0.29;0.22;0.19;780;-95
0.21;0.22;0.28;0.22;0.20;-323;-169

LOOP num #;182
0.21;0.23;0.29;0.22;0.19;441;-83
0.21;0.22;0.28;0.22;0.20;44;-28
0.21;0.23;0.29;0.22;0.20;-261;-274
0.22;0.22;0.29;0.22;0.20;644;-34
0.21;0.23;0.28;0.22;0.19;-871;-396
0.21;0.23;0.29;0.22;0.20;811;-62
0.21;0.23;0.27;0.22;0.20;-273;-37
0.21;0.23;0.29;0.22;0.20;-90;-282
0.22;0.23;0.28;0.22;0.20;409;157
0.20;0.22;0.29;0.22;0.20;126;91

LOOP num #;183
0.21;0.23;0.29;0.22;0.19;-670;-1221
0.21;0.22;0.29;0.22;0.20;993;1175
0.21;0.23;0.29;0.22;0.19;-603;-1188
0.22;0.23;0.29;0.22;0.19;441;591
0.21;0.22;0.29;0.22;0.19;99;-177
0.22;0.23;0.29;0.22;0.20;-494;-903
0.21;0.22;0.28;0.22;0.20;831;897
0.22;0.24;0.29;0.22;0.19;-459;-901
0.22;0.23;0.29;0.22;0.20;132;136
0.20;0.23;0.29;0.23;0.21;446;383

LOOP num #;184
0.22;0.24;0.29;0.22;0.19;-799;-1458
0.21;0.23;0.29;0.22;0.20;1146;1315
0.22;0.24;0.29;0.22;0.19;-510;-1010
0.22;0.24;0.28;0.21;0.19;24;-62
0.21;0.23;0.29;0.22;0.20;530;760
0.22;0.24;0.28;0.22;0.19;-828;-1372
0.21;0.23;0.29;0.22;0.20;1029;1051
0.22;0.24;0.28;0.22;0.19;-555;-998
0.22;0.23;0.29;0.22;0.19;225;154
0.21;0.22;0.29;0.22;0.19;405;259

LOOP num #;185
0.22;0.23;0.28;0.22;0.19;-579;-1202
0.21;0.23;0.28;0.22;0.19;872;985
0.21;0.23;0.29;0.22;0.19;-400;-729
0.21;0.23;0.28;0.22;0.19;209;61
0.20;0.22;0.29;0.22;0.19;162;19
0.21;0.23;0.28;0.22;0.19;-311;-681
0.21;0.22;0.29;0.23;0.19;468;495
0.21;0.22;0.29;0.22;0.19;-101;-828
0.21;0.23;0.28;0.22;0.19;126;494
0.21;0.23;0.29;0.22;0.19;-143;-601

LOOP num #;186
0.21;0.23;0.28;0.22;0.19;387;168
0.21;0.22;0.29;0.22;0.19;-28;-176
0.21;0.23;0.28;0.22;0.19;-565;-797
0.21;0.23;0.29;0.22;0.19;825;804
0.20;0.22;0.29;0.22;0.19;-406;-986
0.22;0.23;0.28;0.22;0.19;308;361
0.20;0.23;0.29;0.22;0.20;76;-141
0.21;0.23;0.28;0.22;0.19;-516;-1024
0.21;0.23;0.29;0.23;0.19;574;516
0.21;0.22;0.28;0.22;0.19;-346;-1053

LOOP num #;187
0.22;0.23;0.28;0.22;0.20;464;601
0.20;0.23;0.29;0.23;0.19;114;-127
0.21;0.23;0.28;0.22;0.19;-505;-873
0.22;0.23;0.29;0.22;0.19;742;833
0.20;0.23;0.29;0.22;0.19;-365;-959
0.22;0.23;0.28;0.22;0.19;111;83
0.21;0.22;0.29;0.23;0.19;545;531
0.21;0.22;0.29;0.22;0.19;-692;-1303
0.21;0.23;0.28;0.22;0.19;672;966
0.20;0.23;0.29;0.22;0.19;-141;-679

LOOP num #;188
0.22;0.23;0.28;0.22;0.19;-202;-407
0.21;0.23;0.29;0.22;0.19;704;862
0.21;0.22;0.29;0.22;0.19;-560;-1355
0.22;0.23;0.28;0.22;0.19;345;587
0.20;0.22;0.29;0.23;0.19;164;-229
0.21;0.23;0.28;0.22;0.19;-514;-799
0.21;0.23;0.29;0.23;0.19;814;940
0.21;0.23;0.29;0.22;0.19;-257;-1105
0.22;0.23;0.28;0.22;0.19;161;134
0.21;0.22;0.29;0.23;0.19;595;571

LOOP num #;189
0.20;0.22;0.28;0.22;0.19;-692;-1219
0.21;0.22;0.28;0.23;0.19;352;301
0.23;0.22;0.30;0.22;0.19;64;-134
0.22;0.22;0.28;0.22;0.19;153;62
0.24;0.23;0.31;0.22;0.18;51;-230
0.22;0.23;0.30;0.22;0.19;208;142
0.24;0.23;0.31;0.22;0.18;-12;-305
0.22;0.23;0.30;0.22;0.19;250;255
0.24;0.23;0.31;0.22;0.19;18;-278
0.22;0.23;0.30;0.22;0.19;-67;-203

LOOP num #;190
0.22;0.23;0.30;0.23;0.19;211;44
0.22;0.24;0.29;0.22;0.19;-506;-892
0.22;0.22;0.31;0.23;0.19;527;617
0.22;0.23;0.28;0.22;0.19;-602;-1210
0.21;0.23;0.29;0.22;0.21;648;691
0.22;0.27;0.28;0.22;0.19;-650;-1072
0.21;0.23;0.28;0.22;0.21;993;1017
0.22;0.27;0.28;0.22;0.19;-604;-1031
0.21;0.23;0.29;0.22;0.22;512;863
0.20;0.23;0.28;0.22;0.19;-567;-933

LOOP num #;191
0.21;0.22;0.28;0.22;0.19;-3;-190
0.22;0.23;0.28;0.22;0.19;365;216
0.22;0.23;0.28;0.22;0.19;354;384
0.21;0.23;0.29;0.22;0.19;-168;-500
0.22;0.24;0.28;0.22;0.19;-40;-105
0.21;0.22;0.29;0.22;0.19;303;199
0.22;0.23;0.29;0.22;0.19;-763;-1059
0.21;0.23;0.28;0.22;0.19;1023;829
0.21;0.23;0.27;0.22;0.20;-480;-888
0.21;0.23;0.29;0.22;0.20;-324;-178

LOOP num #;192
0.21;0.24;0.28;0.22;0.21;1023;-71
0.21;0.24;0.29;0.22;0.20;-872;-423
0.21;0.23;0.29;0.22;0.22;880;-28
0.21;0.24;0.29;0.22;0.19;-1099;-384
0.21;0.23;0.28;0.22;0.21;1026;-63
0.20;0.23;0.28;0.22;0.20;-845;-345
0.21;0.23;0.29;0.22;0.21;856;-60
0.21;0.23;0.27;0.22;0.20;-422;-118
0.21;0.23;0.29;0.22;0.21;469;-94
0.21;0.23;0.27;0.22;0.21;158;10

LOOP num #;193
0.21;0.23;0.30;0.23;0.20;-755;-353
0.21;0.23;0.29;0.22;0.21;868;-14
0.21;0.23;0.28;0.22;0.20;-1075;-488
0.21;0.23;0.29;0.22;0.21;920;54
0.21;0.23;0.27;0.22;0.20;-272;-209
0.22;0.23;0.30;0.22;0.21;681;40
0.21;0.23;0.27;0.22;0.21;58;-108
0.21;0.23;0.30;0.23;0.19;-567;-371
0.21;0.23;0.29;0.22;0.22;983;87
0.21;0.23;0.29;0.22;0.19;-1247;-593

LOOP num #;194
0.21;0.23;0.29;0.22;0.21;1000;64
0.21;0.24;0.28;0.22;0.20;-607;-305
0.20;0.23;0.29;0.22;0.21;557;10
0.21;0.23;0.28;0.22;0.21;95;250
0.21;0.23;0.30;0.22;0.20;-381;-320
0.21;0.23;0.29;0.22;0.21;669;13
0.20;0.23;0.29;0.22;0.20;-992;-436
0.21;0.23;0.29;0.22;0.21;885;59
0.21;0.23;0.28;0.22;0.20;-494;-184
0.21;0.23;0.30;0.22;0.19;433;-76

LOOP num #;195
0.22;0.23;0.28;0.21;0.20;169;-20
0.21;0.24;0.30;0.22;0.20;-530;-374
0.21;0.23;0.29;0.22;0.21;666;-6
0.20;0.23;0.30;0.22;0.19;-862;-455
0.21;0.23;0.29;0.21;0.19;895;-6
0.21;0.23;0.28;0.22;0.19;-487;-161
0.21;0.23;0.30;0.22;0.19;479;-34
0.21;0.23;0.28;0.19;0.19;159;-21
0.21;0.23;0.28;0.22;0.19;-307;-273
0.21;0.22;0.29;0.22;0.19;316;132

LOOP num #;196
0.21;0.23;0.28;0.22;0.19;-423;-864
0.21;0.23;0.29;0.22;0.19;863;987
0.20;0.23;0.29;0.22;0.19;-632;-1261
0.22;0.23;0.28;0.22;0.19;549;604
0.20;0.23;0.28;0.22;0.19;-40;-319
0.22;0.23;0.28;0.22;0.19;-71;-508
0.21;0.23;0.29;0.23;0.19;456;603
0.21;0.23;0.29;0.22;0.19;-811;-1369
0.21;0.23;0.29;0.22;0.19;927;1043
0.21;0.23;0.29;0.22;0.19;-586;-1260

LOOP num #;197
0.22;0.23;0.28;0.22;0.19;579;801
0.20;0.23;0.29;0.22;0.19;-130;-479
0.22;0.23;0.29;0.22;0.19;-108;-389
0.21;0.23;0.29;0.22;0.19;34;-133
0.21;0.23;0.29;0.22;0.19;-335;-603
0.21;0.22;0.29;0.23;0.20;989;1059
0.20;0.22;0.29;0.22;0.19;-519;-1506
0.22;0.23;0.29;0.22;0.19;640;743
0.20;0.23;0.30;0.22;0.19;-59;-312
0.21;0.23;0.29;0.22;0.19;-96;-376

LOOP num #;198
0.20;0.23;0.29;0.23;0.19;139;137
0.21;0.23;0.28;0.22;0.19;-337;-732
0.21;0.23;0.29;0.22;0.19;414;517
0.20;0.23;0.29;0.22;0.19;-152;-611
0.21;0.23;0.28;0.22;0.19;220;167
0.21;0.23;0.29;0.22;0.19;64;-38
0.21;0.23;0.29;0.22;0.19;22;-271
0.21;0.23;0.29;0.22;0.19;31;-171
0.21;0.23;0.29;0.22;0.19;53;-125
0.21;0.23;0.29;0.22;0.19;83;-123

LOOP num #;199
0.21;0.23;0.29;0.22;0.19;25;-174
0.21;0.23;0.29;0.23;0.19;373;295
0.21;0.23;0.29;0.22;0.19;-799;-1309
0.21;0.23;0.29;0.22;0.19;1054;1414
0.20;0.23;0.29;0.22;0.19;-574;-1333
0.22;0.23;0.29;0.22;0.19;510;636
0.20;0.23;0.29;0.22;0.19;-254;-716
0.22;0.23;0.29;0.22;0.19;117;42
0.21;0.23;0.29;0.23;0.19;355;351
0.21;0.23;0.29;0.22;0.19;-560;-1033

LOOP num #;200
0.21;0.23;0.29;0.23;0.19;518;629
0.21;0.23;0.29;0.22;0.19;-377;-978
0.22;0.23;0.29;0.22;0.19;322;428
0.21;0.23;0.29;0.22;0.19;35;-332
0.21;0.23;0.29;0.22;0.19;-71;-259
0.20;0.23;0.29;0.23;0.19;263;341
0.22;0.23;0.29;0.22;0.20;-294;-1020
0.21;0.23;0.29;0.22;0.19;300;340
0.21;0.23;0.29;0.22;0.19;-622;-1064
0.21;0.23;0.28;0.23;0.19;1047;1331

