LOOP num #;0
0.22;0.23;0.42;0.20;0.26;62;-144
0.22;0.23;0.41;0.21;0.26;61;-146
0.22;0.23;0.42;0.21;0.26;56;-152
0.22;0.24;0.41;0.21;0.27;51;-147
0.22;0.23;0.42;0.21;0.26;62;-149
0.22;0.23;0.41;0.20;0.27;53;-145
0.22;0.23;0.41;0.21;0.27;58;-144
0.22;0.24;0.41;0.20;0.26;59;-147
0.22;0.23;0.42;0.21;0.26;50;-148
0.22;0.24;0.42;0.21;0.26;54;-149

LOOP num #;1
0.21;0.24;0.41;0.21;0.26;55;-141
0.22;0.23;0.42;0.21;0.26;59;-149
0.22;0.23;0.43;0.21;0.26;56;-153
0.22;0.24;0.42;0.20;0.27;53;-152
0.22;0.23;0.42;0.21;0.25;46;-157
0.22;0.23;0.41;0.20;0.26;60;-140
0.21;0.23;0.41;0.20;0.25;51;-151
0.22;0.23;0.41;0.21;0.25;57;-151
0.22;0.23;0.40;0.20;0.25;54;-149
0.21;0.23;0.38;0.21;0.23;54;-137

LOOP num #;2
0.21;0.23;0.34;0.21;0.22;63;-138
0.21;0.23;0.33;0.21;0.22;63;-154
0.21;0.22;0.33;0.20;0.22;57;-131
0.21;0.23;0.33;0.21;0.22;78;-148
0.20;0.23;0.31;0.21;0.21;37;-147
0.21;0.22;0.31;0.21;0.19;69;-132
0.21;0.23;0.30;0.21;0.18;105;-128
0.20;0.22;0.31;0.21;0.20;55;-133
0.21;0.22;0.31;0.21;0.20;57;-124
0.21;0.22;0.31;0.21;0.20;93;-143

LOOP num #;3
0.21;0.23;0.30;0.21;0.20;45;-145
0.21;0.23;0.30;0.21;0.19;67;-138
0.20;0.22;0.28;0.21;0.19;56;-149
0.21;0.22;0.28;0.21;0.19;69;-135
0.21;0.22;0.28;0.21;0.20;46;-148
0.21;0.22;0.28;0.21;0.19;51;-151
0.21;0.22;0.27;0.21;0.19;71;-138
0.21;0.22;0.28;0.21;0.19;54;-150
0.21;0.22;0.28;0.21;0.20;42;-150
0.21;0.23;0.28;0.21;0.24;63;-147

LOOP num #;4
0.21;0.22;0.28;0.21;0.19;52;-152
0.21;0.22;0.28;0.21;0.19;56;-138
0.21;0.22;0.28;0.21;0.21;62;-139
0.20;0.23;0.28;0.21;0.19;29;-152
0.21;0.22;0.28;0.21;0.19;87;-126
0.21;0.22;0.29;0.21;0.19;49;-179
0.20;0.22;0.30;0.21;0.21;46;-174
0.20;0.22;0.32;0.20;0.22;55;-140
0.20;0.22;0.35;0.21;0.23;67;-152
0.20;0.22;0.35;0.21;0.23;7;-155

LOOP num #;5
0.21;0.22;0.36;0.20;0.25;83;-150
0.20;0.22;0.36;0.21;0.24;36;-145
0.20;0.22;0.36;0.20;0.23;66;-143
0.20;0.22;0.36;0.21;0.25;50;-149
0.20;0.22;0.36;0.21;0.23;58;-141
0.20;0.22;0.36;0.21;0.23;58;-151
0.20;0.22;0.36;0.21;0.23;56;-141
0.20;0.22;0.36;0.21;0.23;64;-148
0.20;0.22;0.36;0.21;0.23;48;-147
0.20;0.22;0.36;0.21;0.23;61;-144

LOOP num #;6
0.20;0.23;0.36;0.20;0.23;56;-149
0.20;0.22;0.36;0.21;0.23;55;-146
0.20;0.22;0.35;0.21;0.23;59;-151
0.20;0.22;0.33;0.21;0.22;56;-143
0.20;0.23;0.32;0.21;0.21;65;-158
0.20;0.23;0.31;0.21;0.21;34;-157
0.20;0.23;0.30;0.20;0.19;72;-134
0.20;0.22;0.31;0.21;0.19;74;-130
0.21;0.22;0.32;0.21;0.19;74;-145
0.22;0.22;0.32;0.21;0.19;49;-136

LOOP num #;7
0.22;0.22;0.33;0.21;0.19;64;-154
0.22;0.23;0.33;0.21;0.19;41;-151
0.21;0.22;0.31;0.21;0.19;67;-149
0.21;0.22;0.30;0.21;0.19;43;-156
0.20;0.22;0.31;0.21;0.21;60;-135
0.21;0.22;0.29;0.21;0.21;86;-134
0.20;0.23;0.28;0.21;0.22;25;-130
0.20;0.23;0.28;0.21;0.21;97;-125
0.20;0.25;0.28;0.21;0.22;46;-154
0.20;0.25;0.28;0.20;0.22;62;-156

LOOP num #;8
0.21;0.25;0.28;0.20;0.22;49;-134
0.20;0.26;0.28;0.21;0.21;64;-142
0.21;0.26;0.28;0.21;0.22;54;-142
0.21;0.25;0.28;0.21;0.21;66;-138
0.20;0.26;0.28;0.21;0.22;56;-147
0.21;0.26;0.28;0.20;0.22;49;-150
0.21;0.27;0.28;0.21;0.22;56;-149
0.20;0.26;0.28;0.21;0.22;61;-138
0.20;0.26;0.28;0.21;0.22;54;-149
0.20;0.26;0.28;0.21;0.22;53;-149

LOOP num #;9
0.20;0.27;0.28;0.21;0.22;53;-147
0.21;0.26;0.28;0.21;0.22;63;-146
0.20;0.26;0.28;0.20;0.22;56;-150
0.20;0.26;0.28;0.21;0.22;56;-150
0.20;0.26;0.28;0.21;0.22;52;-148
0.20;0.26;0.28;0.21;0.21;59;-146
0.20;0.26;0.28;0.21;0.21;69;-137
0.20;0.27;0.27;0.22;0.21;58;-134
0.21;0.26;0.28;0.21;0.22;58;-145
0.20;0.27;0.28;0.21;0.22;51;-151

LOOP num #;10
0.21;0.27;0.28;0.21;0.22;51;-149
0.20;0.27;0.28;0.21;0.22;54;-150
0.20;0.27;0.28;0.21;0.22;60;-142
0.20;0.27;0.28;0.21;0.22;60;-123
0.21;0.27;0.28;0.21;0.22;61;-152
0.21;0.26;0.28;0.21;0.22;37;-156
0.21;0.27;0.27;0.21;0.21;85;-125
0.20;0.27;0.28;0.21;0.21;68;-152
0.21;0.27;0.28;0.21;0.22;41;-152
0.20;0.27;0.28;0.21;0.22;35;-166

LOOP num #;11
0.20;0.27;0.28;0.21;0.22;51;-155
0.20;0.27;0.28;0.21;0.22;55;-148
0.20;0.27;0.28;0.21;0.22;56;-146
0.20;0.26;0.28;0.21;0.20;58;-141
0.20;0.25;0.28;0.21;0.19;43;-160
0.21;0.25;0.28;0.21;0.18;99;-123
0.20;0.26;0.28;0.21;0.18;-4;-187
0.20;0.26;0.28;0.21;0.19;93;-131
0.21;0.27;0.28;0.21;0.19;9;-164
0.21;0.27;0.28;0.21;0.19;48;-152

LOOP num #;12
0.21;0.27;0.28;0.21;0.19;67;-138
0.21;0.27;0.28;0.21;0.20;51;-148
0.21;0.27;0.28;0.21;0.20;53;-147
0.21;0.26;0.28;0.21;0.20;52;-149
0.21;0.27;0.28;0.21;0.20;52;-148
0.21;0.27;0.28;0.21;0.20;53;-149
0.21;0.27;0.28;0.21;0.20;53;-151
0.21;0.26;0.28;0.22;0.20;53;-149
0.21;0.26;0.29;0.21;0.20;54;-149
0.21;0.26;0.28;0.21;0.20;53;-150

LOOP num #;13
0.21;0.26;0.28;0.21;0.20;58;-147
0.21;0.26;0.28;0.21;0.20;55;-149
0.21;0.26;0.28;0.22;0.20;55;-148
0.21;0.26;0.28;0.21;0.20;54;-146
0.21;0.26;0.28;0.21;0.20;54;-149
0.20;0.27;0.28;0.21;0.19;47;-142
0.21;0.26;0.28;0.21;0.20;63;-148
0.21;0.26;0.28;0.21;0.20;56;-147
0.21;0.26;0.28;0.21;0.20;47;-153
0.21;0.27;0.28;0.21;0.19;56;-144

LOOP num #;14
0.21;0.26;0.28;0.21;0.20;51;-149
0.21;0.26;0.28;0.21;0.19;62;-145
0.20;0.26;0.28;0.21;0.20;56;-143
0.21;0.27;0.28;0.21;0.20;51;-153
0.21;0.26;0.28;0.21;0.20;62;-146
0.20;0.26;0.28;0.21;0.20;51;-147
0.21;0.26;0.28;0.21;0.20;59;-145
0.21;0.26;0.29;0.22;0.20;57;-147
0.21;0.26;0.28;0.21;0.20;56;-149
0.21;0.26;0.28;0.21;0.20;49;-150

LOOP num #;15
0.21;0.26;0.28;0.21;0.20;56;-145
0.21;0.26;0.28;0.22;0.19;55;-152
0.21;0.26;0.28;0.21;0.20;56;-148
0.21;0.26;0.28;0.21;0.20;53;-149
0.21;0.25;0.29;0.21;0.20;58;-151
0.21;0.24;0.28;0.21;0.19;45;-147
0.21;0.22;0.28;0.21;0.19;58;-162
0.20;0.22;0.28;0.21;0.19;63;-142
0.21;0.22;0.28;0.21;0.19;48;-153
0.21;0.22;0.28;0.21;0.19;30;-162

LOOP num #;16
0.21;0.22;0.28;0.22;0.20;79;-128
0.21;0.22;0.28;0.22;0.19;45;-167
0.21;0.22;0.29;0.22;0.20;57;-147
0.21;0.22;0.29;0.21;0.20;54;-149
0.21;0.22;0.28;0.21;0.20;59;-144
0.21;0.22;0.28;0.21;0.20;55;-151
0.21;0.22;0.29;0.22;0.20;55;-148
0.21;0.22;0.29;0.22;0.20;49;-149
0.21;0.22;0.28;0.22;0.20;54;-149
0.21;0.22;0.29;0.21;0.20;54;-146

LOOP num #;17
0.21;0.22;0.29;0.22;0.20;58;-147
0.21;0.22;0.29;0.22;0.20;54;-147
0.21;0.22;0.29;0.21;0.20;52;-148
0.20;0.22;0.29;0.22;0.20;58;-147
0.20;0.22;0.29;0.22;0.20;54;-150
0.21;0.22;0.29;0.21;0.19;57;-151
0.21;0.22;0.28;0.22;0.19;53;-146
0.21;0.22;0.28;0.22;0.19;57;-149
0.21;0.22;0.29;0.21;0.20;59;-148
0.21;0.22;0.29;0.21;0.20;50;-147

LOOP num #;18
0.21;0.22;0.28;0.21;0.20;55;-149
0.21;0.22;0.29;0.21;0.20;60;-148
0.21;0.22;0.29;0.22;0.20;59;-145
0.20;0.22;0.29;0.22;0.19;57;-147
0.21;0.22;0.29;0.21;0.20;57;-146
0.21;0.22;0.28;0.21;0.19;55;-147
0.21;0.22;0.29;0.21;0.19;59;-146
0.21;0.22;0.29;0.21;0.19;58;-145
0.21;0.23;0.29;0.21;0.19;60;-146
0.20;0.22;0.28;0.21;0.19;61;-147

LOOP num #;19
0.21;0.22;0.28;0.21;0.18;47;-150
0.21;0.22;0.28;0.21;0.18;74;-142
0.21;0.22;0.28;0.21;0.19;47;-140
0.20;0.22;0.29;0.21;0.19;80;-134
0.21;0.22;0.28;0.21;0.19;46;-145
0.21;0.22;0.29;0.22;0.18;85;-128
0.21;0.22;0.28;0.22;0.19;33;-156
0.21;0.23;0.28;0.22;0.19;58;-148
0.21;0.22;0.28;0.22;0.19;58;-147
0.20;0.22;0.28;0.22;0.19;52;-146

LOOP num #;20
0.21;0.22;0.28;0.22;0.19;58;-145
0.21;0.22;0.28;0.22;0.19;57;-148
0.20;0.22;0.29;0.22;0.19;58;-146
0.20;0.22;0.28;0.22;0.19;51;-154
0.20;0.22;0.29;0.22;0.19;52;-150
0.21;0.22;0.28;0.22;0.19;58;-147
0.21;0.22;0.28;0.21;0.19;65;-142
0.21;0.22;0.28;0.22;0.19;53;-148
0.21;0.22;0.28;0.22;0.19;54;-149
0.20;0.23;0.28;0.22;0.19;56;-151

LOOP num #;21
0.21;0.23;0.28;0.22;0.19;52;-156
0.20;0.22;0.29;0.21;0.19;58;-147
0.20;0.22;0.29;0.22;0.19;57;-144
0.21;0.22;0.28;0.22;0.18;60;-146
0.21;0.22;0.28;0.22;0.19;56;-147
0.20;0.22;0.28;0.22;0.19;59;-143
0.21;0.22;0.28;0.22;0.19;54;-142
0.20;0.22;0.28;0.21;0.19;56;-148
0.21;0.22;0.29;0.21;0.19;59;-150
0.21;0.22;0.28;0.22;0.19;54;-144

LOOP num #;22
0.21;0.22;0.29;0.21;0.19;57;-144
0.21;0.22;0.28;0.22;0.19;54;-149
0.21;0.22;0.28;0.22;0.19;56;-148
0.21;0.22;0.28;0.21;0.19;56;-147
0.21;0.23;0.29;0.22;0.19;54;-147
0.21;0.22;0.28;0.22;0.19;56;-143
0.21;0.22;0.28;0.21;0.19;54;-145
0.21;0.22;0.28;0.21;0.19;55;-147
0.21;0.22;0.28;0.22;0.19;56;-149
0.20;0.22;0.28;0.22;0.19;49;-152

LOOP num #;23
0.21;0.22;0.28;0.21;0.19;59;-144
0.21;0.22;0.28;0.21;0.19;55;-153
0.21;0.22;0.28;0.22;0.19;56;-147
0.21;0.23;0.28;0.21;0.19;53;-143
0.21;0.22;0.28;0.21;0.19;51;-155
0.20;0.22;0.28;0.22;0.19;57;-141
0.20;0.22;0.28;0.22;0.19;67;-141
0.20;0.22;0.28;0.21;0.19;49;-149
0.21;0.22;0.28;0.21;0.19;63;-139
0.21;0.23;0.28;0.21;0.19;62;-143

LOOP num #;24
0.21;0.22;0.28;0.21;0.19;50;-148
0.21;0.22;0.28;0.21;0.19;60;-147
0.21;0.22;0.29;0.21;0.19;51;-146
0.21;0.22;0.28;0.22;0.19;53;-150
0.21;0.23;0.29;0.21;0.19;53;-148
0.21;0.22;0.28;0.21;0.19;56;-146
0.20;0.22;0.29;0.21;0.19;55;-141
0.21;0.22;0.28;0.20;0.18;40;-154
0.21;0.22;0.29;0.20;0.19;73;-127
0.20;0.22;0.28;0.20;0.19;52;-145

LOOP num #;25
0.20;0.23;0.29;0.20;0.19;58;-144
0.21;0.23;0.29;0.21;0.19;77;-127
0.21;0.23;0.29;0.21;0.19;50;-150
0.21;0.24;0.29;0.21;0.19;48;-149
0.21;0.24;0.29;0.21;0.19;57;-144
0.21;0.24;0.29;0.21;0.20;51;-141
0.21;0.24;0.28;0.21;0.19;52;-147
0.21;0.24;0.28;0.21;0.19;53;-149
0.21;0.24;0.29;0.21;0.20;56;-144
0.21;0.24;0.28;0.21;0.19;58;-144

LOOP num #;26
0.20;0.24;0.29;0.21;0.19;53;-145
0.21;0.24;0.28;0.20;0.19;57;-146
0.21;0.24;0.29;0.21;0.19;57;-144
0.21;0.24;0.29;0.21;0.19;56;-150
0.21;0.24;0.28;0.21;0.19;56;-144
0.21;0.24;0.29;0.20;0.19;57;-147
0.21;0.24;0.29;0.21;0.19;50;-150
0.20;0.24;0.29;0.21;0.19;48;-147
0.21;0.24;0.28;0.21;0.19;60;-143
0.21;0.24;0.28;0.21;0.19;57;-146

LOOP num #;27
0.21;0.24;0.28;0.21;0.19;54;-148
0.21;0.24;0.28;0.21;0.19;55;-144
0.21;0.24;0.29;0.21;0.19;55;-149
0.21;0.24;0.28;0.21;0.20;59;-146
0.21;0.24;0.28;0.21;0.19;57;-147
0.21;0.25;0.28;0.21;0.19;59;-147
0.20;0.24;0.28;0.20;0.19;49;-148
0.21;0.22;0.28;0.20;0.19;61;-146
0.21;0.23;0.28;0.20;0.19;57;-155
0.21;0.23;0.28;0.20;0.18;79;-135

LOOP num #;28
0.20;0.23;0.28;0.21;0.19;39;-154
0.20;0.24;0.28;0.20;0.22;42;-162
0.21;0.24;0.28;0.20;0.21;50;-148
0.20;0.24;0.28;0.20;0.21;61;-142
0.20;0.24;0.28;0.20;0.22;55;-143
0.21;0.24;0.29;0.20;0.22;65;-139
0.21;0.23;0.29;0.20;0.22;60;-141
0.20;0.24;0.29;0.20;0.21;51;-146
0.20;0.24;0.28;0.20;0.21;57;-147
0.20;0.24;0.29;0.21;0.21;57;-144

LOOP num #;29
0.20;0.24;0.28;0.20;0.22;57;-142
0.21;0.24;0.28;0.20;0.21;56;-146
0.20;0.24;0.29;0.20;0.22;51;-150
0.20;0.24;0.29;0.20;0.22;54;-147
0.20;0.24;0.29;0.20;0.22;57;-149
0.20;0.24;0.29;0.20;0.22;59;-146
0.20;0.24;0.29;0.21;0.22;57;-152
0.20;0.24;0.29;0.20;0.22;55;-147
0.20;0.24;0.29;0.20;0.22;50;-148
0.21;0.24;0.29;0.20;0.22;58;-148

LOOP num #;30
0.20;0.24;0.29;0.21;0.22;56;-149
0.20;0.24;0.28;0.21;0.22;55;-145
0.20;0.24;0.29;0.21;0.22;52;-147
0.21;0.24;0.29;0.21;0.22;55;-147
0.20;0.24;0.29;0.21;0.22;55;-146
0.20;0.24;0.29;0.20;0.22;53;-147
0.20;0.24;0.29;0.21;0.22;54;-148
0.20;0.24;0.29;0.21;0.22;46;-150
0.21;0.24;0.29;0.21;0.22;56;-148
0.21;0.25;0.29;0.20;0.22;59;-144

LOOP num #;31
0.20;0.24;0.29;0.21;0.22;58;-141
0.21;0.25;0.29;0.21;0.22;55;-143
0.21;0.24;0.29;0.21;0.22;57;-149
0.20;0.24;0.29;0.21;0.22;54;-147
0.20;0.25;0.29;0.21;0.22;57;-146
0.20;0.24;0.29;0.21;0.22;53;-146
0.20;0.25;0.29;0.21;0.22;57;-147
0.21;0.24;0.29;0.21;0.22;60;-144
0.20;0.25;0.29;0.20;0.22;51;-149
0.21;0.25;0.28;0.21;0.22;58;-146

LOOP num #;32
0.21;0.24;0.27;0.21;0.19;54;-145
0.20;0.22;0.28;0.21;0.19;52;-144
0.21;0.22;0.29;0.21;0.19;64;-160
0.21;0.22;0.28;0.21;0.19;33;-162
0.22;0.22;0.29;0.21;0.19;47;-149
0.22;0.22;0.30;0.21;0.18;67;-171
0.25;0.22;0.33;0.21;0.18;-254;-171
0.26;0.22;0.32;0.21;0.18;100;-161
0.26;0.22;0.32;0.21;0.19;51;-141
0.26;0.22;0.32;0.21;0.18;65;-145

LOOP num #;33
0.25;0.22;0.32;0.21;0.18;57;-146
0.25;0.22;0.33;0.21;0.18;53;-147
0.25;0.22;0.32;0.21;0.18;61;-157
0.26;0.22;0.32;0.21;0.18;51;-147
0.25;0.22;0.32;0.21;0.19;54;-145
0.26;0.22;0.32;0.22;0.18;57;-152
0.25;0.22;0.33;0.21;0.18;55;-143
0.25;0.22;0.32;0.21;0.18;55;-147
0.25;0.22;0.33;0.21;0.18;57;-143
0.25;0.22;0.32;0.21;0.18;51;-148

LOOP num #;34
0.25;0.22;0.32;0.21;0.19;59;-145
0.25;0.22;0.33;0.21;0.18;54;-148
0.25;0.22;0.33;0.21;0.18;60;-150
0.25;0.22;0.33;0.21;0.19;57;-144
0.25;0.22;0.33;0.21;0.18;57;-146
0.25;0.22;0.33;0.21;0.18;53;-147
0.25;0.22;0.33;0.21;0.18;59;-152
0.25;0.22;0.32;0.21;0.18;54;-147
0.25;0.22;0.33;0.21;0.18;56;-149
0.24;0.22;0.32;0.21;0.19;53;-148

LOOP num #;35
0.25;0.22;0.33;0.21;0.19;62;-154
0.22;0.22;0.30;0.21;0.19;52;-143
0.21;0.22;0.28;0.20;0.19;46;-112
0.21;0.22;0.28;0.20;0.19;59;-148
0.23;0.22;0.27;0.22;0.18;66;-133
0.26;0.22;0.28;0.24;0.18;83;-162
0.26;0.22;0.28;0.23;0.18;36;-155
0.25;0.22;0.27;0.23;0.18;68;-139
0.25;0.22;0.28;0.23;0.18;49;-145
0.25;0.22;0.28;0.23;0.18;63;-144

LOOP num #;36
0.26;0.22;0.28;0.23;0.18;53;-145
0.26;0.22;0.28;0.23;0.18;56;-144
0.26;0.22;0.28;0.23;0.18;53;-148
0.26;0.22;0.28;0.23;0.18;60;-148
0.26;0.22;0.27;0.23;0.18;56;-146
0.26;0.22;0.28;0.23;0.18;48;-150
0.26;0.22;0.28;0.23;0.18;59;-144
0.26;0.22;0.28;0.23;0.18;55;-147
0.26;0.22;0.28;0.23;0.18;57;-150
0.26;0.22;0.28;0.22;0.18;55;-145

LOOP num #;37
0.26;0.22;0.27;0.22;0.18;56;-147
0.27;0.22;0.28;0.23;0.18;53;-149
0.26;0.22;0.28;0.22;0.18;50;-149
0.27;0.22;0.28;0.23;0.17;57;-148
0.26;0.22;0.28;0.22;0.18;60;-143
0.26;0.22;0.28;0.22;0.18;58;-144
0.26;0.22;0.27;0.23;0.19;57;-146
0.26;0.22;0.28;0.22;0.18;56;-150
0.25;0.22;0.27;0.22;0.18;44;-136
0.26;0.22;0.28;0.22;0.18;64;-147

LOOP num #;38
0.26;0.22;0.27;0.22;0.18;54;-145
0.26;0.22;0.28;0.23;0.18;60;-148
0.26;0.22;0.28;0.22;0.18;55;-147
0.26;0.22;0.27;0.22;0.19;57;-148
0.25;0.22;0.28;0.22;0.18;52;-151
0.22;0.22;0.28;0.22;0.18;57;-144
0.20;0.22;0.28;0.21;0.18;38;-169
0.21;0.22;0.28;0.21;0.19;60;-165
0.20;0.23;0.28;0.22;0.18;58;-132
0.20;0.22;0.27;0.22;0.20;70;-137

LOOP num #;39
0.21;0.22;0.28;0.22;0.21;-2;-178
0.20;0.22;0.28;0.22;0.22;77;-139
0.21;0.22;0.28;0.22;0.22;50;-141
0.20;0.22;0.28;0.22;0.22;56;-159
0.21;0.22;0.28;0.22;0.22;54;-146
0.20;0.22;0.28;0.22;0.22;52;-150
0.20;0.22;0.27;0.22;0.22;54;-148
0.21;0.22;0.28;0.22;0.22;58;-147
0.20;0.23;0.28;0.22;0.22;52;-157
0.20;0.22;0.28;0.22;0.22;49;-149

LOOP num #;40
0.20;0.22;0.27;0.22;0.21;67;-142
0.20;0.23;0.28;0.22;0.22;53;-150
0.20;0.23;0.27;0.22;0.22;59;-147
0.20;0.22;0.27;0.21;0.22;52;-152
0.20;0.22;0.28;0.22;0.21;56;-139
0.20;0.22;0.28;0.22;0.22;50;-148
0.20;0.22;0.27;0.22;0.22;58;-151
0.20;0.22;0.28;0.22;0.22;51;-152
0.21;0.22;0.28;0.22;0.22;53;-156
0.20;0.22;0.27;0.22;0.22;55;-147

LOOP num #;41
0.20;0.22;0.28;0.22;0.21;57;-145
0.20;0.22;0.28;0.22;0.21;44;-150
0.20;0.22;0.28;0.22;0.20;65;-139
0.21;0.22;0.27;0.22;0.18;57;-135
0.20;0.22;0.27;0.21;0.18;87;-158
0.20;0.22;0.28;0.21;0.21;35;-155
0.21;0.22;0.28;0.22;0.22;-38;-218
0.21;0.22;0.28;0.22;0.21;59;-149
0.21;0.22;0.28;0.22;0.22;50;-155
0.20;0.22;0.28;0.22;0.22;40;-156

LOOP num #;42
0.20;0.22;0.28;0.22;0.22;62;-149
0.20;0.22;0.28;0.22;0.22;49;-150
0.20;0.23;0.28;0.22;0.21;67;-143
0.20;0.22;0.28;0.22;0.21;46;-150
0.20;0.22;0.28;0.22;0.22;61;-145
0.20;0.23;0.28;0.22;0.22;54;-150
0.20;0.22;0.28;0.22;0.22;52;-150
0.20;0.22;0.28;0.22;0.22;59;-146
0.20;0.23;0.28;0.22;0.22;56;-145
0.20;0.22;0.28;0.22;0.22;50;-148

LOOP num #;43
0.21;0.23;0.28;0.22;0.22;59;-152
0.21;0.22;0.28;0.22;0.21;54;-152
0.20;0.22;0.28;0.22;0.22;58;-148
0.20;0.22;0.28;0.22;0.22;57;-150
0.21;0.22;0.28;0.22;0.21;54;-145
0.20;0.22;0.28;0.21;0.21;53;-148
0.21;0.22;0.29;0.20;0.22;50;-138
0.21;0.22;0.28;0.20;0.22;37;-139
0.20;0.22;0.28;0.22;0.22;16;-235
0.20;0.22;0.29;0.23;0.22;18;-117

LOOP num #;44
0.21;0.22;0.28;0.22;0.22;62;-147
0.21;0.22;0.28;0.22;0.22;37;-165
0.20;0.22;0.28;0.21;0.22;56;-142
0.21;0.23;0.29;0.22;0.22;78;-142
0.21;0.22;0.28;0.22;0.22;42;-151
0.20;0.22;0.28;0.22;0.21;69;-145
0.20;0.22;0.29;0.21;0.21;55;-146
0.21;0.22;0.28;0.22;0.22;58;-151
0.20;0.22;0.28;0.21;0.21;61;-138
0.21;0.22;0.28;0.21;0.21;70;-143

LOOP num #;45
0.20;0.22;0.28;0.21;0.21;57;-156
0.21;0.22;0.28;0.21;0.21;49;-136
0.21;0.22;0.29;0.22;0.21;66;-144
0.20;0.22;0.28;0.21;0.22;58;-145
0.21;0.22;0.28;0.21;0.21;54;-140
0.20;0.22;0.28;0.22;0.21;59;-160
0.21;0.22;0.28;0.20;0.21;19;-156
0.21;0.23;0.28;0.21;0.22;66;-135
0.21;0.22;0.28;0.21;0.22;58;-160
0.21;0.22;0.29;0.21;0.21;41;-153

LOOP num #;46
0.21;0.22;0.28;0.21;0.22;63;-136
0.21;0.22;0.28;0.21;0.21;58;-145
0.20;0.22;0.28;0.21;0.22;55;-147
0.21;0.22;0.28;0.21;0.21;53;-154
0.21;0.22;0.29;0.21;0.22;59;-146
0.21;0.23;0.28;0.21;0.22;54;-142
0.21;0.22;0.28;0.22;0.22;51;-152
0.21;0.22;0.28;0.21;0.22;59;-149
0.20;0.22;0.28;0.21;0.22;52;-143
0.21;0.22;0.28;0.21;0.20;58;-140

LOOP num #;47
0.21;0.22;0.28;0.21;0.18;45;-161
0.21;0.22;0.28;0.21;0.19;171;-66
0.21;0.22;0.28;0.21;0.18;53;-145
0.20;0.22;0.28;0.21;0.19;22;-157
0.21;0.22;0.29;0.22;0.20;48;-160
0.21;0.22;0.28;0.22;0.20;35;-169
0.21;0.22;0.28;0.22;0.20;53;-150
0.21;0.22;0.29;0.22;0.20;62;-144
0.21;0.22;0.28;0.21;0.20;54;-151
0.21;0.22;0.29;0.21;0.20;59;-148

LOOP num #;48
0.21;0.22;0.28;0.21;0.21;57;-148
0.21;0.22;0.28;0.21;0.21;56;-147
0.21;0.23;0.28;0.21;0.21;57;-147
0.21;0.22;0.28;0.22;0.20;57;-149
0.21;0.22;0.28;0.21;0.19;63;-145
0.20;0.22;0.28;0.20;0.19;37;-146
0.20;0.22;0.28;0.20;0.19;87;-131
0.20;0.22;0.28;0.21;0.20;16;-157
0.21;0.22;0.28;0.20;0.20;68;-159
0.20;0.22;0.29;0.20;0.20;72;-164

LOOP num #;49
0.20;0.22;0.34;0.20;0.22;54;-153
0.20;0.23;0.34;0.20;0.22;83;-124
0.20;0.22;0.33;0.20;0.22;59;-143
0.21;0.23;0.33;0.20;0.22;56;-144
0.21;0.22;0.33;0.20;0.22;59;-145
0.20;0.22;0.33;0.20;0.22;62;-144
0.21;0.23;0.33;0.20;0.22;52;-149
0.21;0.22;0.33;0.21;0.22;43;-150
0.21;0.22;0.33;0.20;0.22;60;-153
0.20;0.22;0.33;0.20;0.22;57;-144

LOOP num #;50
0.20;0.22;0.33;0.20;0.22;55;-148
0.21;0.23;0.33;0.20;0.22;57;-150
0.21;0.22;0.33;0.20;0.22;55;-142
0.21;0.22;0.33;0.20;0.22;61;-146
0.20;0.22;0.33;0.20;0.22;58;-145
0.21;0.22;0.33;0.20;0.22;52;-145
0.21;0.22;0.33;0.20;0.22;58;-147
0.21;0.23;0.33;0.21;0.22;56;-149
0.21;0.22;0.33;0.21;0.22;55;-149
0.21;0.22;0.33;0.20;0.22;52;-148

LOOP num #;51
0.20;0.22;0.33;0.20;0.22;58;-147
0.20;0.22;0.33;0.20;0.22;56;-147
0.21;0.22;0.33;0.20;0.22;60;-146
0.21;0.22;0.34;0.20;0.22;56;-147
0.21;0.22;0.33;0.20;0.22;55;-147
0.21;0.22;0.33;0.20;0.22;58;-148
0.21;0.22;0.33;0.21;0.22;56;-146
0.21;0.22;0.34;0.20;0.22;58;-146
0.20;0.22;0.33;0.21;0.22;56;-145
0.20;0.22;0.33;0.20;0.22;55;-145

LOOP num #;52
0.21;0.22;0.33;0.20;0.22;52;-151
0.21;0.23;0.33;0.21;0.22;59;-147
0.21;0.22;0.33;0.20;0.22;56;-144
0.21;0.22;0.33;0.20;0.23;61;-140
0.21;0.23;0.33;0.20;0.22;58;-142
0.21;0.22;0.33;0.20;0.22;58;-148
0.21;0.22;0.33;0.21;0.22;53;-145
0.21;0.22;0.33;0.20;0.23;56;-146
0.21;0.22;0.33;0.21;0.22;56;-142
0.21;0.22;0.33;0.20;0.23;58;-148

LOOP num #;53
0.20;0.22;0.33;0.21;0.22;54;-145
0.21;0.22;0.33;0.20;0.22;59;-146
0.21;0.22;0.33;0.21;0.22;59;-146
0.21;0.22;0.33;0.20;0.22;61;-135
0.21;0.22;0.32;0.21;0.22;55;-158
0.20;0.22;0.28;0.20;0.19;56;-135
0.21;0.22;0.28;0.20;0.18;105;-127
0.21;0.22;0.28;0.20;0.18;58;-154
0.22;0.22;0.28;0.21;0.18;63;-145
0.25;0.22;0.29;0.22;0.18;37;-156

LOOP num #;54
0.26;0.22;0.29;0.22;0.19;86;-157
0.27;0.23;0.29;0.22;0.18;57;-159
0.27;0.22;0.30;0.22;0.19;49;-149
0.27;0.22;0.30;0.22;0.19;60;-148
0.27;0.22;0.29;0.22;0.19;47;-152
0.26;0.22;0.30;0.22;0.19;56;-156
0.27;0.22;0.30;0.22;0.18;42;-154
0.27;0.22;0.29;0.21;0.19;58;-150
0.27;0.22;0.30;0.22;0.18;54;-145
0.27;0.22;0.30;0.22;0.19;54;-148

LOOP num #;55
0.27;0.22;0.30;0.21;0.18;55;-149
0.27;0.22;0.30;0.22;0.19;55;-145
0.26;0.22;0.30;0.21;0.18;55;-147
0.26;0.22;0.29;0.21;0.19;63;-140
0.25;0.22;0.29;0.20;0.19;37;-154
0.26;0.22;0.29;0.21;0.19;56;-151
0.26;0.22;0.29;0.21;0.18;42;-154
0.27;0.22;0.30;0.21;0.19;66;-141
0.26;0.22;0.30;0.21;0.19;51;-151
0.26;0.22;0.29;0.22;0.19;57;-149

LOOP num #;56
0.26;0.22;0.30;0.21;0.19;52;-147
0.26;0.22;0.29;0.22;0.18;56;-148
0.26;0.22;0.30;0.21;0.18;53;-147
0.26;0.22;0.30;0.22;0.19;61;-146
0.26;0.22;0.30;0.21;0.18;56;-152
0.26;0.22;0.30;0.21;0.19;55;-148
0.26;0.22;0.30;0.22;0.19;59;-146
0.26;0.22;0.30;0.21;0.18;52;-148
0.26;0.22;0.30;0.21;0.19;57;-143
0.26;0.22;0.29;0.21;0.19;55;-146

LOOP num #;57
0.27;0.22;0.29;0.21;0.19;56;-143
0.26;0.22;0.30;0.21;0.19;59;-151
0.22;0.22;0.29;0.20;0.19;53;-142
0.20;0.22;0.28;0.20;0.19;100;-94
0.20;0.22;0.28;0.20;0.19;74;-149
0.20;0.22;0.28;0.19;0.19;34;-164
0.21;0.23;0.29;0.20;0.21;51;-157
0.20;0.23;0.30;0.19;0.22;66;-102
0.20;0.23;0.30;0.20;0.22;46;-157
0.20;0.24;0.30;0.20;0.23;49;-153

LOOP num #;58
0.20;0.24;0.31;0.20;0.22;54;-143
0.20;0.24;0.31;0.20;0.22;66;-144
0.20;0.23;0.31;0.19;0.23;49;-146
0.20;0.24;0.31;0.20;0.23;57;-148
0.21;0.24;0.30;0.20;0.23;53;-144
0.20;0.24;0.31;0.20;0.22;57;-149
0.20;0.24;0.31;0.19;0.23;53;-147
0.20;0.23;0.31;0.20;0.23;56;-147
0.21;0.24;0.31;0.20;0.23;54;-148
0.20;0.23;0.31;0.20;0.23;52;-148

LOOP num #;59
0.20;0.24;0.31;0.20;0.23;53;-152
0.20;0.24;0.31;0.20;0.23;54;-150
0.19;0.24;0.31;0.20;0.23;53;-150
0.20;0.23;0.31;0.20;0.22;60;-143
0.20;0.23;0.31;0.20;0.22;54;-144
0.21;0.23;0.31;0.20;0.22;54;-148
0.20;0.22;0.30;0.20;0.21;52;-148
0.20;0.23;0.28;0.20;0.20;30;-160
0.20;0.22;0.28;0.20;0.19;92;-148
0.20;0.22;0.29;0.20;0.20;42;-141

LOOP num #;60
0.20;0.23;0.29;0.20;0.21;46;-182
0.20;0.23;0.30;0.20;0.22;57;-135
0.21;0.23;0.31;0.20;0.22;36;-160
0.21;0.23;0.31;0.20;0.22;54;-157
0.21;0.23;0.31;0.21;0.22;70;-144
0.20;0.23;0.31;0.20;0.22;48;-155
0.21;0.23;0.31;0.20;0.22;52;-146
0.21;0.23;0.30;0.20;0.22;53;-149
0.20;0.23;0.31;0.20;0.22;50;-156
0.21;0.23;0.31;0.20;0.22;57;-144

LOOP num #;61
0.21;0.23;0.32;0.21;0.22;56;-147
0.20;0.23;0.31;0.20;0.22;56;-150
0.20;0.23;0.31;0.21;0.22;51;-150
0.21;0.23;0.31;0.20;0.22;57;-147
0.20;0.23;0.31;0.20;0.22;54;-151
0.21;0.23;0.32;0.21;0.22;57;-149
0.21;0.23;0.31;0.21;0.22;53;-149
0.20;0.23;0.31;0.20;0.22;53;-145
0.20;0.23;0.31;0.21;0.22;53;-152
0.21;0.23;0.31;0.21;0.22;54;-147

LOOP num #;62
0.20;0.23;0.31;0.20;0.22;53;-148
0.20;0.23;0.31;0.21;0.22;55;-150
0.20;0.23;0.31;0.20;0.22;63;-144
0.20;0.23;0.31;0.21;0.22;57;-145
0.20;0.23;0.31;0.21;0.22;55;-149
0.21;0.24;0.31;0.20;0.22;53;-147
0.20;0.23;0.31;0.21;0.22;52;-145
0.20;0.23;0.31;0.20;0.22;56;-146
0.20;0.23;0.31;0.21;0.22;50;-150
0.20;0.22;0.30;0.21;0.21;56;-150

LOOP num #;63
0.20;0.22;0.27;0.21;0.19;42;-149
0.21;0.22;0.28;0.21;0.18;99;-144
0.20;0.22;0.29;0.21;0.19;33;-150
0.22;0.22;0.33;0.20;0.19;32;-202
0.22;0.22;0.32;0.20;0.20;57;-151
0.22;0.22;0.33;0.21;0.20;52;-141
0.22;0.22;0.33;0.20;0.20;60;-154
0.22;0.22;0.33;0.21;0.20;57;-143
0.22;0.22;0.33;0.21;0.20;54;-149
0.21;0.22;0.34;0.20;0.21;51;-149

LOOP num #;64
0.22;0.22;0.33;0.21;0.21;55;-146
0.22;0.22;0.34;0.20;0.21;53;-150
0.22;0.22;0.33;0.20;0.21;57;-146
0.22;0.22;0.33;0.21;0.20;54;-149
0.22;0.22;0.33;0.20;0.21;50;-149
0.22;0.22;0.33;0.21;0.21;59;-147
0.22;0.22;0.33;0.21;0.21;54;-149
0.22;0.22;0.33;0.21;0.21;61;-142
0.23;0.22;0.33;0.21;0.21;53;-154
0.22;0.22;0.33;0.20;0.21;55;-145

LOOP num #;65
0.22;0.22;0.33;0.21;0.21;55;-146
0.22;0.22;0.33;0.21;0.20;56;-147
0.22;0.22;0.33;0.21;0.21;59;-145
0.22;0.22;0.33;0.20;0.21;57;-148
0.22;0.22;0.33;0.20;0.21;60;-147
0.22;0.22;0.33;0.20;0.20;56;-145
0.22;0.22;0.33;0.21;0.20;55;-151
0.22;0.22;0.32;0.21;0.20;56;-147
0.21;0.22;0.29;0.21;0.19;62;-138
0.21;0.22;0.28;0.21;0.18;42;-103

LOOP num #;66
0.21;0.22;0.29;0.21;0.18;111;-124
0.20;0.22;0.30;0.21;0.19;8;-163
0.21;0.22;0.32;0.20;0.19;101;-158
0.21;0.22;0.30;0.21;0.20;38;-152
0.21;0.23;0.28;0.21;0.19;32;-141
0.21;0.22;0.28;0.21;0.20;42;-161
0.21;0.22;0.28;0.21;0.20;51;-134
0.21;0.22;0.28;0.21;0.20;77;-118
0.21;0.24;0.28;0.21;0.20;55;-148
0.21;0.26;0.28;0.21;0.20;92;-116

LOOP num #;67
0.21;0.26;0.28;0.21;0.20;93;-116
0.21;0.27;0.28;0.21;0.20;183;-19
0.21;0.23;0.28;0.20;0.20;-38;-232
0.21;0.26;0.28;0.21;0.20;16;-152
0.21;0.26;0.28;0.21;0.21;92;-136
0.21;0.25;0.28;0.21;0.20;17;-158
0.21;0.26;0.28;0.21;0.21;21;-149
0.21;0.26;0.28;0.21;0.21;18;-183
0.21;0.27;0.28;0.21;0.20;98;-139
0.21;0.26;0.28;0.21;0.20;78;-150

LOOP num #;68
0.21;0.26;0.28;0.21;0.20;35;-160
0.21;0.26;0.28;0.21;0.21;67;-136
0.21;0.26;0.28;0.21;0.21;53;-158
0.21;0.26;0.28;0.22;0.21;55;-144
0.21;0.26;0.28;0.21;0.20;56;-149
0.21;0.26;0.28;0.22;0.20;48;-156
0.21;0.26;0.28;0.21;0.21;57;-142
0.21;0.26;0.29;0.21;0.20;53;-147
0.21;0.26;0.28;0.21;0.21;49;-148
0.21;0.26;0.29;0.21;0.21;60;-148

LOOP num #;69
0.21;0.26;0.28;0.21;0.20;43;-145
0.21;0.27;0.27;0.21;0.20;41;-146
0.21;0.26;0.28;0.22;0.19;63;-143
0.21;0.25;0.28;0.21;0.18;55;-143
0.21;0.24;0.28;0.20;0.19;166;-58
0.21;0.26;0.28;0.21;0.19;87;-117
0.21;0.27;0.28;0.21;0.19;72;-152
0.21;0.27;0.28;0.22;0.20;63;-156
0.21;0.28;0.28;0.22;0.19;58;-141
0.21;0.27;0.28;0.21;0.19;40;-161

LOOP num #;70
0.21;0.27;0.28;0.21;0.19;53;-154
0.21;0.27;0.28;0.21;0.20;57;-142
0.21;0.27;0.28;0.22;0.19;53;-149
0.21;0.27;0.28;0.21;0.20;57;-148
0.20;0.27;0.28;0.21;0.19;56;-147
0.21;0.27;0.28;0.21;0.19;49;-148
0.20;0.27;0.28;0.22;0.19;50;-157
0.21;0.22;0.28;0.22;0.20;58;-144
0.21;0.22;0.28;0.21;0.19;-33;-237
0.21;0.22;0.29;0.21;0.19;80;-145

LOOP num #;71
0.21;0.23;0.29;0.22;0.19;59;-152
0.21;0.22;0.29;0.22;0.19;66;-152
0.21;0.23;0.29;0.22;0.19;92;-129
0.21;0.23;0.29;0.21;0.19;67;-156
0.21;0.23;0.29;0.22;0.19;32;-170
0.21;0.23;0.29;0.22;0.20;66;-130
0.21;0.22;0.29;0.21;0.20;39;-149
0.21;0.23;0.29;0.21;0.19;52;-149
0.21;0.23;0.29;0.22;0.19;51;-151
0.21;0.23;0.29;0.22;0.19;47;-148

LOOP num #;72
0.21;0.23;0.29;0.22;0.20;57;-143
0.21;0.23;0.29;0.21;0.20;59;-150
0.21;0.23;0.28;0.21;0.20;60;-147
0.21;0.23;0.29;0.21;0.20;56;-147
0.21;0.22;0.29;0.21;0.19;53;-151
0.21;0.23;0.29;0.21;0.19;54;-151
0.21;0.22;0.29;0.22;0.19;60;-144
0.21;0.23;0.29;0.21;0.19;57;-146
0.21;0.22;0.29;0.21;0.19;61;-147
0.21;0.23;0.29;0.21;0.20;52;-150

LOOP num #;73
0.21;0.23;0.29;0.21;0.19;58;-148
0.21;0.23;0.29;0.21;0.19;54;-143
0.21;0.23;0.28;0.22;0.19;53;-121
0.21;0.23;0.29;0.21;0.19;20;-184
0.21;0.22;0.29;0.21;0.19;57;-130
0.22;0.22;0.28;0.22;0.19;47;-170
0.24;0.23;0.28;0.22;0.19;66;-122
0.24;0.22;0.29;0.22;0.19;47;-144
0.25;0.23;0.28;0.22;0.19;56;-162
0.24;0.23;0.29;0.21;0.19;57;-143

LOOP num #;74
0.24;0.23;0.28;0.22;0.19;55;-151
0.24;0.23;0.28;0.21;0.19;50;-149
0.23;0.23;0.29;0.22;0.19;60;-150
0.23;0.23;0.29;0.21;0.19;59;-151
0.24;0.22;0.29;0.21;0.19;56;-152
0.24;0.23;0.29;0.22;0.19;57;-148
0.23;0.23;0.28;0.21;0.19;55;-146
0.24;0.22;0.29;0.21;0.19;59;-150
0.24;0.22;0.29;0.22;0.19;61;-147
0.24;0.22;0.28;0.22;0.19;53;-147

LOOP num #;75
0.23;0.23;0.29;0.22;0.19;56;-147
0.23;0.23;0.28;0.21;0.19;51;-150
0.24;0.23;0.28;0.21;0.19;57;-146
0.24;0.23;0.28;0.22;0.19;60;-145
0.24;0.22;0.29;0.21;0.19;56;-145
0.24;0.22;0.28;0.22;0.19;57;-144
0.22;0.22;0.28;0.21;0.19;49;-145
0.20;0.22;0.29;0.21;0.19;30;-170
0.21;0.23;0.28;0.21;0.19;90;-136
0.21;0.23;0.29;0.21;0.20;52;-156

LOOP num #;76
0.20;0.23;0.28;0.21;0.19;30;-163
0.20;0.23;0.29;0.21;0.20;51;-148
0.21;0.23;0.29;0.22;0.19;67;-146
0.21;0.23;0.29;0.21;0.19;49;-169
0.21;0.23;0.29;0.21;0.20;72;-150
0.20;0.23;0.29;0.21;0.20;54;-152
0.21;0.23;0.29;0.21;0.19;51;-150
0.21;0.23;0.29;0.21;0.20;50;-146
0.20;0.23;0.29;0.21;0.19;53;-146
0.21;0.23;0.29;0.21;0.19;54;-149

LOOP num #;77
0.20;0.23;0.29;0.21;0.19;57;-148
0.21;0.23;0.29;0.22;0.19;57;-147
0.21;0.23;0.29;0.21;0.20;53;-152
0.21;0.23;0.29;0.21;0.19;52;-148
0.21;0.23;0.29;0.21;0.20;55;-147
0.21;0.23;0.29;0.21;0.20;55;-144
0.21;0.23;0.29;0.21;0.19;43;-165
0.21;0.23;0.29;0.20;0.19;32;-132
0.21;0.23;0.28;0.20;0.19;44;-138
0.21;0.23;0.29;0.21;0.20;66;-164

LOOP num #;78
0.20;0.23;0.29;0.21;0.20;67;-119
0.20;0.23;0.28;0.21;0.20;60;-155
0.20;0.22;0.29;0.21;0.20;6;-155
0.21;0.23;0.29;0.21;0.19;78;-123
0.21;0.23;0.29;0.21;0.20;32;-150
0.21;0.24;0.29;0.21;0.21;77;-136
0.21;0.23;0.29;0.21;0.22;47;-146
0.21;0.23;0.30;0.20;0.22;45;-144
0.21;0.24;0.29;0.20;0.22;45;-159
0.21;0.23;0.30;0.21;0.21;46;-148

LOOP num #;79
0.21;0.23;0.30;0.21;0.22;63;-144
0.21;0.24;0.29;0.21;0.22;49;-149
0.21;0.23;0.30;0.21;0.22;54;-145
0.21;0.23;0.29;0.21;0.22;54;-143
0.21;0.23;0.29;0.21;0.21;60;-146
0.22;0.23;0.30;0.21;0.22;57;-144
0.21;0.24;0.29;0.21;0.21;61;-151
0.21;0.23;0.29;0.21;0.21;57;-147
0.21;0.23;0.29;0.21;0.21;56;-147
0.21;0.24;0.30;0.21;0.22;57;-148

LOOP num #;80
0.21;0.24;0.30;0.21;0.21;52;-148
0.21;0.23;0.29;0.21;0.21;54;-147
0.21;0.24;0.30;0.21;0.21;51;-152
0.21;0.23;0.30;0.21;0.21;62;-142
0.21;0.23;0.30;0.21;0.21;55;-144
0.21;0.23;0.30;0.21;0.22;55;-145
0.21;0.23;0.29;0.21;0.22;50;-148
0.21;0.23;0.30;0.21;0.21;59;-147
0.21;0.23;0.30;0.21;0.21;54;-152
0.21;0.23;0.30;0.21;0.21;53;-148

LOOP num #;81
0.21;0.23;0.30;0.21;0.21;56;-147
0.21;0.24;0.30;0.21;0.22;50;-149
0.21;0.24;0.29;0.21;0.21;51;-148
0.21;0.23;0.30;0.21;0.21;56;-148
0.21;0.23;0.30;0.21;0.21;58;-147
0.21;0.24;0.30;0.21;0.21;58;-143
0.21;0.23;0.30;0.21;0.21;54;-148
0.21;0.23;0.30;0.21;0.21;62;-143
0.21;0.23;0.30;0.21;0.21;53;-145
0.21;0.23;0.29;0.21;0.21;53;-146

LOOP num #;82
0.21;0.23;0.30;0.21;0.21;54;-147
0.21;0.23;0.30;0.21;0.21;55;-149
0.21;0.23;0.29;0.21;0.21;53;-147
0.21;0.24;0.29;0.21;0.21;56;-146
0.21;0.23;0.29;0.21;0.21;73;-130
0.21;0.23;0.30;0.21;0.21;55;-150
0.21;0.23;0.29;0.21;0.20;43;-150
0.20;0.23;0.28;0.21;0.19;93;-126
0.21;0.22;0.28;0.21;0.19;58;-142
0.21;0.22;0.28;0.20;0.19;65;-137

LOOP num #;83
0.20;0.23;0.29;0.20;0.18;69;-150
0.21;0.22;0.28;0.20;0.19;34;-151
0.20;0.23;0.28;0.20;0.22;56;-152
0.21;0.24;0.30;0.21;0.25;58;-127
0.20;0.24;0.30;0.20;0.26;54;-158
0.21;0.24;0.30;0.20;0.25;57;-128
0.20;0.23;0.30;0.21;0.25;38;-152
0.20;0.24;0.31;0.20;0.24;48;-143
0.21;0.24;0.30;0.21;0.25;64;-143
0.20;0.24;0.30;0.20;0.25;53;-152

LOOP num #;84
0.20;0.24;0.30;0.20;0.25;48;-147
0.20;0.24;0.30;0.20;0.25;54;-145
0.20;0.25;0.30;0.21;0.25;58;-146
0.21;0.24;0.30;0.21;0.25;54;-149
0.21;0.24;0.30;0.20;0.25;51;-151
0.21;0.24;0.30;0.20;0.25;59;-149
0.21;0.24;0.30;0.20;0.25;55;-147
0.21;0.25;0.30;0.21;0.25;56;-146
0.21;0.24;0.30;0.21;0.24;57;-150
0.21;0.24;0.30;0.21;0.25;57;-153

LOOP num #;85
0.21;0.24;0.30;0.21;0.25;54;-144
0.21;0.24;0.30;0.21;0.25;57;-147
0.21;0.24;0.30;0.21;0.25;64;-144
0.20;0.24;0.30;0.21;0.25;53;-146
0.21;0.24;0.30;0.20;0.25;52;-149
0.21;0.25;0.30;0.20;0.25;54;-150
0.21;0.24;0.30;0.21;0.25;53;-149
0.21;0.24;0.30;0.21;0.25;58;-148
0.21;0.24;0.31;0.21;0.24;52;-153
0.20;0.24;0.30;0.21;0.25;50;-161

LOOP num #;86
0.21;0.24;0.30;0.21;0.24;65;-148
0.21;0.24;0.30;0.21;0.25;54;-148
0.20;0.24;0.30;0.21;0.24;58;-146
0.20;0.24;0.30;0.21;0.24;57;-151
0.20;0.24;0.30;0.21;0.24;54;-148
0.21;0.24;0.30;0.21;0.25;61;-145
0.21;0.24;0.30;0.21;0.25;57;-147
0.21;0.24;0.31;0.21;0.24;52;-148
0.21;0.24;0.30;0.21;0.25;56;-145
0.20;0.24;0.30;0.21;0.24;55;-144

LOOP num #;87
0.21;0.24;0.30;0.21;0.25;53;-147
0.20;0.24;0.30;0.21;0.25;53;-148
0.20;0.24;0.30;0.21;0.24;47;-144
0.20;0.24;0.30;0.21;0.24;54;-160
0.20;0.23;0.29;0.21;0.22;56;-143
0.21;0.23;0.28;0.21;0.20;52;-158
0.21;0.22;0.28;0.21;0.19;69;-128
0.21;0.22;0.28;0.20;0.19;68;-147
0.20;0.22;0.28;0.21;0.19;46;-153
0.21;0.26;0.28;0.22;0.20;47;-140

LOOP num #;88
0.21;0.26;0.27;0.22;0.20;83;-167
0.21;0.26;0.27;0.22;0.20;52;-158
0.21;0.26;0.28;0.22;0.19;40;-160
0.21;0.25;0.29;0.22;0.20;71;-135
0.21;0.26;0.28;0.22;0.19;134;-113
0.20;0.25;0.28;0.22;0.20;47;-168
0.21;0.25;0.28;0.22;0.20;58;-142
0.21;0.25;0.28;0.22;0.20;44;-155
0.21;0.25;0.28;0.22;0.20;57;-148
0.21;0.25;0.28;0.22;0.20;56;-143

LOOP num #;89
0.21;0.25;0.28;0.22;0.19;53;-150
0.21;0.25;0.28;0.22;0.20;56;-151
0.21;0.25;0.28;0.22;0.19;56;-144
0.21;0.25;0.28;0.22;0.19;56;-151
0.21;0.25;0.29;0.22;0.20;48;-149
0.21;0.25;0.28;0.22;0.20;51;-153
0.21;0.25;0.28;0.21;0.20;52;-147
0.21;0.25;0.28;0.21;0.20;55;-149
0.21;0.26;0.28;0.21;0.21;59;-145
0.21;0.25;0.28;0.22;0.20;51;-147

LOOP num #;90
0.21;0.25;0.28;0.22;0.20;66;-144
0.21;0.25;0.28;0.21;0.19;46;-151
0.21;0.25;0.28;0.21;0.19;47;-149
0.21;0.25;0.28;0.22;0.19;56;-147
0.21;0.25;0.28;0.22;0.20;54;-144
0.21;0.25;0.28;0.22;0.20;56;-151
0.20;0.25;0.28;0.21;0.20;57;-148
0.20;0.25;0.28;0.22;0.20;57;-145
0.21;0.26;0.28;0.22;0.20;57;-150
0.21;0.25;0.28;0.22;0.20;49;-154

LOOP num #;91
0.21;0.25;0.28;0.22;0.20;46;-149
0.21;0.25;0.29;0.21;0.20;56;-142
0.21;0.25;0.28;0.22;0.19;60;-141
0.21;0.25;0.28;0.22;0.19;50;-147
0.21;0.26;0.28;0.22;0.19;61;-150
0.21;0.25;0.28;0.21;0.19;55;-145
0.21;0.25;0.28;0.22;0.20;54;-148
0.21;0.25;0.28;0.21;0.20;58;-148
0.21;0.25;0.28;0.21;0.19;54;-144
0.21;0.25;0.28;0.22;0.19;54;-148

LOOP num #;92
0.21;0.25;0.28;0.22;0.20;51;-153
0.21;0.25;0.28;0.21;0.20;29;-165
0.21;0.25;0.28;0.22;0.20;45;-157
0.21;0.25;0.28;0.22;0.20;59;-137
0.21;0.25;0.28;0.22;0.20;80;-113
0.21;0.25;0.28;0.22;0.19;31;-179
0.21;0.24;0.28;0.22;0.19;53;-140
0.21;0.25;0.28;0.22;0.19;56;-141
0.21;0.25;0.28;0.21;0.20;75;-131
0.21;0.25;0.28;0.22;0.20;59;-135

LOOP num #;93
0.21;0.25;0.28;0.22;0.20;71;-134
0.21;0.26;0.28;0.21;0.20;67;-138
0.21;0.26;0.28;0.22;0.20;69;-132
0.21;0.25;0.28;0.22;0.20;20;-174
0.21;0.26;0.27;0.22;0.20;68;-154
0.21;0.25;0.28;0.21;0.20;49;-156
0.21;0.25;0.29;0.22;0.20;50;-158
0.21;0.25;0.28;0.22;0.20;44;-149
0.21;0.26;0.28;0.22;0.20;81;-126
0.21;0.25;0.28;0.22;0.20;58;-137

LOOP num #;94
0.21;0.25;0.28;0.22;0.20;57;-155
0.21;0.26;0.28;0.22;0.20;54;-142
0.21;0.25;0.28;0.21;0.20;49;-150
0.21;0.24;0.28;0.21;0.20;56;-155
0.22;0.25;0.28;0.22;0.20;55;-145
0.21;0.25;0.28;0.21;0.19;31;-165
0.21;0.24;0.28;0.19;0.19;54;-143
0.20;0.24;0.28;0.20;0.19;105;-48
0.21;0.23;0.28;0.20;0.19;-5;-190
0.21;0.22;0.29;0.20;0.19;56;-143

LOOP num #;95
0.21;0.23;0.29;0.19;0.19;42;-150
0.22;0.22;0.31;0.20;0.19;-40;-197
0.23;0.22;0.35;0.20;0.19;155;-119
0.23;0.22;0.36;0.20;0.19;14;-187
0.23;0.22;0.36;0.20;0.19;56;-159
0.23;0.22;0.35;0.20;0.19;84;-101
0.24;0.22;0.36;0.20;0.19;31;-166
0.24;0.23;0.36;0.20;0.19;55;-148
0.24;0.23;0.37;0.20;0.19;61;-151
0.24;0.23;0.36;0.20;0.19;54;-141

LOOP num #;96
0.24;0.23;0.36;0.20;0.19;60;-146
0.24;0.23;0.36;0.21;0.19;50;-148
0.24;0.23;0.36;0.20;0.19;65;-147
0.23;0.23;0.35;0.20;0.19;58;-148
0.23;0.22;0.34;0.20;0.19;54;-150
0.23;0.23;0.33;0.20;0.19;51;-132
0.23;0.22;0.33;0.20;0.19;64;-147
0.23;0.22;0.33;0.20;0.19;57;-150
0.23;0.22;0.32;0.20;0.19;64;-140
0.24;0.22;0.30;0.21;0.19;50;-140

LOOP num #;97
0.24;0.22;0.29;0.21;0.19;42;-133
0.25;0.25;0.28;0.20;0.19;104;-103
0.24;0.27;0.28;0.20;0.19;15;-166
0.23;0.27;0.28;0.20;0.19;68;-159
0.22;0.27;0.28;0.20;0.19;43;-112
0.26;0.29;0.29;0.21;0.19;81;-108
0.26;0.28;0.28;0.21;0.19;67;-125
0.26;0.28;0.28;0.20;0.19;67;-139
0.26;0.28;0.28;0.20;0.20;54;-156
0.25;0.28;0.28;0.21;0.19;48;-141

LOOP num #;98
0.26;0.28;0.28;0.21;0.19;55;-149
0.25;0.28;0.28;0.21;0.19;51;-145
0.26;0.28;0.28;0.21;0.19;55;-148
0.25;0.28;0.28;0.21;0.19;57;-148
0.24;0.28;0.28;0.21;0.19;53;-147
0.23;0.27;0.28;0.21;0.20;49;-144
0.20;0.28;0.28;0.20;0.20;47;-150
0.21;0.27;0.28;0.20;0.19;64;-162
0.22;0.27;0.28;0.21;0.19;48;-155
0.23;0.27;0.28;0.21;0.19;56;-121

LOOP num #;99
0.24;0.28;0.29;0.20;0.20;91;-130
0.25;0.27;0.29;0.21;0.20;64;-124
0.24;0.27;0.28;0.20;0.19;45;-156
0.24;0.27;0.28;0.20;0.20;54;-141
0.24;0.27;0.29;0.20;0.19;60;-152
0.24;0.27;0.28;0.21;0.19;50;-152
0.24;0.27;0.28;0.20;0.20;55;-149
0.23;0.28;0.28;0.21;0.19;52;-149
0.21;0.28;0.28;0.20;0.19;54;-136
0.21;0.28;0.28;0.20;0.19;25;-197

LOOP num #;100
0.21;0.28;0.28;0.21;0.19;42;-157
0.21;0.28;0.28;0.20;0.20;53;-144
0.21;0.28;0.28;0.20;0.20;53;-110
0.21;0.28;0.29;0.21;0.20;40;-143
0.21;0.28;0.28;0.21;0.20;68;-144
0.21;0.28;0.28;0.21;0.20;56;-144
0.22;0.28;0.28;0.21;0.20;58;-149
0.22;0.28;0.28;0.21;0.20;57;-144
0.21;0.28;0.28;0.21;0.20;51;-149
0.21;0.28;0.28;0.21;0.20;52;-152

LOOP num #;101
0.22;0.28;0.28;0.21;0.20;56;-147
0.21;0.28;0.29;0.21;0.20;56;-147
0.21;0.28;0.29;0.21;0.20;55;-149
0.21;0.28;0.28;0.21;0.20;52;-147
0.21;0.28;0.28;0.21;0.20;54;-148
0.22;0.28;0.29;0.21;0.20;55;-144
0.22;0.28;0.28;0.21;0.20;51;-148
0.21;0.28;0.28;0.21;0.20;58;-142
0.21;0.28;0.28;0.21;0.20;54;-144
0.21;0.28;0.29;0.21;0.20;54;-148

LOOP num #;102
0.21;0.28;0.28;0.21;0.20;54;-149
0.21;0.28;0.28;0.21;0.19;29;-153
0.21;0.27;0.28;0.20;0.20;77;-129
0.21;0.27;0.28;0.20;0.19;64;-143
0.22;0.26;0.28;0.21;0.19;48;-149
0.24;0.26;0.29;0.21;0.19;67;-142
0.24;0.27;0.29;0.20;0.20;55;-145
0.25;0.27;0.28;0.20;0.19;60;-148
0.25;0.27;0.28;0.21;0.19;43;-142
0.26;0.28;0.28;0.21;0.19;55;-134

LOOP num #;103
0.26;0.27;0.29;0.21;0.20;54;-154
0.26;0.28;0.29;0.21;0.19;50;-147
0.26;0.27;0.29;0.21;0.19;54;-147
0.25;0.27;0.28;0.21;0.19;50;-149
0.26;0.27;0.29;0.21;0.19;54;-150
0.25;0.27;0.29;0.21;0.20;51;-145
0.26;0.26;0.28;0.20;0.20;52;-148
0.26;0.26;0.29;0.20;0.19;57;-149
0.26;0.27;0.29;0.21;0.20;54;-145
0.26;0.26;0.28;0.21;0.19;51;-150

LOOP num #;104
0.26;0.26;0.28;0.21;0.19;69;-145
0.25;0.24;0.29;0.20;0.19;38;-149
0.24;0.22;0.28;0.21;0.19;80;-148
0.25;0.23;0.28;0.21;0.19;42;-145
0.26;0.25;0.28;0.21;0.19;50;-149
0.27;0.26;0.28;0.21;0.19;91;-121
0.27;0.26;0.29;0.20;0.19;42;-138
0.26;0.27;0.28;0.21;0.19;54;-145
0.26;0.27;0.28;0.21;0.20;73;-116
0.25;0.27;0.28;0.21;0.19;49;-149

LOOP num #;105
0.26;0.27;0.28;0.21;0.20;58;-150
0.26;0.27;0.28;0.21;0.19;48;-147
0.27;0.27;0.28;0.21;0.20;56;-147
0.26;0.27;0.28;0.21;0.19;54;-150
0.26;0.27;0.28;0.21;0.19;61;-133
0.26;0.27;0.28;0.21;0.19;54;-152
0.26;0.27;0.28;0.21;0.19;62;-146
0.26;0.27;0.28;0.21;0.19;59;-138
0.27;0.27;0.28;0.21;0.20;51;-149
0.26;0.27;0.28;0.21;0.20;55;-149

LOOP num #;106
0.26;0.26;0.28;0.21;0.20;57;-149
0.27;0.27;0.28;0.21;0.20;53;-145
0.26;0.27;0.28;0.21;0.19;52;-147
0.26;0.27;0.28;0.20;0.19;58;-146
0.27;0.27;0.28;0.21;0.20;53;-149
0.26;0.27;0.28;0.21;0.19;57;-147
0.26;0.26;0.28;0.21;0.20;54;-152
0.26;0.27;0.28;0.21;0.20;56;-146
0.26;0.27;0.29;0.21;0.20;51;-151
0.26;0.27;0.28;0.21;0.20;55;-146

LOOP num #;107
0.26;0.27;0.28;0.21;0.20;50;-147
0.26;0.27;0.28;0.20;0.19;55;-150
0.27;0.27;0.28;0.21;0.20;51;-148
0.27;0.27;0.28;0.21;0.19;56;-146
0.26;0.27;0.28;0.21;0.19;56;-143
0.27;0.27;0.28;0.21;0.20;64;-141
0.26;0.27;0.29;0.21;0.19;51;-149
0.26;0.27;0.28;0.21;0.20;53;-147
0.26;0.27;0.29;0.21;0.20;48;-149
0.27;0.27;0.28;0.21;0.19;51;-146

LOOP num #;108
0.27;0.27;0.28;0.21;0.20;53;-151
0.27;0.27;0.29;0.21;0.20;54;-144
0.27;0.27;0.28;0.21;0.19;56;-145
0.27;0.27;0.29;0.21;0.19;53;-148
0.27;0.27;0.28;0.21;0.19;51;-148
0.27;0.27;0.28;0.21;0.19;52;-144
0.22;0.27;0.28;0.20;0.20;53;-150
0.21;0.27;0.28;0.21;0.20;67;-131
0.22;0.27;0.28;0.21;0.20;60;-144
0.21;0.27;0.28;0.21;0.20;83;-121

LOOP num #;109
0.21;0.27;0.28;0.20;0.20;29;-165
0.21;0.27;0.28;0.21;0.20;75;-139
0.21;0.27;0.28;0.42;0.19;24;-154
0.21;0.27;0.28;0.21;0.20;51;-147
0.21;0.27;0.29;0.21;0.20;65;-129
0.22;0.27;0.28;0.21;0.20;65;-142
0.22;0.27;0.28;0.21;0.19;50;-148
0.22;0.26;0.29;0.21;0.19;53;-160
0.22;0.26;0.29;0.21;0.19;42;-155
0.21;0.26;0.28;0.21;0.20;43;-167

LOOP num #;110
0.22;0.26;0.29;0.22;0.20;44;-163
0.21;0.26;0.29;0.21;0.20;42;-155
0.22;0.25;0.29;0.21;0.19;52;-150
0.22;0.27;0.28;0.21;0.20;52;-150
0.21;0.26;0.29;0.21;0.20;49;-153
0.21;0.28;0.28;0.21;0.20;41;-154
0.21;0.28;0.29;0.21;0.20;63;-145
0.21;0.27;0.28;0.21;0.20;59;-139
0.22;0.28;0.28;0.21;0.20;54;-147
0.21;0.27;0.28;0.21;0.21;55;-147

LOOP num #;111
0.21;0.28;0.28;0.21;0.20;50;-150
0.22;0.27;0.28;0.21;0.20;52;-147
0.21;0.27;0.29;0.21;0.20;54;-148
0.22;0.27;0.28;0.21;0.20;54;-148
0.22;0.27;0.28;0.21;0.20;54;-149
0.21;0.27;0.28;0.21;0.20;54;-148
0.22;0.27;0.28;0.21;0.20;57;-145
0.22;0.27;0.29;0.21;0.20;53;-147
0.22;0.27;0.29;0.21;0.20;59;-145
0.21;0.26;0.28;0.21;0.20;53;-143

LOOP num #;112
0.22;0.26;0.28;0.21;0.20;47;-163
0.22;0.23;0.28;0.21;0.20;64;-132
0.21;0.22;0.29;0.21;0.19;18;-202
0.22;0.23;0.29;0.21;0.20;40;-155
0.22;0.23;0.28;0.21;0.19;66;-141
0.21;0.23;0.29;0.21;0.18;124;-122
0.21;0.24;0.28;0.20;0.20;70;-98
0.22;0.23;0.28;0.21;0.19;49;-160
0.22;0.24;0.28;0.21;0.19;67;-134
0.22;0.23;0.29;0.21;0.20;44;-156

LOOP num #;113
0.22;0.24;0.28;0.21;0.20;48;-142
0.22;0.23;0.29;0.21;0.19;56;-153
0.22;0.24;0.29;0.20;0.19;75;-124
0.22;0.23;0.28;0.20;0.19;61;-139
0.22;0.24;0.28;0.21;0.20;56;-125
0.22;0.24;0.28;0.21;0.20;105;-106
0.22;0.24;0.29;0.21;0.20;65;-120
0.22;0.24;0.29;0.21;0.20;52;-153
0.22;0.24;0.28;0.21;0.20;48;-150
0.22;0.24;0.28;0.21;0.20;55;-144

LOOP num #;114
0.22;0.24;0.29;0.21;0.20;55;-144
0.22;0.24;0.28;0.21;0.20;47;-155
0.22;0.24;0.28;0.21;0.20;56;-151
0.22;0.24;0.29;0.21;0.20;48;-149
0.22;0.24;0.29;0.21;0.20;58;-143
0.22;0.24;0.29;0.21;0.20;55;-147
0.23;0.24;0.29;0.21;0.20;56;-147
0.22;0.24;0.29;0.21;0.20;55;-144
0.22;0.24;0.29;0.21;0.20;55;-144
0.22;0.24;0.29;0.21;0.20;56;-142

LOOP num #;115
0.22;0.24;0.29;0.21;0.20;53;-139
0.22;0.24;0.29;0.20;0.20;66;-159
0.22;0.24;0.28;0.21;0.20;36;-143
0.22;0.23;0.29;0.21;0.20;78;-126
0.23;0.23;0.29;0.21;0.19;20;-183
0.25;0.24;0.28;0.21;0.20;94;-111
0.25;0.24;0.28;0.21;0.20;71;-117
0.24;0.23;0.29;0.20;0.20;56;-150
0.22;0.24;0.28;0.20;0.19;53;-163
0.23;0.24;0.29;0.20;0.20;50;-147

LOOP num #;116
0.26;0.23;0.29;0.21;0.19;43;-183
0.27;0.24;0.29;0.21;0.19;88;-136
0.27;0.24;0.29;0.21;0.20;76;-165
0.28;0.24;0.29;0.21;0.19;65;-143
0.27;0.24;0.29;0.21;0.19;67;-152
0.28;0.23;0.30;0.21;0.19;39;-190
0.27;0.23;0.29;0.22;0.19;53;-145
0.27;0.24;0.30;0.21;0.19;68;-143
0.27;0.24;0.29;0.22;0.19;62;-146
0.27;0.24;0.29;0.21;0.19;54;-151

LOOP num #;117
0.27;0.24;0.30;0.21;0.20;65;-142
0.25;0.23;0.29;0.21;0.19;47;-148
0.22;0.24;0.29;0.21;0.20;46;-110
0.22;0.23;0.29;0.21;0.20;16;-162
0.22;0.23;0.29;0.21;0.20;86;-144
0.23;0.24;0.29;0.21;0.20;84;-129
0.29;0.23;0.30;0.22;0.20;73;-140
0.27;0.24;0.29;0.21;0.20;95;-83
0.27;0.24;0.29;0.22;0.20;62;-157
0.27;0.25;0.30;0.21;0.20;57;-129

LOOP num #;118
0.27;0.24;0.30;0.21;0.20;52;-146
0.27;0.24;0.30;0.21;0.20;56;-154
0.27;0.24;0.30;0.21;0.20;57;-144
0.27;0.24;0.30;0.21;0.20;53;-145
0.27;0.24;0.30;0.21;0.20;55;-152
0.27;0.24;0.30;0.21;0.20;51;-144
0.27;0.24;0.29;0.21;0.20;56;-148
0.26;0.24;0.30;0.21;0.20;55;-148
0.27;0.24;0.30;0.21;0.20;53;-149
0.27;0.24;0.29;0.21;0.20;56;-146

LOOP num #;119
0.27;0.24;0.30;0.21;0.20;58;-146
0.27;0.24;0.30;0.21;0.20;56;-147
0.26;0.24;0.29;0.21;0.20;56;-147
0.23;0.24;0.29;0.21;0.20;46;-149
0.21;0.23;0.29;0.20;0.19;9;-170
0.21;0.23;0.29;0.21;0.19;-16;-216
0.21;0.23;0.28;0.20;0.20;-2;-213
0.22;0.23;0.29;0.20;0.20;35;-158
0.20;0.23;0.28;0.20;0.19;41;-145
0.21;0.23;0.28;0.20;0.20;11;-189

LOOP num #;120
0.21;0.28;0.28;0.20;0.21;25;-180
0.21;0.33;0.28;0.21;0.22;253;90
0.21;0.33;0.28;0.20;0.23;6;-183
0.21;0.31;0.28;0.21;0.23;89;-133
0.21;0.30;0.28;0.20;0.22;59;-137
0.21;0.31;0.28;0.21;0.22;56;-152
0.21;0.30;0.28;0.20;0.22;48;-143
0.21;0.30;0.28;0.20;0.22;49;-156
0.20;0.31;0.28;0.20;0.22;42;-152
0.21;0.30;0.28;0.20;0.23;57;-104

LOOP num #;121
0.21;0.30;0.28;0.21;0.23;82;-166
0.21;0.29;0.28;0.21;0.22;41;-148
0.21;0.29;0.28;0.21;0.23;57;-161
0.20;0.30;0.28;0.20;0.22;50;-137
0.21;0.30;0.28;0.20;0.23;56;-147
0.21;0.30;0.28;0.20;0.23;52;-150
0.21;0.30;0.27;0.20;0.23;50;-147
0.20;0.30;0.28;0.21;0.23;57;-144
0.21;0.29;0.28;0.20;0.23;53;-149
0.21;0.30;0.28;0.20;0.22;59;-146

LOOP num #;122
0.21;0.30;0.28;0.20;0.23;55;-148
0.20;0.30;0.28;0.20;0.22;54;-148
0.21;0.30;0.29;0.21;0.23;55;-146
0.21;0.30;0.28;0.21;0.23;56;-151
0.21;0.30;0.28;0.20;0.23;57;-153
0.20;0.29;0.28;0.21;0.22;51;-150
0.20;0.30;0.28;0.21;0.23;52;-148
0.20;0.30;0.28;0.21;0.23;58;-151
0.21;0.30;0.28;0.21;0.23;53;-150
0.20;0.30;0.28;0.21;0.23;60;-146

LOOP num #;123
0.20;0.30;0.28;0.21;0.23;46;-145
0.21;0.28;0.28;0.21;0.21;58;-152
0.22;0.23;0.28;0.21;0.19;21;-189
0.21;0.23;0.28;0.20;0.19;17;-174
0.21;0.22;0.28;0.21;0.19;-75;-233
0.22;0.23;0.29;0.20;0.19;67;-150
0.22;0.23;0.28;0.20;0.19;36;-117
0.22;0.23;0.29;0.22;0.19;57;-178
0.22;0.23;0.28;0.21;0.19;44;-178
0.22;0.23;0.28;0.21;0.19;58;-135

LOOP num #;124
0.22;0.23;0.28;0.21;0.19;75;-156
0.22;0.23;0.29;0.21;0.18;46;-159
0.22;0.23;0.28;0.21;0.19;75;-139
0.22;0.23;0.28;0.21;0.20;99;-62
0.22;0.23;0.28;0.21;0.19;59;-142
0.22;0.23;0.28;0.22;0.19;76;-140
0.22;0.23;0.28;0.21;0.19;35;-160
0.22;0.23;0.28;0.21;0.20;51;-150
0.22;0.23;0.29;0.21;0.20;62;-146
0.22;0.23;0.29;0.21;0.20;56;-150

LOOP num #;125
0.22;0.23;0.29;0.21;0.20;56;-146
0.22;0.24;0.29;0.21;0.19;63;-138
0.21;0.24;0.28;0.21;0.19;63;-136
0.21;0.23;0.28;0.21;0.19;52;-131
0.21;0.23;0.28;0.21;0.19;61;-162
0.21;0.24;0.28;0.21;0.20;15;-174
0.21;0.24;0.28;0.22;0.20;35;-150
0.21;0.24;0.28;0.22;0.20;29;-179
0.21;0.24;0.28;0.22;0.20;54;-151
0.21;0.24;0.28;0.22;0.20;59;-142

LOOP num #;126
0.21;0.24;0.28;0.22;0.20;47;-152
0.21;0.24;0.28;0.21;0.20;48;-148
0.21;0.24;0.28;0.21;0.20;55;-147
0.21;0.24;0.28;0.21;0.21;60;-145
0.22;0.24;0.28;0.22;0.20;45;-142
0.21;0.24;0.28;0.22;0.20;79;-139
0.21;0.24;0.28;0.21;0.21;54;-147
0.21;0.24;0.28;0.22;0.20;52;-150
0.22;0.24;0.28;0.21;0.20;53;-147
0.21;0.25;0.28;0.22;0.20;55;-149

LOOP num #;127
0.22;0.24;0.28;0.22;0.20;48;-147
0.21;0.24;0.28;0.22;0.20;55;-147
0.22;0.24;0.28;0.21;0.20;57;-145
0.21;0.24;0.28;0.21;0.20;55;-145
0.21;0.24;0.28;0.21;0.20;56;-149
0.21;0.24;0.28;0.21;0.20;53;-147
0.21;0.24;0.28;0.21;0.20;55;-145
0.21;0.24;0.28;0.22;0.20;56;-146
0.21;0.24;0.28;0.21;0.20;52;-147
0.21;0.25;0.28;0.22;0.20;58;-147

LOOP num #;128
0.21;0.24;0.28;0.21;0.20;52;-150
0.21;0.24;0.28;0.22;0.20;57;-152
0.21;0.24;0.28;0.21;0.20;53;-145
0.21;0.23;0.28;0.21;0.20;80;-125
0.22;0.23;0.28;0.21;0.20;43;-148
0.22;0.23;0.28;0.21;0.20;-8;-198
0.21;0.28;0.28;0.21;0.20;40;-171
0.21;0.30;0.28;0.22;0.21;55;-139
0.22;0.29;0.28;0.21;0.20;46;-168
0.21;0.29;0.28;0.21;0.21;54;-143

LOOP num #;129
0.21;0.28;0.28;0.21;0.20;57;-147
0.21;0.29;0.27;0.21;0.20;61;-148
0.21;0.29;0.28;0.21;0.21;46;-154
0.21;0.28;0.28;0.21;0.21;50;-149
0.21;0.28;0.28;0.21;0.20;53;-147
0.22;0.29;0.28;0.21;0.21;56;-148
0.21;0.29;0.28;0.21;0.20;55;-149
0.21;0.29;0.28;0.21;0.20;52;-147
0.21;0.29;0.28;0.21;0.20;53;-149
0.21;0.29;0.28;0.21;0.20;52;-149

LOOP num #;130
0.22;0.29;0.28;0.22;0.21;55;-147
0.21;0.29;0.28;0.21;0.20;57;-146
0.21;0.29;0.28;0.21;0.21;56;-148
0.21;0.29;0.28;0.21;0.20;56;-141
0.21;0.29;0.28;0.21;0.20;52;-144
0.21;0.29;0.28;0.21;0.20;55;-146
0.21;0.29;0.28;0.21;0.21;55;-148
0.21;0.30;0.28;0.21;0.21;54;-147
0.21;0.29;0.28;0.21;0.21;53;-150
0.21;0.29;0.28;0.21;0.21;53;-151

LOOP num #;131
0.22;0.29;0.28;0.21;0.20;57;-147
0.21;0.29;0.28;0.21;0.21;52;-149
0.22;0.29;0.28;0.22;0.20;56;-144
0.21;0.29;0.28;0.21;0.21;52;-149
0.21;0.29;0.28;0.21;0.21;52;-148
0.21;0.29;0.28;0.21;0.21;47;-148
0.21;0.29;0.28;0.21;0.21;56;-146
0.21;0.29;0.27;0.21;0.20;57;-146
0.21;0.29;0.28;0.20;0.20;53;-145
0.21;0.29;0.28;0.21;0.20;51;-148

LOOP num #;132
0.21;0.29;0.27;0.21;0.20;52;-150
0.21;0.27;0.28;0.21;0.20;50;-152
0.21;0.24;0.28;0.21;0.20;59;-152
0.21;0.22;0.29;0.21;0.19;29;-176
0.21;0.22;0.28;0.21;0.19;63;-145
0.21;0.22;0.29;0.20;0.19;22;-166
0.21;0.22;0.29;0.21;0.20;55;-153
0.21;0.23;0.28;0.20;0.20;55;-139
0.21;0.24;0.28;0.21;0.20;42;-153
0.22;0.23;0.28;0.21;0.20;60;-141

LOOP num #;133
0.22;0.23;0.28;0.21;0.19;48;-140
0.21;0.23;0.28;0.21;0.20;64;-144
0.22;0.23;0.28;0.21;0.20;55;-150
0.22;0.23;0.28;0.21;0.20;54;-147
0.21;0.23;0.29;0.21;0.20;54;-147
0.22;0.23;0.28;0.21;0.20;52;-147
0.22;0.23;0.28;0.21;0.20;57;-141
0.22;0.23;0.28;0.21;0.20;44;-151
0.22;0.24;0.28;0.22;0.20;57;-141
0.22;0.23;0.28;0.21;0.20;46;-146

LOOP num #;134
0.22;0.24;0.28;0.21;0.20;44;-155
0.22;0.23;0.28;0.21;0.20;49;-153
0.22;0.23;0.28;0.22;0.21;57;-146
0.22;0.23;0.28;0.21;0.20;60;-145
0.22;0.24;0.28;0.21;0.20;56;-146
0.22;0.24;0.28;0.21;0.20;54;-146
0.22;0.23;0.28;0.21;0.20;57;-150
0.22;0.24;0.29;0.21;0.20;56;-148
0.21;0.23;0.28;0.21;0.20;54;-148
0.22;0.24;0.28;0.21;0.20;51;-147

LOOP num #;135
0.22;0.23;0.28;0.21;0.20;71;-127
0.22;0.23;0.28;0.20;0.19;44;-149
0.21;0.23;0.28;0.20;0.19;67;-142
0.21;0.23;0.28;0.21;0.20;74;-138
0.22;0.23;0.28;0.20;0.20;57;-135
0.22;0.23;0.28;0.20;0.20;55;-147
0.22;0.23;0.28;0.20;0.21;92;-124
0.22;0.24;0.29;0.21;0.20;63;-126
0.23;0.25;0.28;0.21;0.21;68;-129
0.23;0.24;0.28;0.21;0.21;64;-103

LOOP num #;136
0.23;0.24;0.28;0.22;0.20;52;-162
0.22;0.24;0.29;0.21;0.20;60;-140
0.22;0.24;0.28;0.21;0.21;75;-145
0.22;0.25;0.28;0.21;0.20;59;-145
0.22;0.24;0.28;0.22;0.21;39;-152
0.22;0.24;0.29;0.21;0.21;55;-151
0.23;0.24;0.29;0.22;0.21;51;-152
0.22;0.24;0.28;0.22;0.21;43;-163
0.22;0.24;0.29;0.21;0.21;53;-156
0.22;0.24;0.29;0.22;0.20;45;-154

LOOP num #;137
0.22;0.24;0.28;0.22;0.20;52;-148
0.22;0.24;0.29;0.21;0.21;56;-146
0.23;0.24;0.29;0.21;0.21;54;-145
0.22;0.24;0.28;0.21;0.21;55;-148
0.22;0.24;0.28;0.21;0.20;60;-148
0.22;0.24;0.28;0.21;0.21;51;-146
0.22;0.24;0.28;0.21;0.21;57;-146
0.22;0.24;0.29;0.21;0.21;49;-151
0.22;0.24;0.29;0.21;0.21;54;-150
0.22;0.24;0.29;0.21;0.21;55;-144

LOOP num #;138
0.22;0.24;0.29;0.21;0.21;49;-147
0.22;0.24;0.29;0.21;0.20;63;-147
0.22;0.24;0.28;0.21;0.20;49;-150
0.22;0.24;0.28;0.21;0.21;57;-145
0.22;0.24;0.29;0.21;0.21;55;-148
0.22;0.24;0.29;0.21;0.21;55;-148
0.22;0.24;0.28;0.21;0.21;53;-148
0.22;0.24;0.29;0.21;0.21;54;-146
0.22;0.24;0.29;0.21;0.21;57;-145
0.22;0.24;0.29;0.21;0.20;55;-146

LOOP num #;139
0.22;0.24;0.28;0.21;0.19;53;-146
0.22;0.23;0.28;0.21;0.19;76;-151
0.22;0.23;0.28;0.21;0.19;34;-167
0.22;0.23;0.28;0.21;0.20;29;-161
0.22;0.24;0.29;0.21;0.20;51;-155
0.28;0.24;0.28;0.22;0.19;54;-157
0.31;0.23;0.28;0.22;0.20;-7;-202
0.31;0.24;0.29;0.22;0.20;102;-116
0.32;0.24;0.28;0.22;0.20;60;-139
0.31;0.24;0.28;0.22;0.19;61;-146

LOOP num #;140
0.31;0.23;0.29;0.22;0.19;50;-156
0.31;0.24;0.29;0.21;0.20;56;-149
0.32;0.23;0.29;0.22;0.19;64;-145
0.32;0.24;0.29;0.22;0.20;57;-144
0.32;0.24;0.29;0.21;0.20;56;-145
0.33;0.24;0.29;0.22;0.20;60;-146
0.32;0.23;0.28;0.22;0.20;57;-149
0.32;0.24;0.29;0.22;0.19;52;-145
0.32;0.24;0.29;0.22;0.19;54;-150
0.32;0.24;0.29;0.22;0.19;59;-147

LOOP num #;141
0.32;0.24;0.29;0.22;0.19;61;-146
0.31;0.24;0.29;0.21;0.19;60;-143
0.31;0.24;0.29;0.21;0.20;61;-144
0.29;0.24;0.29;0.21;0.19;60;-144
0.25;0.24;0.28;0.21;0.19;65;-137
0.24;0.23;0.29;0.20;0.19;69;-136
0.24;0.23;0.29;0.20;0.19;75;-148
0.25;0.24;0.29;0.20;0.19;60;-137
0.25;0.23;0.29;0.21;0.19;52;-154
0.26;0.24;0.29;0.21;0.19;56;-141

LOOP num #;142
0.26;0.23;0.29;0.21;0.19;60;-149
0.28;0.23;0.29;0.21;0.19;48;-158
0.29;0.23;0.29;0.21;0.20;47;-147
0.29;0.24;0.29;0.21;0.19;57;-159
0.29;0.24;0.29;0.21;0.19;67;-132
0.29;0.24;0.29;0.21;0.19;55;-148
0.29;0.24;0.29;0.21;0.19;59;-146
0.30;0.24;0.30;0.21;0.19;56;-145
0.30;0.24;0.29;0.21;0.20;56;-147
0.29;0.24;0.29;0.21;0.20;52;-149

LOOP num #;143
0.30;0.24;0.29;0.21;0.19;58;-147
0.30;0.24;0.29;0.21;0.20;57;-149
0.30;0.24;0.29;0.21;0.19;58;-146
0.29;0.24;0.29;0.21;0.19;53;-146
0.29;0.24;0.29;0.21;0.19;55;-149
0.30;0.24;0.29;0.21;0.20;54;-150
0.30;0.24;0.29;0.21;0.20;59;-149
0.30;0.24;0.29;0.21;0.20;55;-148
0.30;0.24;0.29;0.21;0.20;55;-148
0.29;0.24;0.29;0.21;0.20;54;-149

LOOP num #;144
0.30;0.24;0.29;0.21;0.20;57;-145
0.30;0.24;0.29;0.21;0.20;54;-145
0.30;0.24;0.29;0.21;0.19;54;-149
0.30;0.24;0.29;0.21;0.19;55;-145
0.30;0.24;0.29;0.21;0.19;56;-146
0.30;0.24;0.29;0.22;0.20;54;-146
0.30;0.24;0.29;0.21;0.20;55;-147
0.30;0.24;0.30;0.21;0.20;53;-147
0.31;0.24;0.29;0.21;0.19;52;-147
0.30;0.24;0.29;0.21;0.19;52;-144

LOOP num #;145
0.31;0.24;0.29;0.21;0.19;55;-153
0.30;0.23;0.29;0.21;0.20;56;-148
0.30;0.24;0.29;0.21;0.19;52;-148
0.31;0.24;0.29;0.21;0.19;55;-148
0.30;0.24;0.29;0.21;0.20;50;-152
0.30;0.24;0.29;0.21;0.20;54;-144
0.31;0.24;0.29;0.21;0.20;55;-151
0.29;0.24;0.30;0.21;0.20;53;-151
0.30;0.24;0.29;0.21;0.19;59;-146
0.30;0.24;0.29;0.21;0.19;56;-146

LOOP num #;146
0.30;0.24;0.29;0.21;0.19;50;-147
0.30;0.24;0.29;0.21;0.19;68;-137
0.31;0.24;0.30;0.21;0.19;49;-151
0.31;0.23;0.29;0.21;0.20;51;-147
0.26;0.24;0.29;0.20;0.20;54;-149
0.22;0.23;0.29;0.20;0.19;9;-199
0.21;0.23;0.28;0.19;0.19;47;-142
0.21;0.23;0.29;0.19;0.19;27;-140
0.21;0.23;0.28;0.20;0.19;17;-179
0.21;0.23;0.30;0.19;0.20;47;-149

LOOP num #;147
0.23;0.23;0.36;0.20;0.21;97;-85
0.23;0.24;0.36;0.20;0.22;128;-157
0.23;0.23;0.35;0.20;0.22;29;-160
0.23;0.24;0.34;0.20;0.22;8;-192
0.23;0.24;0.31;0.20;0.23;42;-150
0.23;0.24;0.33;0.20;0.22;89;-124
0.23;0.23;0.34;0.20;0.22;60;-142
0.23;0.23;0.34;0.20;0.22;30;-163
0.23;0.23;0.33;0.21;0.22;57;-152
0.23;0.24;0.34;0.20;0.22;54;-142

LOOP num #;148
0.23;0.24;0.34;0.20;0.22;68;-151
0.23;0.23;0.34;0.20;0.22;58;-139
0.23;0.24;0.34;0.20;0.22;57;-153
0.23;0.23;0.34;0.20;0.22;57;-146
0.23;0.24;0.34;0.21;0.22;61;-151
0.24;0.23;0.34;0.20;0.22;64;-140
0.23;0.23;0.33;0.21;0.22;53;-150
0.23;0.23;0.33;0.20;0.22;54;-145
0.23;0.23;0.34;0.21;0.22;56;-149
0.23;0.24;0.33;0.20;0.22;53;-152

LOOP num #;149
0.23;0.24;0.33;0.20;0.22;51;-155
0.23;0.24;0.33;0.20;0.22;59;-149
0.23;0.24;0.34;0.21;0.22;50;-150
0.22;0.23;0.33;0.21;0.22;60;-147
0.22;0.23;0.30;0.20;0.21;51;-144
0.22;0.23;0.29;0.20;0.20;22;-143
0.22;0.23;0.29;0.20;0.21;43;-133
0.22;0.23;0.28;0.20;0.20;55;-142
0.21;0.23;0.28;0.20;0.20;-47;-154
0.22;0.23;0.29;0.21;0.21;84;-151

LOOP num #;150
0.23;0.24;0.29;0.21;0.22;53;-129
0.23;0.23;0.29;0.22;0.22;77;-171
0.23;0.24;0.29;0.21;0.22;68;-141
0.23;0.24;0.29;0.21;0.22;66;-135
0.23;0.24;0.29;0.22;0.22;59;-142
0.22;0.23;0.29;0.22;0.21;49;-156
0.23;0.24;0.29;0.22;0.22;63;-152
0.23;0.24;0.29;0.22;0.22;50;-144
0.23;0.24;0.29;0.22;0.22;59;-146
0.23;0.24;0.29;0.22;0.22;52;-153

LOOP num #;151
0.22;0.24;0.29;0.21;0.22;58;-145
0.23;0.24;0.29;0.22;0.22;55;-147
0.23;0.24;0.29;0.22;0.22;56;-147
0.23;0.24;0.29;0.21;0.22;55;-148
0.23;0.24;0.29;0.21;0.22;55;-146
0.23;0.24;0.29;0.21;0.22;52;-146
0.23;0.24;0.29;0.22;0.22;50;-149
0.23;0.24;0.28;0.21;0.22;52;-146
0.22;0.23;0.29;0.21;0.21;40;-152
0.22;0.24;0.29;0.21;0.21;43;-167

LOOP num #;152
0.22;0.24;0.29;0.21;0.21;64;-162
0.22;0.23;0.29;0.21;0.22;30;-167
0.21;0.24;0.29;0.21;0.20;68;-146
0.21;0.23;0.28;0.21;0.19;50;-126
0.21;0.23;0.29;0.21;0.19;64;-165
0.21;0.23;0.28;0.22;0.19;111;-111
0.21;0.24;0.29;0.22;0.21;40;-194
0.22;0.24;0.29;0.22;0.21;97;-75
0.22;0.24;0.29;0.22;0.21;43;-161
0.22;0.24;0.29;0.22;0.20;47;-143

LOOP num #;153
0.22;0.24;0.29;0.21;0.20;53;-145
0.21;0.24;0.29;0.21;0.20;54;-152
0.22;0.24;0.29;0.21;0.20;57;-145
0.22;0.24;0.28;0.21;0.20;53;-145
0.21;0.24;0.29;0.21;0.21;53;-149
0.21;0.24;0.29;0.21;0.20;47;-155
0.22;0.24;0.29;0.21;0.20;43;-160
0.22;0.23;0.29;0.21;0.20;59;-133
0.21;0.24;0.29;0.22;0.20;55;-145
0.22;0.24;0.29;0.21;0.20;64;-136

LOOP num #;154
0.22;0.24;0.29;0.21;0.20;57;-158
0.22;0.24;0.29;0.21;0.20;57;-144
0.22;0.23;0.29;0.21;0.19;49;-150
0.22;0.23;0.29;0.21;0.19;59;-148
0.22;0.23;0.29;0.21;0.19;64;-135
0.22;0.23;0.28;0.21;0.19;55;-148
0.22;0.24;0.28;0.21;0.19;57;-149
0.21;0.24;0.28;0.21;0.19;60;-145
0.22;0.24;0.29;0.21;0.19;70;-140
0.22;0.24;0.29;0.21;0.19;38;-165

LOOP num #;155
0.21;0.24;0.29;0.22;0.20;50;-142
0.22;0.24;0.29;0.22;0.19;87;-112
0.22;0.24;0.29;0.22;0.20;39;-159
0.22;0.24;0.29;0.22;0.19;39;-159
0.22;0.24;0.28;0.22;0.19;53;-146
0.21;0.24;0.29;0.22;0.20;53;-148
0.22;0.24;0.29;0.22;0.19;48;-159
0.22;0.24;0.29;0.22;0.19;51;-152
0.22;0.23;0.29;0.21;0.19;61;-146
0.22;0.23;0.28;0.20;0.19;29;-186

LOOP num #;156
0.21;0.23;0.29;0.20;0.19;107;-145
0.22;0.22;0.29;0.19;0.19;-81;-236
0.21;0.23;0.29;0.20;0.19;98;-135
0.21;0.24;0.28;0.21;0.19;42;-161
0.21;0.24;0.29;0.21;0.19;61;-117
0.22;0.24;0.28;0.21;0.20;72;-118
0.22;0.24;0.28;0.21;0.20;56;-135
0.22;0.25;0.28;0.22;0.20;78;-125
0.22;0.25;0.29;0.22;0.20;45;-160
0.22;0.25;0.29;0.22;0.20;63;-139

LOOP num #;157
0.22;0.25;0.29;0.22;0.20;58;-143
0.21;0.25;0.29;0.21;0.20;54;-149
0.22;0.24;0.29;0.21;0.20;53;-153
0.22;0.25;0.29;0.21;0.20;56;-143
0.22;0.24;0.29;0.21;0.20;57;-143
0.22;0.25;0.29;0.21;0.20;53;-150
0.22;0.24;0.28;0.21;0.20;58;-147
0.22;0.24;0.28;0.22;0.19;77;-134
0.22;0.24;0.28;0.22;0.20;76;-120
0.22;0.24;0.28;0.21;0.20;56;-140

LOOP num #;158
0.22;0.24;0.28;0.22;0.20;54;-146
0.22;0.24;0.28;0.21;0.20;54;-151
0.22;0.24;0.29;0.21;0.20;54;-149
0.22;0.24;0.28;0.21;0.19;49;-153
0.22;0.24;0.29;0.21;0.20;47;-149
0.22;0.24;0.28;0.21;0.19;58;-150
0.22;0.24;0.28;0.21;0.19;56;-145
0.22;0.24;0.29;0.21;0.19;56;-148
0.22;0.24;0.29;0.21;0.19;49;-145
0.22;0.24;0.29;0.21;0.19;57;-146

LOOP num #;159
0.22;0.24;0.29;0.21;0.19;65;-144
0.22;0.24;0.28;0.22;0.19;49;-150
0.22;0.25;0.29;0.21;0.19;56;-145
0.22;0.24;0.29;0.21;0.20;43;-159
0.22;0.25;0.29;0.21;0.20;55;-147
0.22;0.25;0.29;0.21;0.20;48;-151
0.22;0.25;0.29;0.21;0.20;53;-147
0.22;0.25;0.29;0.21;0.20;47;-147
0.22;0.24;0.29;0.21;0.20;39;-151
0.22;0.24;0.29;0.19;0.19;48;-155

LOOP num #;160
0.22;0.24;0.29;0.21;0.19;57;-147
0.22;0.25;0.29;0.23;0.20;128;-78
0.22;0.25;0.29;0.23;0.20;95;-113
0.22;0.24;0.29;0.23;0.20;70;-128
0.22;0.24;0.29;0.22;0.20;42;-143
0.22;0.25;0.29;0.22;0.20;70;-139
0.22;0.24;0.29;0.22;0.19;31;-151
0.22;0.24;0.29;0.22;0.20;48;-162
0.22;0.24;0.29;0.21;0.19;61;-147
0.22;0.24;0.29;0.20;0.19;44;-155

LOOP num #;161
0.22;0.24;0.29;0.21;0.19;36;-171
0.22;0.24;0.29;0.21;0.19;87;-125
0.22;0.24;0.29;0.21;0.19;52;-149
0.22;0.24;0.29;0.21;0.19;59;-147
0.22;0.23;0.29;0.20;0.19;67;-139
0.21;0.23;0.29;0.20;0.18;-4;-204
0.22;0.23;0.29;0.19;0.19;69;-129
0.21;0.23;0.29;0.20;0.19;48;-155
0.22;0.24;0.28;0.22;0.19;112;-64
0.22;0.25;0.29;0.22;0.19;24;-151

LOOP num #;162
0.22;0.25;0.28;0.22;0.19;62;-126
0.22;0.25;0.28;0.22;0.19;59;-140
0.22;0.25;0.28;0.22;0.20;50;-153
0.22;0.25;0.28;0.21;0.19;56;-147
0.22;0.24;0.28;0.21;0.19;53;-147
0.22;0.25;0.28;0.20;0.20;53;-150
0.22;0.24;0.29;0.20;0.20;48;-152
0.22;0.25;0.29;0.21;0.20;58;-140
0.22;0.25;0.28;0.21;0.19;49;-153
0.22;0.24;0.28;0.21;0.19;54;-146

LOOP num #;163
0.22;0.24;0.28;0.21;0.19;55;-147
0.22;0.24;0.29;0.20;0.20;49;-148
0.22;0.24;0.29;0.21;0.19;55;-146
0.22;0.24;0.29;0.21;0.19;59;-151
0.22;0.24;0.28;0.21;0.20;50;-150
0.22;0.24;0.29;0.20;0.20;31;-148
0.22;0.24;0.29;0.20;0.19;15;-140
0.22;0.25;0.28;0.21;0.20;-39;-151
0.22;0.25;0.28;0.21;0.20;34;-158
0.22;0.24;0.28;0.21;0.20;57;-143

LOOP num #;164
0.22;0.24;0.28;0.21;0.20;58;-146
0.22;0.24;0.28;0.21;0.20;57;-147
0.22;0.25;0.28;0.20;0.20;64;-143
0.22;0.24;0.28;0.20;0.20;56;-149
0.22;0.23;0.28;0.20;0.20;36;-164
0.22;0.24;0.28;0.20;0.20;35;-147
0.22;0.24;0.28;0.21;0.20;48;-173
0.22;0.23;0.28;0.21;0.20;17;-136
0.22;0.24;0.28;0.21;0.19;135;-101
0.22;0.24;0.27;0.21;0.20;27;-168

LOOP num #;165
0.22;0.24;0.27;0.21;0.20;-97;-207
0.21;0.23;0.28;0.19;0.19;16;-189
0.21;0.23;0.29;0.19;0.19;166;-182
0.21;0.22;0.28;0.19;0.19;50;-139
0.25;0.22;0.28;0.20;0.19;48;-177
0.28;0.23;0.29;0.22;0.20;13;-143
0.28;0.23;0.29;0.22;0.19;-11;-171
0.29;0.23;0.28;0.22;0.20;90;-121
0.29;0.23;0.28;0.22;0.19;37;-154
0.29;0.23;0.29;0.22;0.19;64;-135

LOOP num #;166
0.29;0.23;0.29;0.22;0.20;56;-147
0.29;0.23;0.28;0.22;0.20;47;-152
0.29;0.23;0.28;0.22;0.20;59;-144
0.29;0.23;0.29;0.22;0.20;52;-148
0.29;0.23;0.29;0.22;0.20;59;-148
0.29;0.23;0.29;0.22;0.20;53;-152
0.29;0.23;0.29;0.21;0.19;61;-147
0.30;0.23;0.28;0.22;0.20;54;-150
0.29;0.23;0.29;0.22;0.20;55;-145
0.29;0.23;0.28;0.21;0.20;58;-146

LOOP num #;167
0.29;0.23;0.29;0.21;0.20;58;-144
0.29;0.23;0.28;0.21;0.19;53;-144
0.29;0.23;0.29;0.21;0.19;57;-148
0.29;0.23;0.28;0.21;0.20;53;-148
0.29;0.23;0.28;0.22;0.19;58;-143
0.29;0.23;0.29;0.22;0.20;56;-145
0.29;0.23;0.29;0.21;0.20;57;-147
0.29;0.23;0.28;0.21;0.20;56;-147
0.28;0.23;0.29;0.21;0.20;51;-147
0.29;0.23;0.29;0.21;0.20;56;-147

LOOP num #;168
0.29;0.23;0.28;0.21;0.19;60;-146
0.29;0.23;0.28;0.22;0.19;52;-149
0.28;0.23;0.28;0.21;0.19;60;-147
0.29;0.23;0.28;0.22;0.20;53;-145
0.28;0.23;0.28;0.21;0.19;55;-149
0.29;0.23;0.29;0.21;0.19;56;-147
0.29;0.23;0.29;0.21;0.19;49;-148
0.28;0.23;0.29;0.22;0.20;56;-148
0.29;0.23;0.28;0.21;0.19;56;-146
0.29;0.23;0.28;0.22;0.19;59;-143

LOOP num #;169
0.29;0.23;0.29;0.22;0.19;59;-148
0.29;0.23;0.29;0.22;0.19;49;-154
0.27;0.23;0.28;0.21;0.19;60;-146
0.26;0.23;0.28;0.21;0.19;66;-147
0.26;0.22;0.28;0.21;0.19;34;-154
0.26;0.23;0.28;0.21;0.19;81;-131
0.27;0.22;0.28;0.22;0.19;43;-158
0.27;0.23;0.28;0.22;0.19;54;-140
0.28;0.23;0.28;0.22;0.19;120;-173
0.28;0.23;0.30;0.22;0.19;73;-146

LOOP num #;170
0.28;0.23;0.29;0.22;0.19;64;-143
0.28;0.23;0.29;0.22;0.19;62;-145
0.28;0.23;0.29;0.22;0.19;52;-148
0.28;0.22;0.30;0.22;0.19;56;-144
0.28;0.23;0.29;0.22;0.19;59;-147
0.28;0.23;0.29;0.22;0.19;55;-146
0.28;0.23;0.30;0.22;0.19;54;-144
0.29;0.23;0.29;0.24;0.18;59;-144
0.30;0.24;0.29;0.25;0.19;64;-142
0.30;0.24;0.29;0.25;0.19;70;-134

LOOP num #;171
0.30;0.23;0.29;0.25;0.19;50;-145
0.30;0.24;0.29;0.24;0.19;62;-142
0.30;0.23;0.29;0.23;0.19;43;-152
0.29;0.23;0.29;0.24;0.19;60;-149
0.29;0.23;0.29;0.23;0.19;52;-151
0.29;0.24;0.29;0.23;0.19;53;-150
0.26;0.23;0.28;0.22;0.19;48;-148
0.23;0.23;0.28;0.22;0.19;61;-147
0.21;0.23;0.28;0.21;0.19;13;-183
0.21;0.22;0.29;0.21;0.19;130;-148

LOOP num #;172
0.22;0.23;0.29;0.22;0.19;12;-170
0.22;0.23;0.28;0.23;0.19;82;-120
0.22;0.24;0.27;0.23;0.19;30;-148
0.22;0.24;0.28;0.23;0.19;72;-141
0.22;0.23;0.28;0.23;0.19;55;-143
0.22;0.23;0.28;0.22;0.19;56;-148
0.21;0.24;0.27;0.23;0.19;60;-145
0.21;0.24;0.28;0.23;0.19;59;-144
0.22;0.23;0.28;0.23;0.19;56;-148
0.21;0.24;0.27;0.22;0.19;51;-145

LOOP num #;173
0.22;0.23;0.27;0.22;0.19;50;-150
0.21;0.23;0.28;0.22;0.19;54;-147
0.21;0.23;0.28;0.22;0.19;51;-151
0.22;0.24;0.27;0.22;0.19;54;-146
0.21;0.23;0.27;0.22;0.19;52;-148
0.22;0.23;0.28;0.22;0.18;51;-146
0.21;0.23;0.28;0.22;0.19;56;-146
0.21;0.24;0.28;0.22;0.19;48;-147
0.21;0.24;0.28;0.22;0.19;57;-147
0.21;0.23;0.28;0.21;0.19;50;-145

LOOP num #;174
0.21;0.23;0.28;0.22;0.19;38;-148
0.21;0.23;0.28;0.18;0.19;59;-143
0.21;0.23;0.28;0.18;0.19;63;-140
0.20;0.23;0.28;0.18;0.19;60;-157
0.21;0.23;0.28;0.19;0.19;51;-146
0.22;0.24;0.28;0.20;0.19;66;-146
0.22;0.24;0.29;0.20;0.20;4;-196
0.22;0.24;0.28;0.21;0.20;39;-159
0.22;0.24;0.29;0.20;0.19;46;-155
0.22;0.24;0.29;0.20;0.20;64;-143

LOOP num #;175
0.22;0.24;0.28;0.20;0.19;47;-152
0.22;0.24;0.29;0.20;0.20;60;-150
0.22;0.24;0.29;0.20;0.19;63;-145
0.22;0.24;0.29;0.20;0.20;50;-151
0.21;0.24;0.29;0.21;0.19;59;-148
0.22;0.24;0.28;0.20;0.19;53;-149
0.22;0.24;0.29;0.21;0.19;50;-148
0.22;0.24;0.28;0.20;0.19;50;-149
0.22;0.24;0.29;0.20;0.19;53;-147
0.22;0.24;0.29;0.21;0.19;52;-153

LOOP num #;176
0.22;0.23;0.29;0.20;0.19;51;-156
0.21;0.23;0.29;0.21;0.19;64;-140
0.21;0.23;0.29;0.20;0.19;43;-173
0.21;0.22;0.29;0.20;0.19;63;-156
0.21;0.23;0.29;0.20;0.19;40;-162
0.20;0.22;0.29;0.21;0.19;39;-166
0.21;0.22;0.29;0.20;0.19;51;-152
0.21;0.22;0.29;0.20;0.19;79;-126
0.22;0.23;0.29;0.20;0.19;11;-179
0.22;0.23;0.29;0.21;0.19;74;-129

LOOP num #;177
0.21;0.23;0.29;0.21;0.19;51;-147
0.21;0.23;0.29;0.21;0.19;44;-168
0.22;0.24;0.29;0.21;0.19;52;-142
0.22;0.23;0.29;0.21;0.19;53;-150
0.21;0.23;0.29;0.20;0.20;59;-147
0.21;0.23;0.29;0.21;0.19;56;-151
0.21;0.23;0.29;0.21;0.19;57;-146
0.22;0.23;0.29;0.21;0.19;55;-146
0.21;0.23;0.30;0.21;0.19;54;-148
0.22;0.23;0.29;0.21;0.19;51;-147

LOOP num #;178
0.21;0.23;0.29;0.21;0.19;60;-144
0.22;0.23;0.29;0.21;0.19;52;-151
0.22;0.23;0.29;0.21;0.19;59;-141
0.22;0.24;0.29;0.21;0.19;46;-154
0.22;0.23;0.29;0.21;0.19;65;-148
0.22;0.24;0.29;0.21;0.19;47;-156
0.22;0.23;0.29;0.21;0.20;57;-142
0.21;0.23;0.29;0.21;0.19;63;-143
0.22;0.23;0.29;0.21;0.18;67;-147
0.22;0.23;0.29;0.21;0.19;68;-140

LOOP num #;179
0.21;0.23;0.29;0.21;0.19;53;-149
0.22;0.23;0.29;0.21;0.19;56;-151
0.21;0.23;0.29;0.20;0.18;60;-148
0.21;0.22;0.28;0.20;0.18;58;-138
0.21;0.22;0.28;0.19;0.18;55;-126
0.21;0.23;0.28;0.19;0.18;68;-136
0.21;0.22;0.28;0.20;0.18;65;-148
0.26;0.22;0.29;0.20;0.18;74;-180
0.27;0.23;0.29;0.20;0.18;73;-201
0.27;0.23;0.28;0.20;0.18;64;-129

LOOP num #;180
0.27;0.23;0.29;0.20;0.18;71;-139
0.27;0.22;0.29;0.20;0.18;50;-151
0.27;0.23;0.28;0.20;0.18;56;-148
0.26;0.22;0.29;0.21;0.18;56;-146
0.27;0.23;0.29;0.20;0.18;56;-145
0.27;0.23;0.28;0.20;0.18;58;-146
0.27;0.22;0.29;0.20;0.18;52;-149
0.26;0.23;0.29;0.21;0.18;52;-144
0.27;0.23;0.29;0.20;0.18;54;-148
0.27;0.23;0.29;0.20;0.18;59;-146

LOOP num #;181
0.26;0.23;0.28;0.20;0.18;51;-148
0.26;0.23;0.28;0.20;0.19;56;-137
0.25;0.22;0.29;0.20;0.18;53;-130
0.26;0.23;0.28;0.20;0.18;48;-158
0.25;0.23;0.28;0.20;0.18;52;-131
0.25;0.23;0.28;0.20;0.19;61;-148
0.26;0.22;0.29;0.20;0.18;50;-154
0.25;0.22;0.29;0.21;0.19;64;-131
0.26;0.22;0.28;0.21;0.19;48;-159
0.24;0.23;0.29;0.20;0.19;57;-152

LOOP num #;182
0.23;0.23;0.29;0.21;0.19;71;-126
0.21;0.23;0.29;0.21;0.19;45;-143
0.21;0.23;0.29;0.21;0.19;84;-159
0.21;0.23;0.29;0.20;0.19;50;-154
0.21;0.23;0.29;0.21;0.19;52;-150
0.21;0.23;0.29;0.21;0.19;39;-157
0.21;0.24;0.29;0.21;0.19;56;-150
0.22;0.23;0.29;0.21;0.19;66;-142
0.22;0.23;0.29;0.21;0.19;60;-148
0.22;0.23;0.28;0.21;0.19;51;-151

LOOP num #;183
0.21;0.23;0.29;0.21;0.19;48;-153
0.22;0.23;0.29;0.21;0.19;50;-147
0.21;0.23;0.28;0.21;0.19;49;-147
0.22;0.23;0.29;0.21;0.19;57;-147
0.22;0.23;0.29;0.21;0.19;51;-149
0.22;0.23;0.29;0.21;0.19;49;-150
0.22;0.23;0.29;0.21;0.19;56;-145
0.21;0.23;0.29;0.21;0.19;55;-151
0.21;0.23;0.29;0.21;0.19;56;-147
0.22;0.23;0.29;0.21;0.19;56;-146

LOOP num #;184
0.22;0.23;0.29;0.21;0.20;52;-147
0.22;0.23;0.29;0.21;0.20;54;-147
0.22;0.23;0.29;0.21;0.19;56;-150
0.22;0.23;0.29;0.21;0.19;56;-145
0.22;0.23;0.29;0.21;0.20;54;-150
0.22;0.23;0.29;0.21;0.19;53;-146
0.21;0.23;0.29;0.21;0.19;54;-146
0.22;0.23;0.29;0.21;0.19;61;-146
0.22;0.23;0.29;0.22;0.20;56;-151
0.22;0.23;0.29;0.21;0.20;73;-145

LOOP num #;185
0.22;0.23;0.29;0.22;0.20;108;-141
0.22;0.23;0.29;0.22;0.20;92;-156
0.22;0.23;0.29;0.21;0.20;67;-147
0.22;0.23;0.30;0.21;0.19;49;-153
0.22;0.24;0.29;0.22;0.19;53;-148
0.22;0.24;0.29;0.21;0.19;54;-147
0.22;0.23;0.29;0.22;0.20;50;-150
0.22;0.23;0.30;0.21;0.20;56;-145
0.22;0.23;0.29;0.21;0.19;55;-147
0.22;0.23;0.29;0.21;0.20;54;-147

LOOP num #;186
0.22;0.23;0.29;0.21;0.20;49;-149
0.22;0.24;0.29;0.22;0.20;55;-150
0.22;0.24;0.30;0.22;0.20;76;-149
0.22;0.24;0.30;0.22;0.20;45;-152
0.22;0.24;0.30;0.22;0.20;51;-143
0.22;0.24;0.30;0.22;0.20;41;-160
0.22;0.24;0.30;0.22;0.19;62;-139
0.22;0.24;0.30;0.21;0.20;51;-149
0.22;0.24;0.30;0.21;0.20;54;-141
0.22;0.23;0.29;0.21;0.19;46;-151

LOOP num #;187
0.22;0.24;0.29;0.21;0.20;71;-140
0.22;0.23;0.29;0.21;0.20;49;-147
0.22;0.23;0.29;0.20;0.19;48;-151
0.22;0.23;0.29;0.20;0.19;41;-136
0.22;0.23;0.29;0.21;0.19;39;-157
0.22;0.23;0.29;0.21;0.20;55;-151
0.22;0.23;0.29;0.21;0.20;57;-140
0.22;0.23;0.29;0.21;0.19;61;-149
0.22;0.24;0.29;0.21;0.20;51;-150
0.23;0.23;0.29;0.21;0.20;57;-148

LOOP num #;188
0.22;0.23;0.29;0.21;0.20;59;-145
0.22;0.24;0.29;0.21;0.20;61;-146
0.22;0.23;0.29;0.21;0.20;50;-149
0.22;0.23;0.29;0.20;0.19;50;-149
0.21;0.23;0.28;0.20;0.19;56;-146
0.22;0.22;0.28;0.20;0.19;41;-153
0.22;0.23;0.29;0.21;0.19;58;-146
0.22;0.23;0.28;0.20;0.19;64;-127
0.22;0.23;0.28;0.20;0.20;46;-145
0.22;0.24;0.28;0.21;0.19;63;-140

LOOP num #;189
0.22;0.24;0.28;0.21;0.19;52;-147
0.22;0.23;0.29;0.20;0.19;53;-145
0.23;0.23;0.29;0.20;0.19;63;-139
0.22;0.23;0.29;0.20;0.19;57;-143
0.22;0.24;0.28;0.20;0.19;64;-142
0.22;0.24;0.28;0.20;0.19;71;-125
0.22;0.24;0.29;0.20;0.19;78;-129
0.22;0.24;0.28;0.20;0.19;49;-154
0.22;0.24;0.29;0.20;0.19;59;-141
0.22;0.24;0.28;0.21;0.19;75;-124

LOOP num #;190
0.22;0.24;0.29;0.21;0.19;57;-149
0.22;0.24;0.28;0.21;0.19;66;-139
0.22;0.24;0.28;0.20;0.19;70;-138
0.22;0.24;0.29;0.21;0.20;59;-142
0.22;0.24;0.29;0.20;0.19;52;-146
0.22;0.24;0.28;0.20;0.19;54;-144
0.22;0.24;0.29;0.20;0.19;54;-147
0.22;0.24;0.29;0.21;0.19;55;-147
0.22;0.24;0.29;0.21;0.19;56;-145
0.22;0.24;0.29;0.21;0.19;59;-146

LOOP num #;191
0.22;0.24;0.28;0.21;0.19;58;-140
0.22;0.24;0.29;0.21;0.19;54;-144
0.22;0.24;0.28;0.20;0.19;56;-147
0.22;0.24;0.28;0.21;0.19;49;-154
0.22;0.24;0.28;0.20;0.19;60;-140
0.22;0.24;0.28;0.20;0.19;50;-147
0.22;0.24;0.28;0.20;0.19;55;-146
0.22;0.23;0.28;0.19;0.19;100;-96
0.22;0.24;0.28;0.20;0.18;34;-142
0.22;0.23;0.28;0.20;0.19;52;-148

LOOP num #;192
0.22;0.24;0.28;0.22;0.19;45;-156
0.22;0.24;0.28;0.22;0.19;-28;-243
0.22;0.24;0.28;0.22;0.19;37;-162
0.22;0.24;0.28;0.21;0.19;51;-154
0.22;0.24;0.29;0.21;0.19;51;-153
0.22;0.24;0.28;0.22;0.19;59;-146
0.22;0.24;0.28;0.22;0.19;49;-150
0.22;0.24;0.29;0.22;0.19;50;-148
0.22;0.24;0.28;0.22;0.18;56;-148
0.22;0.24;0.29;0.21;0.19;52;-148

LOOP num #;193
0.22;0.24;0.28;0.22;0.19;57;-144
0.22;0.24;0.28;0.21;0.19;56;-145
0.22;0.24;0.28;0.22;0.19;50;-151
0.22;0.23;0.28;0.21;0.19;53;-146
0.22;0.24;0.28;0.21;0.19;60;-146
0.22;0.24;0.29;0.21;0.19;51;-147
0.22;0.24;0.28;0.21;0.19;53;-150
0.22;0.24;0.29;0.21;0.19;57;-143
0.22;0.23;0.28;0.21;0.19;56;-148
0.22;0.24;0.29;0.21;0.19;53;-150

LOOP num #;194
0.22;0.24;0.28;0.21;0.19;57;-145
0.22;0.24;0.28;0.22;0.19;54;-147
0.22;0.24;0.28;0.21;0.19;54;-147
0.22;0.24;0.29;0.21;0.19;58;-144
0.22;0.24;0.28;0.22;0.19;49;-149
0.22;0.24;0.28;0.21;0.19;53;-148
0.22;0.24;0.28;0.21;0.18;56;-150
0.22;0.24;0.28;0.21;0.19;52;-144
0.22;0.24;0.29;0.21;0.20;49;-150
0.22;0.23;0.29;0.21;0.19;51;-147

LOOP num #;195
0.22;0.24;0.28;0.21;0.19;56;-146
0.22;0.24;0.29;0.21;0.19;54;-149
0.22;0.24;0.29;0.21;0.19;55;-147
0.22;0.23;0.29;0.21;0.19;58;-144
0.22;0.24;0.28;0.21;0.19;58;-140
0.22;0.24;0.29;0.21;0.19;52;-150
0.22;0.24;0.28;0.21;0.19;43;-150
0.22;0.24;0.28;0.21;0.19;58;-139
0.22;0.24;0.28;0.21;0.18;53;-149
0.22;0.24;0.28;0.21;0.18;49;-149

LOOP num #;196
0.22;0.24;0.28;0.21;0.19;51;-146
0.22;0.24;0.29;0.20;0.18;67;-139
0.21;0.24;0.28;0.20;0.18;65;-137
0.21;0.23;0.28;0.20;0.18;64;-147
0.21;0.22;0.28;0.19;0.18;-30;-195
0.21;0.23;0.28;0.19;0.19;-13;-220
0.21;0.23;0.28;0.19;0.18;26;-149
0.21;0.22;0.29;0.19;0.20;26;-161
0.21;0.24;0.28;0.19;0.20;54;-154
0.21;0.26;0.28;0.20;0.23;52;-90

LOOP num #;197
0.21;0.27;0.29;0.20;0.25;51;-156
0.21;0.27;0.29;0.21;0.25;110;-133
0.20;0.27;0.30;0.20;0.25;48;-141
0.20;0.27;0.30;0.20;0.25;53;-149
0.21;0.27;0.29;0.20;0.25;65;-146
0.20;0.27;0.30;0.20;0.25;55;-143
0.20;0.27;0.30;0.20;0.24;56;-143
0.21;0.28;0.30;0.20;0.25;55;-145
0.21;0.27;0.30;0.21;0.25;56;-146
0.21;0.27;0.29;0.20;0.25;51;-145

LOOP num #;198
0.21;0.27;0.29;0.21;0.24;56;-144
0.21;0.27;0.30;0.20;0.23;53;-151
0.21;0.28;0.29;0.20;0.24;63;-144
0.21;0.27;0.30;0.20;0.24;57;-144
0.21;0.27;0.29;0.20;0.24;53;-147
0.21;0.27;0.29;0.20;0.24;57;-146
0.21;0.27;0.29;0.20;0.25;54;-148
0.21;0.28;0.30;0.21;0.24;52;-147
0.21;0.27;0.29;0.21;0.24;54;-147
0.21;0.27;0.30;0.21;0.24;56;-150

LOOP num #;199
0.21;0.28;0.29;0.21;0.24;53;-148
0.21;0.27;0.29;0.21;0.24;53;-146
0.21;0.27;0.30;0.21;0.24;56;-146
0.20;0.28;0.29;0.21;0.24;51;-147
0.20;0.28;0.29;0.21;0.25;57;-145
0.20;0.28;0.29;0.21;0.25;60;-143
0.20;0.28;0.30;0.20;0.25;57;-143
0.21;0.27;0.29;0.21;0.24;53;-143
0.21;0.28;0.29;0.20;0.24;48;-145
0.21;0.28;0.29;0.21;0.24;49;-148

LOOP num #;200
0.21;0.28;0.30;0.21;0.25;52;-151
0.21;0.28;0.30;0.21;0.25;55;-141
0.21;0.27;0.29;0.21;0.25;53;-143
0.21;0.28;0.31;0.21;0.25;57;-143
0.21;0.28;0.30;0.21;0.25;53;-148
0.21;0.28;0.30;0.21;0.25;54;-146
0.21;0.28;0.30;0.21;0.25;56;-149
0.20;0.28;0.30;0.21;0.25;54;-144
0.21;0.28;0.30;0.20;0.26;52;-150
0.21;0.27;0.30;0.20;0.25;51;-149

