kid_id,session_id,game_id,num_answers_game,num_corrects_game,num_errors_game,num_indecisions_game,num_already_game,time_of_game,num_interruptions_game,quantity_feedback_game,grade_feedback_game,value_feedback_game
1000,2000,4000,,,,,,,,,,
1000,2000,4001,,,,,,,,,,
1000,2001,4002,,,,,,,,,,
1000,2001,4003,,,,,,,,,,
1000,2001,4004,,,,,,,,,,
1000,2002,4005,,,,,,,,,,
1000,2002,4006,,,,,,,,,,
1000,2002,4007,,,,,,,,,,
1000,2002,4008,,,,,,,,,,
1000,2002,4009,,,,,,,,,,
1000,2003,4010,,,,,,,,,,
1000,2003,4011,,,,,,,,,,
1000,2003,4012,,,,,,,,,,
1000,2003,4013,,,,,,,,,,
1000,2003,4014,,,,,,,,,,
1000,2004,4015,,,,,,,,,,
1000,2004,4016,,,,,,,,,,
1000,2004,4017,,,,,,,,,,
1000,2004,4018,,,,,,,,,,
1000,2004,4019,,,,,,,,,,
1000,2004,4020,,,,,,,,,,
1000,2004,4021,,,,,,,,,,
1000,2004,4022,,,,,,,,,,
1000,2005,4023,,,,,,,,,,
1000,2005,4024,,,,,,,,,,
1000,2005,4025,,,,,,,,,,
1000,2005,4026,,,,,,,,,,
1000,2005,4027,,,,,,,,,,
1000,2005,4028,,,,,,,,,,
1000,2005,4029,,,,,,,,,,
1000,2005,4030,,,,,,,,,,
1000,2005,4031,,,,,,,,,,
1000,2005,4032,,,,,,,,,,
1001,2006,4033,,,,,,,,,,
1001,2006,4034,,,,,,,,,,
1001,2006,4035,,,,,,,,,,
1001,2006,4036,,,,,,,,,,
1001,2006,4037,,,,,,,,,,
1001,2006,4038,,,,,,,,,,
1001,2006,4039,,,,,,,,,,
1001,2006,4040,,,,,,,,,,
1001,2006,4041,,,,,,,,,,
1001,2006,4042,,,,,,,,,,
1001,2006,4043,,,,,,,,,,
1001,2006,4044,,,,,,,,,,
1001,2023,4153,5,2,3,0,0,10,0,heavily,Excellent,0.8190529346466064
1001,2023,4154,7,3,4,0,0,18,0,heavily,Excellent,0.8190529346466064
