kid_id,session_id,match_id,num_answers_match,num_corrects_match,num_errors_match,num_indecisions_match,num_already_match,time_of_match,quantity_feedback_match,grade_feedback_match,value_feedback_match
1000,2000,3000,,,,,,,,,
1000,2001,3001,,,,,,,,,
1000,2002,3002,,,,,,,,,
1000,2002,3003,,,,,,,,,
1000,2003,3004,,,,,,,,,
1000,2003,3005,,,,,,,,,
1000,2004,3006,,,,,,,,,
1000,2004,3007,,,,,,,,,
1000,2004,3008,,,,,,,,,
1000,2005,3009,,,,,,,,,
1000,2005,3010,,,,,,,,,
1000,2005,3011,,,,,,,,,
1001,2006,3012,,,,,,,,,
1001,2006,3013,,,,,,,,,
1001,2006,3014,,,,,,,,,
1001,2006,3015,,,,,,,,,
1001,2023,3054,12,5,7,0,0,28,precisely,Excellent,0.7693817019462585
