kid_id,session_id,question_id,num_answers_question,num_corrects_question,num_errors_question,num_indecisions_question,num_already_question,time_of_question,quantity_feedback_question,grade_feedback_question,value_feedback_question
10000,20000,5,,,,,,,,,
10000,20000,6,,,,,,,,,
10000,20000,1763,,,,,,,,,
10000,20000,1765,,,,,,,,,
10000,20001,143,,,,,,,,,
10000,20001,120,,,,,,,,,
10000,20001,122,,,,,,,,,
10000,20001,214,,,,,,,,,
10000,20001,366,,,,,,,,,
10000,20002,22,,,,,,,,,
10000,20002,38,,,,,,,,,
10000,20002,1758,,,,,,,,,
10000,20002,219,,,,,,,,,
10000,20002,426,,,,,,,,,
10000,20002,518,,,,,,,,,
10000,20002,116,,,,,,,,,
10000,20002,1008,,,,,,,,,
10000,20002,1218,,,,,,,,,
10000,20002,1310,,,,,,,,,
10000,20003,1764,,,,,,,,,
10000,20003,1768,,,,,,,,,
10000,20003,428,,,,,,,,,
10000,20003,445,,,,,,,,,
10000,20003,590,,,,,,,,,
10000,20003,1758,,,,,,,,,
10000,20003,121,,,,,,,,,
10000,20003,122,,,,,,,,,
10000,20003,125,,,,,,,,,
10000,20003,74,,,,,,,,,
10000,20003,85,,,,,,,,,
10000,20004,6,,,,,,,,,
10000,20004,8,,,,,,,,,
10000,20004,119,,,,,,,,,
10000,20004,30,,,,,,,,,
10000,20004,215,,,,,,,,,
10000,20004,1764,,,,,,,,,
10000,20004,129,,,,,,,,,
10000,20004,222,,,,,,,,,
10000,20004,1190,,,,,,,,,
10000,20004,1804,,,,,,,,,
10000,20004,1820,,,,,,,,,
10000,20004,1855,,,,,,,,,
10000,20004,1869,,,,,,,,,
10000,20005,568,,,,,,,,,
10000,20005,1743,,,,,,,,,
10000,20005,1762,,,,,,,,,
10000,20005,1785,,,,,,,,,
10000,20005,119,,,,,,,,,
10000,20005,121,,,,,,,,,
10000,20005,134,,,,,,,,,
10000,20005,257,,,,,,,,,
10000,20005,37,,,,,,,,,
10000,20005,1759,,,,,,,,,
10000,20005,2255,,,,,,,,,
10000,20005,2284,,,,,,,,,
10000,20005,2314,,,,,,,,,
10000,20005,1866,,,,,,,,,
10000,20005,1893,,,,,,,,,
10000,20005,2480,,,,,,,,,
10000,20005,2774,,,,,,,,,
10000,20005,2952,,,,,,,,,
10000,20005,2419,,,,,,,,,
10000,20005,2422,,,,,,,,,
10000,20005,2353,,,,,,,,,
10000,20005,2402,,,,,,,,,
10000,20005,2412,,,,,,,,,
10000,20005,1905,,,,,,,,,
10000,20005,1993,,,,,,,,,
10001,20006,1819,,,,,,,,,
10001,20006,1820,,,,,,,,,
10001,20006,1836,,,,,,,,,
10001,20006,3016,,,,,,,,,
10001,20006,1811,,,,,,,,,
10001,20006,1820,,,,,,,,,
10001,20006,1836,,,,,,,,,
10001,20006,2351,,,,,,,,,
10001,20006,2366,,,,,,,,,
10001,20006,1851,,,,,,,,,
10001,20006,1819,,,,,,,,,
10001,20006,1854,,,,,,,,,
10001,20006,1946,,,,,,,,,
10001,20006,3011,,,,,,,,,
10001,20006,1222,,,,,,,,,
10001,20006,1788,,,,,,,,,
10001,20006,48,,,,,,,,,
10001,20006,73,,,,,,,,,
10001,20006,1933,,,,,,,,,
10001,20006,2308,,,,,,,,,
10001,20006,2361,,,,,,,,,
10001,20006,3011,,,,,,,,,
10001,20006,2256,,,,,,,,,
10001,20006,2397,,,,,,,,,
10001,20022,11941,,,,,,,,,
10001,20022,11945,,,,,,,,,
10001,20022,316,,,,,,,,,
10001,20022,2454,,,,,,,,,
10001,20022,3040,,,,,,,,,
10001,20022,8926,,,,,,,,,
10001,20022,11978,,,,,,,,,
