kid_id,session_id,question_id,num_answers_question,num_corrects_question,num_errors_question,num_indecisions_question,num_already_question,time_of_question,quantity_feedback_question,grade_feedback_question,value_feedback_question
1000,2000,5,,,,,,,,,
1000,2000,6,,,,,,,,,
1000,2000,1763,,,,,,,,,
1000,2000,1765,,,,,,,,,
1000,2001,143,,,,,,,,,
1000,2001,122,,,,,,,,,
1000,2001,120,,,,,,,,,
1000,2001,214,,,,,,,,,
1000,2001,366,,,,,,,,,
1000,2002,22,,,,,,,,,
1000,2002,38,,,,,,,,,
1000,2002,1758,,,,,,,,,
1000,2002,518,,,,,,,,,
1000,2002,426,,,,,,,,,
1000,2002,219,,,,,,,,,
1000,2002,116,,,,,,,,,
1000,2002,1310,,,,,,,,,
1000,2002,1008,,,,,,,,,
1000,2002,1218,,,,,,,,,
1000,2003,1770,,,,,,,,,
1000,2003,1764,,,,,,,,,
1000,2003,328,,,,,,,,,
1000,2003,592,,,,,,,,,
1000,2003,428,,,,,,,,,
1000,2003,1758,,,,,,,,,
1000,2003,122,,,,,,,,,
1000,2003,125,,,,,,,,,
1000,2003,121,,,,,,,,,
1000,2003,85,,,,,,,,,
1000,2003,74,,,,,,,,,
1000,2004,8,,,,,,,,,
1000,2004,6,,,,,,,,,
1000,2004,119,,,,,,,,,
1000,2004,30,,,,,,,,,
1000,2004,1764,,,,,,,,,
1000,2004,215,,,,,,,,,
1000,2004,222,,,,,,,,,
1000,2004,129,,,,,,,,,
1000,2004,1190,,,,,,,,,
1000,2004,1804,3,1,2,0,0,6,precisely,Good,0.5
1000,2004,1820,,,,,,,,,
1000,2004,1855,,,,,,,,,
1000,2004,1869,,,,,,,,,
1000,2005,1743,,,,,,,,,
1000,2005,1785,,,,,,,,,
1000,2005,568,,,,,,,,,
1000,2005,1762,,,,,,,,,
1000,2005,119,,,,,,,,,
1000,2005,134,,,,,,,,,
1000,2005,121,,,,,,,,,
1000,2005,257,,,,,,,,,
1000,2005,1759,,,,,,,,,
1000,2005,37,,,,,,,,,
1000,2005,2255,,,,,,,,,
1000,2005,2284,,,,,,,,,
1000,2005,2314,,,,,,,,,
1000,2005,1893,,,,,,,,,
1000,2005,1866,,,,,,,,,
1000,2005,2774,,,,,,,,,
1000,2005,2480,,,,,,,,,
1000,2005,2952,,,,,,,,,
1000,2005,2419,,,,,,,,,
1000,2005,2422,,,,,,,,,
1000,2005,2412,,,,,,,,,
1000,2005,2402,,,,,,,,,
1000,2005,2353,,,,,,,,,
1000,2005,1905,,,,,,,,,
1000,2005,1993,,,,,,,,,
1001,2006,1819,,,,,,,,,
1001,2006,1820,,,,,,,,,
1001,2006,1837,,,,,,,,,
1001,2006,3016,,,,,,,,,
1001,2006,1820,,,,,,,,,
1001,2006,1837,,,,,,,,,
1001,2006,1811,,,,,,,,,
1001,2006,2351,,,,,,,,,
1001,2006,2366,,,,,,,,,
1001,2006,1851,,,,,,,,,
1001,2006,1853,,,,,,,,,
1001,2006,1946,,,,,,,,,
1001,2006,1819,,,,,,,,,
1001,2006,3011,,,,,,,,,
1001,2006,1222,,,,,,,,,
1001,2006,1790,,,,,,,,,
1001,2006,73,,,,,,,,,
1001,2006,48,,,,,,,,,
1001,2006,1933,,,,,,,,,
1001,2006,2308,,,,,,,,,
1001,2006,2361,,,,,,,,,
1001,2006,3012,,,,,,,,,
1001,2006,2397,,,,,,,,,
1001,2006,2256,,,,,,,,,
1001,2023,1806,2,1,1,0,0,4,heavily,Perfect,0.905559778213501
1001,2023,1804,3,1,2,0,0,6,precisely,Good,0.5
1001,2023,3033,2,1,1,0,0,4,precisely,Excellent,0.7499514818191528
1001,2023,3043,1,1,0,0,0,6,heavily,Perfect,0.9196213483810425
1001,2023,3038,4,1,3,0,0,8,precisely,Good,0.5
