kid_id,session_id,match_id,num_answers_match,num_corrects_match,num_errors_match,num_indecisions_match,num_already_match,time_of_match,quantity_feedback_match,grade_feedback_match,value_feedback_match
10000,20000,30000,,,,,,,,,
10000,20001,30001,,,,,,,,,
10000,20002,30002,,,,,,,,,
10000,20002,30003,,,,,,,,,
10000,20003,30004,,,,,,,,,
10000,20003,30005,,,,,,,,,
10000,20004,30006,,,,,,,,,
10000,20004,30007,,,,,,,,,
10000,20004,30008,,,,,,,,,
10000,20005,30009,,,,,,,,,
10000,20005,30010,,,,,,,,,
10000,20005,30011,,,,,,,,,
10001,20006,30012,,,,,,,,,
10001,20006,30013,,,,,,,,,
10001,20006,30014,,,,,,,,,
10001,20006,30015,,,,,,,,,
10001,20022,30051,,,,,,,,,
10001,20022,30052,,,,,,,,,
10001,20022,30053,,,,,,,,,
