--> gyros: 
[-148, -34]
[57, 9]

--> gyros: 
[-143, -36]
[56, 9]

--> gyros: 
[-147, -34]
[54, 10]

--> gyros: 
[-143, -33]
[54, 7]

--> gyros: 
[-148, -33]
[54, 8]

--> gyros: 
[-148, -31]
[56, 11]

--> gyros: 
[-147, -36]
[56, 9]

--> gyros: 
[-147, -33]
[53, 11]

--> gyros: 
[-148, -34]
[54, 8]

--> gyros: 
[-144, -33]
[52, 6]

--> gyros: 
[-144, -32]
[55, 9]

--> gyros: 
[-146, -33]
[55, 9]

--> gyros: 
[-147, -35]
[57, 9]

--> gyros: 
[-148, -35]
[56, 10]

--> gyros: 
[-149, -32]
[55, 8]

--> gyros: 
[-147, -34]
[59, 7]

--> gyros: 
[-146, -33]
[53, 8]

--> gyros: 
[-148, -35]
[55, 9]

--> gyros: 
[-148, -37]
[56, 8]

--> gyros: 
[-147, -35]
[54, 8]

--> gyros: 
[-147, -35]
[55, 11]

--> gyros: 
[-146, -36]
[54, 7]

--> gyros: 
[-148, -34]
[56, 6]

--> gyros: 
[-146, -33]
[58, 7]

--> gyros: 
[-147, -34]
[55, 9]

--> gyros: 
[-144, -32]
[54, 7]

--> gyros: 
[-145, -36]
[55, 7]

--> gyros: 
[-148, -35]
[53, 7]

--> gyros: 
[-145, -33]
[57, 10]

--> gyros: 
[-146, -35]
[57, 10]

--> gyros: 
[-147, -31]
[55, 10]

--> gyros: 
[-145, -35]
[53, 7]

--> gyros: 
[-149, -34]
[54, 5]

--> gyros: 
[-147, -36]
[55, 7]

--> gyros: 
[-146, -33]
[53, 10]

--> gyros: 
[-146, -34]
[56, 9]

--> gyros: 
[-143, -32]
[54, 9]

--> gyros: 
[-148, -35]
[56, 8]

--> gyros: 
[-148, -33]
[54, 11]

--> gyros: 
[-146, -34]
[55, 6]

--> gyros: 
[-148, -33]
[55, 4]

--> gyros: 
[-146, -33]
[57, 9]

--> gyros: 
[-145, -33]
[54, 8]

--> gyros: 
[-150, -36]
[57, 7]

--> gyros: 
[-146, -34]
[54, 9]

--> gyros: 
[-147, -33]
[53, 8]

--> gyros: 
[-148, -35]
[54, 8]

--> gyros: 
[-146, -31]
[55, 9]

--> gyros: 
[-148, -37]
[55, 10]

--> gyros: 
[-147, -32]
[54, 8]

--> gyros: 
[-146, -34]
[56, 10]

--> gyros: 
[-147, -36]
[55, 7]

--> gyros: 
[-147, -36]
[54, 7]

--> gyros: 
[-151, -33]
[56, 7]

--> gyros: 
[-145, -34]
[56, 10]

--> gyros: 
[-148, -35]
[55, 8]

--> gyros: 
[-145, -35]
[55, 8]

--> gyros: 
[-145, -32]
[56, 11]

--> gyros: 
[-147, -33]
[55, 8]

--> gyros: 
[-144, -32]
[55, 10]

--> gyros: 
[-146, -36]
[54, 9]

--> gyros: 
[-146, -33]
[53, 8]

--> gyros: 
[-147, -35]
[55, 11]

--> gyros: 
[-147, -36]
[54, 7]

--> gyros: 
[-148, -34]
[52, 7]

--> gyros: 
[-145, -33]
[55, 12]

--> gyros: 
[-149, -38]
[54, 10]

--> gyros: 
[-148, -32]
[55, 10]

--> gyros: 
[-145, -34]
[57, 12]

--> gyros: 
[-148, -35]
[54, 9]

--> gyros: 
[-147, -36]
[55, 10]

--> gyros: 
[-145, -35]
[56, 8]

--> gyros: 
[-147, -35]
[54, 9]

--> gyros: 
[-146, -34]
[57, 11]

--> gyros: 
[-147, -33]
[54, 8]

--> gyros: 
[-144, -32]
[55, 9]

--> gyros: 
[-148, -34]
[56, 8]

--> gyros: 
[-143, -34]
[54, 9]

